user,first_name,last_name,PBP_WLC_305_4_CHAPTER00_timespent,PBP_WLC_305_4_CHAPTER01_timespent,PBP_WLC_305_4_CHAPTER02_timespent,PBP_WLC_305_4_CHAPTER03_timespent,PBP_WLC_305_4_CHAPTER04_timespent,PBP_WLC_305_4_CHAPTER05_timespent,PBP_WLC_305_4_CHAPTER06_timespent,PBP_WLC_305_4_CHAPTER07_timespent,PBP_WLC_305_4_CHAPTER08_timespent,PBP_WLC_305_4_CHAPTER09_timespent,PBP_WLC_305_4_CHAPTER10_timespent,Pass,No_Pass,Extend
0225a76e-c5ce-43cf-bfc6-37ac849b11ab,Gail N.,Robinson,259,67,1839.4549999237061,2311.3810005187988,35,34,39,87,0,0,0,0,0,1
10f096e2-1c3a-4eaf-a217-7213fdd62207,Sofia,Poliak,335,206,1227.1029999256134,2151.6080007553101,20,2267,39,1072,27,101,18,1,0,0
14928783-1a93-46f7-9c4e-6ac4498a2b82,Francesca,DeLeon,35,77,374.55799984931946,1016.684999704361,17,51,17,83,9,61,2,1,0,0
1b53da90-c554-482b-a9e7-d219e4631604,Nicole ,Grant,78,104,856.64100003242493,219.35499978065491,4,427,192,583,38,13,0,0,0,1
2080070e-dce0-4447-8800-e1d7c7cdb432,Kathleen,McManus,304,126,1491.8190002441406,1660.2730004787445,8,393,58,110,84,39,4,1,0,0
2f78bc99-e2fc-4bc4-9e21-d0d6cf4212da,Rosa,Alvarez,102,57,111.3580002784729,54.936000108718872,3,5,25,83,0,0,0,0,0,1
40f5b29e-21ee-4eaf-831d-c634d69b8051,Darlene,Weber,28,78,848.90599989891052,1167.0300004482269,21,796,78,52,12,78,2,1,0,0
4658e802-9dfb-4e0e-8270-ad0783469c4a,Dawn,Cummings,131,116,438.96000051498413,884.32299947738647,19,241,39,425,28,63,8,1,0,0
467c583c-3378-4d99-be70-d9103b0e40f0,Theresa,Davis,79,134,1562.1879999637604,2620.0160000324249,33,1264,35,267,8,39,85,1,0,0
575b7251-1094-4144-9096-b014febeaad5,Julie ,Reifer-Jones,214,79,158.02099990844727,0,0,0,1,174,0,0,0,0,0,1
596e50c2-5959-48e2-9af0-c1959c51f81e,Vicki,Baker,98,45,967.1279993057251,0,0,0,0,0,0,0,0,0,0,1
619fdf3c-dc23-4617-a1da-e738e7652836,Annie,Li,63,31,1160.0649998188019,3853.5569999217987,6,660,42,251,3,39,12,1,0,0
6439231d-daee-439c-b72f-71ec15406ac4,Kesley,Tweed,25,37,832.10499978065491,1499.583000421524,7,152,14,17,17,3,0,1,0,0
6779cb21-e4f6-47bc-95fe-344e58777d9c,Ernestine,Slay,333,165,975.65000033378601,1942.1579999923706,141,378,15,504,18,16,36,1,0,0
7230e336-ee2f-4f0c-a823-c9bbd7e16f61,Candra,Cho,0,0,0,0,0,0,0,0,0,0,0,0,0,1
74f273e5-9147-4908-b37b-19f6cf95d547,Laura,Engles-Horton,0,0,0,0,0,0,0,0,0,0,0,0,0,1
84355766-82b8-4ab7-8120-0111929dbc70,JOELLE,RONDEAU,329,88,1923.074999332428,2285.0080003738403,38,551,0,203,34,0,0,0,1,0
8ae95337-3de9-40a0-8e5c-8c4228eb25ac,Bridget,Eastham,33,120,1044.1340007781982,2012.0860013961792,59,1899,39,140,24,38,4,1,0,0
94b0a12f-e154-4b93-8d82-c2a0f9465958,Sarah,Mihalow,83,2,1054.271999835968,5.0690000057220459,13,0,0,0,0,0,0,0,0,1
aa76ec8d-c384-48a9-b9f0-faf7b55a00cb,Cheryl,Adkins,582,43,1406.5190000534058,1240.5329992771149,15,286,39,84,0,0,0,0,0,1
b35085f7-a1c8-415c-a150-2ddd0e4a1473,Maria,Cavallo,365,127,1209.3830003738403,133.06300044059753,0,653,78,0,5,6,7,0,0,1
ba1446f7-fd29-48d6-89ec-d17b16c5098e,Jodi ,Crovo,27,338,2835.7880005836487,1589.885999917984,58,325,0,40,0,0,0,0,0,1
ba338861-bb3a-483c-b8bd-3e5f4ad84551,Teresa,Paschall,145,167,2687.7639997005463,3218.7420001029968,44,450,54,212,0,0,0,0,0,1
ca2a2529-6ff9-423e-9659-62542e969525,Lillian,McIntyre,122,32,1876.7530000209808,3116.8230004310608,13,240,39,54,149,0,0,0,0,1
cbce1bec-598e-47b1-b83d-67916f738ad2,Amanda,Wasniewski,19,39,1770.7639997005463,2386.2290003299713,26,311,42,92,52,86,2,1,0,0
cf3d73ea-a615-4b98-ab65-cfcac89e76f6,MARYROSE,SALVACION,118,97,784.07799911499023,212.1010000705719,2,0,0,0,0,0,0,0,0,1
d0610172-2a74-4597-a287-a3d7e97dd8f6,Leslie,Boggs,162,129,2091.9050002098083,702.30600023269653,23,244,65,241,18,33,0,1,0,0
dfc7120f-9717-43f1-b797-21775e768c96,Mary,Abatie,141,28,1212.8149993419647,1391.1810004711151,23,151,39,93,22,0,0,1,0,0
e6a86749-25d5-41cd-b821-18c9d7d046cf,Elsie,Onofrio,232,409,2303.4870004653931,960.83500003814697,48,92,202,369,315,121,35,1,0,0
f41c281a-1121-426c-92c1-53a6ae2db407,Sarah,Carper,74,127,1907.9029996395111,3941.8740000724792,27,31,94,3330,31,78,2,1,0,0
f8b18315-0810-48a8-904b-e6337e847da5,Cathy,Brosnan-Trepus,34,48,1029.5580005645752,1976.3020007610321,23,97,77,477,14,31,33,1,0,0
