24a64ea0-4d7f-4698-9aac-2a93e2f39022,Dawn,Watson

539c1829-0a80-4a42-9657-e2e5b8b8ed92,Michelle,King

95955dd3-ee9d-4ca9-acaa-1cd7bc88a1bd,Windora,Bradburn
99ded865-3414-4215-8bfb-73a383eaae4a,Steph,Reid
a2939ff6-3b74-4a29-be89-d9d8e4e67962,Russ,Dumigan

b7a4a311-09d3-41c2-84c2-864c12636478,Torri,Hurn
d3652eef-8a78-44fe-a6fe-e6590317c388,Michelle,Barlow

d3b9f932-6384-41cf-bf5d-b849a5a34553,Seth,Engel
eb5a53eb-57ff-4206-ab96-5b1b1ee7d4e1,Stacy,Schrank
ebbdc03d-cacb-42e9-86b0-dff7810106b3,Shalena,Cooper-Booze
f9ad0e0c-9995-4521-a5b7-a373a77e1967,Shawn,Scheutzow
fd9bde61-3524-44a3-9e0b-8f85c88ecc9e,Christina,Bristol
