{
    "PBP_MAH_102_6_CONTENT01-0": {
        "PBP_MAH_102_6_pdf/1 - Hero Checklist.pdf[0]": [
            "PHONE:", 
            "800-964-6033", 
            "lNFO\u00a9MANAGINGSUPERHEROES.COM", 
            "HERO", 
            "CHECKLIST", 
            "Powers", 
            "Overview", 
            "(6/8-6/14)", 
            "-", 
            "Complete", 
            "prior", 
            "to", 
            "mission", 
            "briefing", 
            "D", 
            "D", 
            "D", 
            "D", 
            "D", 
            "Complete", 
            "the", 
            "Icebreaker", 
            "on", 
            "The", 
            "HeroBoard", 
            "by", 
            "\u201cDefeating", 
            "the", 
            "Freeze\u201d", 
            "Complete", 
            "the", 
            "superpower", 
            "pre-test", 
            "to", 
            "start", 
            "vanquishing", 
            "toxic", 
            "employees", 
            "Explore", 
            "your", 
            "origin", 
            "by", 
            "viewing", 
            "the", 
            "recording", 
            "and", 
            "answering", 
            "related", 
            "questions", 
            "Extra!", 
            "Extra!", 
            "Read", 
            "2", 
            "Articles", 
            "\u201c5", 
            "Types", 
            "of", 
            "Toxic", 
            "Employees", 
            "and", 
            "How", 
            "to", 
            "Deal", 
            "With", 
            "Them\u201d", 
            "&", 
            "\u201cThe", 
            "Moody", 
            "Employee:", 
            "Dealing", 
            "with", 
            "Personality", 
            "Problems\u201d", 
            "Reconvene", 
            "in", 
            "the", 
            "Superhero", 
            "Lounge,", 
            "and", 
            "answer", 
            "the", 
            "2", 
            "related", 
            "questions", 
            "for", 
            "\u201cThe", 
            "Moody", 
            "Employee:", 
            "Dealing", 
            "with", 
            "Personality", 
            "Problems\u201d", 
            "Mission", 
            "Briefing", 
            "(6/15", 
            "@", 
            "1pm-2:30pm", 
            "ET)", 
            "B", 
            "Attend", 
            "the", 
            "live", 
            "expert-led", 
            "training", 
            "Take", 
            "Action", 
            "(6/16-6/17)", 
            "D", 
            "D", 
            "D", 
            "D", 
            "Take", 
            "Action!", 
            "Complete", 
            "the", 
            "action", 
            "plan", 
            "in", 
            "order", 
            "to", 
            "prepare", 
            "to", 
            "fight", 
            "your", 
            "workplace", 
            "villain", 
            "using", 
            "your", 
            "newly", 
            "acquired", 
            "superpowers", 
            "Hand", 
            "in", 
            "your", 
            "completed", 
            "Take", 
            "Action-", 
            "Action", 
            "Plan", 
            "to", 
            "headquarters", 
            "by", 
            "Friday,", 
            "June", 
            "17,", 
            "2016", 
            "Time", 
            "for", 
            "Battle!", 
            "Complete", 
            "your", 
            "battle", 
            "strategy", 
            "in", 
            "order", 
            "to", 
            "fight", 
            "your", 
            "workplace", 
            "villain", 
            "using", 
            "your", 
            "newly", 
            "acquired", 
            "superpowers", 
            "Share", 
            "your", 
            "experiences,", 
            "successes", 
            "&", 
            "ask", 
            "questions", 
            "with", 
            "your", 
            "fellow", 
            "superheroes-in-", 
            "training", 
            "and", 
            "the", 
            "mission", 
            "advisor", 
            "on", 
            "the", 
            "HeroBoard", 
            "Complete", 
            "the", 
            "post-evaluation", 
            "to", 
            "see", 
            "how", 
            "prepared", 
            "you", 
            "are", 
            "to", 
            "vanquish", 
            "toxic", 
            "employees", 
            "MISSION", 
            "COMPLETE!", 
            ".\u2019", 
            "Managers", 
            "Are", 
            "Heroes", 
            "384", 
            "Technology", 
            "Drive", 
            "Malvern,", 
            "PA", 
            "19355-1315", 
            "Earn", 
            "your", 
            "cape", 
            "at:", 
            "ManagersAreHeroes.com"
        ]
    }, 
    "PBP_MAH_102_6_CONTENT00-0": {
        "PBP_MAH_102_6_pdf/player_product_guide_PBP_MAH_v2.4.pdf[2]": [
            "Laptop", 
            "Security", 
            "\u201c1;\":", 
            "Laptop", 
            "Security", 
            "UNIT", 
            "1", 
            ":", 
            "Welcome", 
            "JF\u2019UFI'HJ'J", 
            "'4\"", 
            "\u00a333..", 
            "'_", 
            "\u201d-7-\u201c"
        ], 
        "PBP_MAH_102_6_pdf/player_product_guide_PBP_MAH_v2.4.pdf[1]": [
            "Table", 
            "of", 
            "Contents", 
            "CONTENTS", 
            "Navigating", 
            "the", 
            "Course", 
            "Interacting", 
            "with", 
            "Content", 
            "Working", 
            "with", 
            "Notes", 
            "PDF", 
            "Download", 
            "Managing", 
            "the", 
            "Windows", 
            "Using", 
            "the", 
            "Search", 
            "Feature", 
            "Using", 
            "the", 
            "Settings", 
            "Menu", 
            "Loooqowmbw", 
            "Managers", 
            "Are", 
            "Heroes", 
            "384", 
            "Technology", 
            "Drive", 
            "Malvern,", 
            "PA", 
            "19355", 
            "1\u2014800\u2014964\u20146033", 
            "|", 
            "ManagersAreHeroes.com", 
            "Page", 
            "2"
        ], 
        "PBP_MAH_102_6_pdf/player_product_guide_PBP_MAH_v2.4.pdf[0]": [
            "USER", 
            "UIDE"
        ], 
        "PBP_MAH_102_6_pdf/player_product_guide_PBP_MAH_v2.4.pdf[5]": [
            "La", 
            "plow", 
            "33cm", 
            "ty", 
            "*1", 
            "Menace-p", 
            "In", 
            "#6", 
            "WI!-", 
            "\u00e9\"\"-\u2018HF.w.-o\u2018j", 
            "'1\"", 
            "(liar", 
            "."
        ], 
        "PBP_MAH_102_6_pdf/player_product_guide_PBP_MAH_v2.4.pdf[4]": [
            "In", 
            "order", 
            "to", 
            "avoid", 
            "the", 
            "frustration", 
            "of", 
            "losing", 
            "valuable", 
            "work", 
            "you", 
            "ma", 
            "consider", 
            "then", 
            "cutting", 
            "and", 
            "pasting", 
            "them", 
            "onto", 
            "the", 
            "discussio", 
            "boa", 
            "'d.", 
            "Cursor", 
            "Eraser", 
            "Penc\ufb02", 
            "TextBox", 
            "Pencil", 
            "Color", 
            "Voice", 
            "Recorder", 
            "Laptop", 
            "thieves", 
            "are", 
            "evi"
        ], 
        "PBP_MAH_102_6_pdf/player_product_guide_PBP_MAH_v2.4.pdf[9]": [], 
        "PBP_MAH_102_6_pdf/player_product_guide_PBP_MAH_v2.4.pdf[3]": [
            "ojoin", 
            "m", 
            "an", 
            "online", 
            "discussion", 
            "related", 
            "to", 
            "tle", 
            "lesson", 
            "content.", 
            "For", 
            "maximum", 
            "bene\ufb01t", 
            "an-", 
            "this", 
            "discttssiou", 
            "se\\", 
            "eral", 
            "times", 
            "a", 
            "week.", 
            "Ouine", 
            "disctlssiou", 
            "postings", 
            "must", 
            "be", 
            "of\u201cmeauu:", 
            "to", 
            "the", 
            "mluc", 
            "that", 
            "you", 
            "add", 
            "to", 
            "th", 
            "'", 
            "'", 
            "occur", 
            "in", 
            "various.", 
            "ways", 
            "such", 
            "as:", 
            "0:!", 
            "on", 
            "a", 
            "topic", 
            "that", 
            "starts", 
            ")ost", 
            "to", 
            "your", 
            "experience", 
            ",", 
            ".7", 
            "n", 
            ".", 
            "_\u2018", 
            "\u2018", 
            "-", 
            "\u2018", 
            "\u2018", 
            "fymg", 
            "common", 
            "themes", 
            "orb\".", 
            "5m", 
            "'", 
            "conststencies.", 
            "tent", 
            "to", 
            "the", 
            "disullssion", 
            "o]", 
            "'c", 
            "r", 
            "\u00ab", 
            "mm", 
            "umWordandthcncuttin", 
            "Bookmark", 
            "Copy", 
            "Highlight", 
            "Wikipedia", 
            "Search", 
            "Create", 
            "Note", 
            "Google", 
            "Search", 
            "i", 
            "Bookmark:", 
            "1'", 
            "Highlight:", 
            "@", 
            "Create", 
            "Note:", 
            "G", 
            "W", 
            "Wikipedia", 
            "Search:", 
            "forward", 
            "and", 
            "back", 
            "arrows", 
            "on", 
            "the", 
            "bookmarks", 
            "and", 
            "notes", 
            "navigator."
        ], 
        "PBP_MAH_102_6_pdf/player_product_guide_PBP_MAH_v2.4.pdf[8]": [
            "LINlT", 
            "\u2018I", 
            ":", 
            "Welcnmn", 
            "UNIT", 
            ":P", 
            ":", 
            "Laptop", 
            "Eecur'\ufb02y", 
            "i\"\"'-\"IIVF.~=.I'}", 
            "\"", 
            "F", 
            "gt?\u201d", 
            "\u2018"
        ], 
        "PBP_MAH_102_6_pdf/player_product_guide_PBP_MAH_v2.4.pdf[7]": [
            ":F-L", 
            "HO!", 
            "7*\"", 
            "I\u201c;", 
            "Laptap", 
            "Sammy", 
            "Laptop", 
            "Secur'\ufb02y", 
            "J\u2019r\ufb02?JI-\u2018i\"\u00a5fl\ufb02ri.", 
            ":\u2018", 
            "1-1?\u201c", 
            "M'm-\u2018t", 
            "I'-.", 
            ".r", 
            "2\u00bb:ha", 
            "\u201cP'", 
            "Article", 
            "Text", 
            "0", 
            "Results"
        ], 
        "PBP_MAH_102_6_pdf/player_product_guide_PBP_MAH_v2.4.pdf[6]": [
            "\ufb01rm-H", 
            "Minimize", 
            "STU-{Hill", 
            "\u201dmull\u201c", 
            "\"III'H", 
            "*rtw.l.|.ynp", 
            ".'q", 
            ".\u2014\u00a2g..,,.]", 
            ".Q-u", 
            "*.v;.,.:..", 
            "\"", 
            "M", 
            "7'.\u201d", 
            "Sill-aim", 
            "LEW", 
            ".", 
            ".-", 
            "'"
        ]
    }, 
    "PBP_MAH_102_6_CONTENT06-0": {
        "PBP_MAH_102_6_pdf/2 - Article.pdf[0]": [
            "l", 
            ".c\u2014A", 
            "Q", 
            "0", 
            "WElje", 
            "@fftc", 
            "Ebronicfe", 
            ".", 
            "I", 
            "_\\", 
            "YOUR", 
            "MWRXTE", 
            "DAILY", 
            "W", 
            "\u201cWm-\u201cJuan.\u201c", 
            "The", 
            "Moody", 
            "Employee:", 
            "Dealing", 
            "with", 
            "Personality", 
            "Problems", 
            "Figuring", 
            "out", 
            "what\u2019s", 
            "to", 
            "blame", 
            "Many", 
            "difficult", 
            "employees", 
            "produce", 
            "quality", 
            "work", 
            "in", 
            "spite", 
            "of", 
            "their", 
            "personality", 
            "issues.", 
            "That", 
            "makes", 
            "disciplining", 
            "this", 
            "kind", 
            "of", 
            "employee", 
            "even", 
            "more", 
            "complicated.", 
            "That\u2019s", 
            "the", 
            "situation", 
            "Liza", 
            "Estolano", 
            "found", 
            "herself", 
            "in", 
            "when", 
            "a", 
            "solid", 
            "performer", 
            "threatened", 
            "staff", 
            "morale", 
            "with", 
            "her", 
            "volatile", 
            "moods.", 
            "Never", 
            "know", 
            "what", 
            "to", 
            "expect", 
            "\u201cI\u2019m", 
            "fed", 
            "up!\u201d", 
            "employee", 
            "Steven", 
            "Hicks", 
            "said", 
            "after", 
            "taking", 
            "a", 
            "seat", 
            "in", 
            "Liza\u2019s", 
            "office.", 
            "\u201cI\u2019ve", 
            "always", 
            "made", 
            "an", 
            "effort", 
            "to", 
            "be", 
            "nice", 
            "to", 
            "Jackie,", 
            "since", 
            "she", 
            "sits", 
            "near", 
            "me.", 
            "But", 
            "lately", 
            "she\u2019s", 
            "been", 
            "driving", 
            "me", 
            "crazy.", 
            "I", 
            "can", 
            "never", 
            "tell", 
            "what", 
            "she\u2019s", 
            "going", 
            "to", 
            "do", 
            "or", 
            "say", 
            "next.\u201d", 
            "\u201cWhat", 
            "do", 
            "you", 
            "mean?\u201d", 
            "Liza", 
            "asked.", 
            "\u201cSometimes", 
            "she\u2019s", 
            "super", 
            "sweet", 
            "and", 
            "will", 
            "do", 
            "anything", 
            "you", 
            "ask,", 
            "or", 
            "she\u2019ll", 
            "come", 
            "over", 
            "and", 
            "say", 
            "something", 
            "nice", 
            "for", 
            "no", 
            "reason,\u201d", 
            "Steven", 
            "said.", 
            "\u201cAnd", 
            "other", 
            "times,", 
            "if", 
            "you", 
            "even", 
            "say", 
            "\u2018Hello\u201d", 
            "to", 
            "her,", 
            "she", 
            "gives", 
            "you", 
            "a", 
            "mean", 
            "look", 
            "or", 
            "snaps", 
            "back", 
            "some", 
            "nasty", 
            "reply.\u201d", 
            "Still", 
            "a", 
            "good", 
            "worker", 
            "\u201cJackie\u2019s", 
            "been", 
            "with", 
            "us", 
            "a", 
            "long", 
            "time", 
            "\u2014", 
            "and", 
            "sure,", 
            "she\u2019s", 
            "never", 
            "been", 
            "afraid", 
            "to", 
            "show", 
            "how", 
            "she", 
            "feels,\u201d", 
            "Liza", 
            "said.", 
            "\u201cBut", 
            "that\u2019s", 
            "never", 
            "interfered", 
            "with", 
            "her", 
            "work.\u201d", 
            "\u201cWell,", 
            "it\u2019s", 
            "interfering", 
            "with", 
            "my", 
            "work,\u201d", 
            "Steven", 
            "said,", 
            "\u201cor", 
            "at", 
            "least", 
            "my", 
            "ability", 
            "to", 
            "do", 
            "it", 
            "well.", 
            "It\u2019s", 
            "tough", 
            "to", 
            "stay", 
            "positive", 
            "during", 
            "these", 
            "times,", 
            "but", 
            "having", 
            "someone", 
            "like", 
            "that", 
            "around", 
            "sure", 
            "isn\u2019t", 
            "helping.", 
            "\u2018Which", 
            "Jackie", 
            "today?\u2019", 
            "\u201cHave", 
            "you", 
            "thought", 
            "about", 
            "taking", 
            "to", 
            "her", 
            "about", 
            "it?\u201d", 
            "Liza", 
            "asked.", 
            "\u201cNo,", 
            "because", 
            "it\u2019s", 
            "hard", 
            "to", 
            "tell", 
            "which", 
            "Jackie", 
            "will", 
            "show", 
            "up", 
            "each", 
            "day,\u201d", 
            "Steven", 
            "said.", 
            "\u201cI\u2019m", 
            "afraid", 
            "to", 
            "say", 
            "anything", 
            "to", 
            "her", 
            "for", 
            "fear", 
            "I", 
            "am", 
            "going", 
            "to", 
            "get", 
            "screamed", 
            "at.", 
            "I\u2019ve", 
            "seen", 
            "it", 
            "happen", 
            "to", 
            "other", 
            "people.", 
            "It\u2019s", 
            "not", 
            "pretty.\u201d", 
            "\u201cWe", 
            "can\u2019t", 
            "have", 
            "people", 
            "getting", 
            "screamed", 
            "at,\u201d", 
            "Liza", 
            "said.", 
            "\u201cI\u2019ll", 
            "see", 
            "what", 
            "I", 
            "can", 
            "do.\u201d", 
            "The", 
            "big", 
            "question", 
            "Liza", 
            "knew", 
            "Jackie", 
            "was", 
            "a", 
            "bit", 
            "temperamental,", 
            "especially", 
            "when", 
            "things", 
            "didn\u2019t", 
            "go", 
            "her", 
            "way.", 
            "But", 
            "she", 
            "also", 
            "has", 
            "a", 
            "long", 
            "track", 
            "record", 
            "of", 
            "success.", 
            "If", 
            "Steven\u2019s", 
            "claims", 
            "were", 
            "true,", 
            "this", 
            "was", 
            "a", 
            "real", 
            "problem.", 
            "Liza", 
            "couldn\u2019t", 
            "risk", 
            "having", 
            "another", 
            "member", 
            "of", 
            "her", 
            "staff", 
            "yelled", 
            "at", 
            "again.", 
            "At", 
            "the", 
            "same", 
            "time,", 
            "if", 
            "Jackie", 
            "had", 
            "always", 
            "been", 
            "this", 
            "way,", 
            "it\u2019d", 
            "be", 
            "harder", 
            "for", 
            "her", 
            "to", 
            "change.", 
            "Liza", 
            "didn\u2019t", 
            "want", 
            "morale", 
            "to", 
            "sink", 
            "any", 
            "lower", 
            "\u2014", 
            "but", 
            "she", 
            "also", 
            "wanted", 
            "to", 
            "keep", 
            "Jackie", 
            "on", 
            "as", 
            "a", 
            "hard-working", 
            "employee."
        ]
    }, 
    "PBP_MAH_102_6_CONTENT09-0": {
        "PBP_MAH_102_6_pdf/4 - Take Action.pdf[1]": [
            "PHONE:", 
            "800-964-6033", 
            "INFO\u00a9MANAGINGSUPERHEROES.COM", 
            "What", 
            "are", 
            "the", 
            "impacts", 
            "of", 
            "their", 
            "behavior", 
            "(on", 
            "themselves,", 
            "the", 
            "rest", 
            "of", 
            "the", 
            "team,", 
            "on", 
            "you,", 
            "the", 
            "dept.,", 
            "the", 
            "company,", 
            "the", 
            "client,", 
            "any", 
            "other", 
            "stakeholder,", 
            "etc.)?", 
            "3.", 
            "Gain", 
            "Agreement", 
            "How", 
            "will", 
            "you", 
            "ask", 
            "for", 
            "agreement", 
            "that", 
            "this", 
            "is", 
            "a", 
            "problem?", 
            "What", 
            "excuses", 
            "do", 
            "you", 
            "anticipate", 
            "they", 
            "may", 
            "offer?", 
            "How", 
            "will", 
            "you", 
            "keep", 
            "them", 
            "focused", 
            "on", 
            "holding", 
            "themselves", 
            "responsible", 
            "for", 
            "the", 
            "outcome", 
            "(rather", 
            "than", 
            "relying", 
            "on", 
            "the", 
            "excuses)?", 
            "4.", 
            "Decide", 
            "on", 
            "the", 
            "Solution", 
            "How", 
            "will", 
            "you", 
            "ask", 
            "them", 
            "to", 
            "offer", 
            "solutions?", 
            "What", 
            "solutions", 
            "do", 
            "you", 
            "have", 
            "in", 
            "mind?", 
            "5.", 
            "Setting", 
            "the", 
            "Goal", 
            "You", 
            "will", 
            "write", 
            "down", 
            "the", 
            "goal", 
            "along", 
            "with", 
            "the", 
            "person.", 
            "Managers", 
            "Are", 
            "Heroes", 
            "384", 
            "Technology", 
            "Drive", 
            "Malvern,", 
            "PA", 
            "19355-1315", 
            "Earn", 
            "your", 
            "cape", 
            "at:", 
            "ManagersAreHeroes.com"
        ], 
        "PBP_MAH_102_6_pdf/4 - Take Action.pdf[0]": [
            "(BS", 
            "HR\u00a3#", 
            "C)", 
            "t", 
            "W", 
            "G", 
            "PHONE:", 
            "800-964-6033", 
            "if", 
            "\u2018", 
            "\ufb02", 
            "\u20182", 
            "5\"", 
            "i", 
            "i", 
            ",1", 
            "\u201cRE", 
            "mw", 
            "|NFO\u00a9MANAGINGSUPERHEROES.COM", 
            "\u00e9", 
            "z\u2018b\u2018h\u2019r", 
            "on:", 
            "Haws\u201c", 
            "Vanquish", 
            "Toxic", 
            "Employees", 
            "Take", 
            "Action-", 
            "Action", 
            "Plan", 
            "After", 
            "completing", 
            "this", 
            "action", 
            "plan,", 
            "please", 
            "return", 
            "it", 
            "to", 
            "Managers", 
            "Are", 
            "Heroes", 
            "headquarters", 
            "By", 
            "email:", 
            "worksheet@managersareheroes.com", 
            "By", 
            "fax:", 
            "(610)", 
            "408-9904", 
            "Or", 
            "online", 
            "at:", 
            "https://fs9.formsite.com/ExecEd/MAH102ActionPlan/index.html", 
            "Your", 
            "Name:", 
            "Name", 
            "of", 
            "employee", 
            "you\u2019ll", 
            "be", 
            "having", 
            "a", 
            "conversation", 
            "with:", 
            "Setting", 
            "Your", 
            "\u201cDetox\u201d", 
            "Discussion", 
            "Up", 
            "for", 
            "Success", 
            "Think", 
            "of", 
            "a", 
            "toxic", 
            "situation", 
            "you", 
            "have", 
            "with", 
            "one", 
            "of", 
            "your", 
            "employees.", 
            "In", 
            "order", 
            "to", 
            "prepare", 
            "yourself", 
            "for", 
            "a", 
            "corrective", 
            "conversation,", 
            "write", 
            "your", 
            "thoughts", 
            "on", 
            "how", 
            "you", 
            "would", 
            "approach", 
            "each", 
            "of", 
            "the", 
            "steps", 
            "and", 
            "what", 
            "you", 
            "would", 
            "potentially", 
            "say.", 
            "Use", 
            "this", 
            "template", 
            "during", 
            "your", 
            "conversation", 
            "to", 
            "help", 
            "you", 
            "along", 
            "the", 
            "process.", 
            "When", 
            "you", 
            "opening", 
            "the", 
            "meeting-", 
            "State", 
            "the", 
            "purpose:", 
            "1.", 
            "Indicate", 
            "the", 
            "difference", 
            "What", 
            "are", 
            "your", 
            "performance", 
            "expectations?", 
            "What", 
            "examples", 
            "of", 
            "their", 
            "behavior", 
            "can", 
            "you", 
            "cite?", 
            "2.", 
            "Describe", 
            "the", 
            "impact", 
            "Managers", 
            "Are", 
            "Heroes", 
            "384", 
            "Technology", 
            "Drive", 
            "Malvern,", 
            "PA", 
            "19355-1315", 
            "Earn", 
            "your", 
            "cape", 
            "at:", 
            "ManagersAreHeroes.com"
        ], 
        "PBP_MAH_102_6_pdf/4 - Take Action.pdf[2]": [
            "PHONE:", 
            "800-964-6033", 
            "INFO@MANAG|NGSUPERHEROES.COM", 
            "When", 
            "is", 
            "a", 
            "good", 
            "time", 
            "to", 
            "set", 
            "to", 
            "follow-up", 
            "on", 
            "their", 
            "progress?", 
            "Discuss", 
            "the", 
            "benefits", 
            "of", 
            "meeting", 
            "the", 
            "goal", 
            "as", 
            "well", 
            "as", 
            "the", 
            "fact", 
            "that", 
            "there", 
            "will", 
            "consequences", 
            "for", 
            "non-performance.", 
            "Managers", 
            "Are", 
            "Heroes", 
            "384", 
            "Technology", 
            "Drive", 
            "Malvern,", 
            "PA", 
            "19355-1315", 
            "Earn", 
            "your", 
            "cape", 
            "at:", 
            "ManagersAreHeroes.com"
        ]
    }, 
    "PBP_MAH_102_6_CONTENT10-0": {
        "PBP_MAH_102_6_pdf/5 - Battle Strategy.pdf[0]": [
            "PHONE:", 
            "800-964-6033", 
            "INFO@MANAGINGSUPERHEROES.COM", 
            "VANQUISH", 
            "TOXIC", 
            "EMPLOYEES", 
            "BA1TLE", 
            "STRATEGY", 
            "BEFORE", 
            "BA1TLE", 
            "DURING", 
            "BA1TLE", 
            "AFI'ER", 
            "BA1TLE", 
            "When", 
            "will", 
            "you", 
            "prepare?", 
            "Where", 
            "will", 
            "you", 
            "have", 
            "the", 
            "conversation?", 
            "What", 
            "went", 
            "well?", 
            "How", 
            "will", 
            "you", 
            "prepare?", 
            "(i.e.", 
            "Notes,", 
            "What", 
            "day", 
            "of", 
            "the", 
            "week?", 
            "What", 
            "did", 
            "you", 
            "learn", 
            "and", 
            "is", 
            "there", 
            "envision", 
            "the", 
            "conversation,", 
            "role", 
            "play)", 
            "anything", 
            "that", 
            "needs", 
            "to", 
            "be", 
            "documented?", 
            "How", 
            "will", 
            "you", 
            "notify", 
            "them", 
            "that", 
            "you", 
            "would", 
            "What", 
            "time", 
            "of", 
            "day?", 
            "What", 
            "would", 
            "you", 
            "change", 
            "in", 
            "the", 
            "future?", 
            "like", 
            "to", 
            "meet?", 
            "Monogers", 
            "Are", 
            "Heroes", 
            "384", 
            "Technology", 
            "Drive", 
            "Molvern,", 
            "PA", 
            "19355-1315", 
            "Earn", 
            "your", 
            "cope", 
            "ot:", 
            "ManagersAreHeroes.com"
        ]
    }, 
    "PBP_MAH_102_6_CONTENT08-1": {
        "PBP_MAH_102_6_pdf/MAH102 Lecture Notes.pdf[0]": [
            "Vanquish", 
            "Toxic", 
            "Employees", 
            "(MAH102)", 
            "By", 
            "taking", 
            "this", 
            "course", 
            "you\u2019ve", 
            "earned", 
            "one", 
            "credit", 
            "towards", 
            "Managers", 
            "Are", 
            "Heroes\u2019", 
            "certificate", 
            "program", 
            "(earning", 
            "your", 
            "C.A.P.E).", 
            "For", 
            "more", 
            "information", 
            "about", 
            "earning", 
            "your", 
            "C.A.P.E.", 
            "(certificate", 
            "of", 
            "achievements,", 
            "powers", 
            "&", 
            "excellence)", 
            "and", 
            "to", 
            "learn", 
            "how", 
            "to", 
            "continue", 
            "to", 
            "fight", 
            "the", 
            "evil", 
            "in", 
            "your", 
            "workplace,", 
            "visit", 
            "www.managersareheroes.com", 
            "or", 
            "call", 
            "800-964-6033.", 
            "Now", 
            "Enrolling:", 
            "Conquer", 
            "Workplace", 
            "Negativity", 
            "with", 
            "Mission", 
            "Advisor,", 
            "Pamela", 
            "Jett", 
            "Case", 
            "Study", 
            "Review:", 
            "If", 
            "you", 
            "were", 
            "Liza,", 
            "how", 
            "would", 
            "you", 
            "handle", 
            "this", 
            "situation?", 
            "Try", 
            "to", 
            "include", 
            "some", 
            "questions", 
            "you", 
            "would", 
            "ask", 
            "both", 
            "Steven", 
            "and", 
            "Jackie.", 
            "Describe", 
            "one", 
            "of", 
            "your", 
            "experiences", 
            "that", 
            "is", 
            "similar", 
            "to", 
            "the", 
            "Liza\u2019s", 
            "situation.", 
            "Based", 
            "on", 
            "what", 
            "you\u2019ve", 
            "learned", 
            "from", 
            "the", 
            "recordings/article\u2014", 
            "how", 
            "could", 
            "you", 
            "have", 
            "handled", 
            "the", 
            "situation", 
            "differently?", 
            "2", 
            "Managers", 
            "Are", 
            "Heroes", 
            "384", 
            "Technology", 
            "Drive", 
            "Malvern,", 
            "PA", 
            "19355\u20141315", 
            "1\u2014877\u2014477\u20141755", 
            "|", 
            "ManagersAreHeroes.com"
        ], 
        "PBP_MAH_102_6_pdf/MAH102 Lecture Notes.pdf[15]": [
            "Vanquish", 
            "Toxic", 
            "Employees", 
            "(MAH102)", 
            "What", 
            "if...?", 
            "Must", 
            "Do", 
            "An", 
            "employee", 
            "who", 
            "constantly", 
            "exhibits", 
            "pessimistic,", 
            "angry,", 
            "hostile,", 
            "or", 
            "uncooperative", 
            "behavior", 
            "needs", 
            "to", 
            "be", 
            "managed.", 
            "it", 
            "(One", 
            "more", 
            "heroic", 
            "act", 
            "for", 
            "managers)", 
            "Managers", 
            "Are", 
            "Heroes", 
            "384", 
            "Technology", 
            "Drive", 
            "Malvern,", 
            "PA", 
            "19355\u20141315", 
            "1\u2014877\u2014477\u20141755", 
            "|", 
            "ManagersAreHeroes.com", 
            "15"
        ], 
        "PBP_MAH_102_6_pdf/MAH102 Lecture Notes.pdf[16]": [
            "Vanquish", 
            "Toxic", 
            "Employees", 
            "(MAH102)", 
            "So,", 
            "here", 
            "are", 
            "some", 
            "effective:", 
            "05", 
            "don\u2019ls", 
            "Do...", 
            "\u00b0", 
            "Be", 
            "conscious", 
            "of", 
            "getting", 
            "drawn", 
            "into", 
            "the", 
            "employee\u2019s", 
            "negative", 
            "mindset.", 
            "\u00b0", 
            "Avoid", 
            "getting", 
            "into", 
            "an", 
            "argument", 
            "\u00b0", 
            "Be", 
            "prepared", 
            "to", 
            "make", 
            "tough", 
            "choices", 
            "\u00b0", 
            "Keep", 
            "your", 
            "cool", 
            "\u00b0", 
            "Spell", 
            "out", 
            "the", 
            "consequences", 
            "of", 
            "negative", 
            "behavior", 
            "\u00b0", 
            "Get", 
            "to", 
            "the", 
            "root", 
            "of", 
            "the", 
            "problem", 
            "Managers", 
            "Are", 
            "Heroes", 
            "384", 
            "Technology", 
            "Drive", 
            "Malvern,", 
            "PA", 
            "19355\u20141315", 
            "1\u2014877\u2014477\u20141755", 
            "|", 
            "ManagersAreHeroes.com", 
            "17"
        ], 
        "PBP_MAH_102_6_pdf/MAH102 Lecture Notes.pdf[7]": [
            "Vanquish", 
            "Toxic", 
            "Employees", 
            "(MAH102)", 
            "Sometimes,", 
            "of", 
            "course,", 
            "it\u2019s", 
            "obvious!", 
            "Would", 
            "you", 
            "Willa", 
            "me:", 
            "_a", 
            "mama-\u201813.", 
            "Son-legucf's", 
            "hymns", 
            "+0", 
            "\ufb02at", 
            "M7", 
            "afifnh'on", 
            "-", 
            "\u2018", 
            ":", 
            "CREANVE", 
            "MED!", 
            "SERVDCES", 
            "Be:", 
            "5065", 
            "Berkeley.", 
            "Ca", 
            "34705", 
            "Incivility", 
            "&", 
            "Escalation", 
            "Negative", 
            "Behavior", 
            "-", 
            "Rude", 
            "comments", 
            "-", 
            "Insensitive", 
            "actions", 
            "-", 
            "Unintentional", 
            "slights", 
            "-", 
            "Complaining", 
            "'", 
            "Gossip/Rumors", 
            "\u00b0", 
            "Profanity", 
            "-", 
            "Crude", 
            "jokes", 
            "Verbal", 
            "Aggression", 
            "\u00b0", 
            "Yelling", 
            "-", 
            "Belittling", 
            "comments", 
            "-", 
            "Intimidation/threats", 
            "-", 
            "Discriminatory", 
            "comments", 
            "-", 
            "Cursing", 
            "at", 
            "someone", 
            "-", 
            "Humiliation", 
            "Physical/Sexual", 
            "Aggression", 
            "-", 
            "Throwing", 
            "objects", 
            "-", 
            "Assault", 
            "-", 
            "Violent", 
            "outbursts,", 
            "eg,", 
            "hitting", 
            "the", 
            "wall", 
            "-", 
            "Inappropriate", 
            "touching", 
            "-", 
            "Harrassment", 
            "Managers", 
            "Are", 
            "Heroes", 
            "384", 
            "Technology", 
            "Drive", 
            "Malvern,", 
            "PA", 
            "19355\u20141315", 
            "1\u2014877\u2014477\u20141755", 
            "|", 
            "ManagersAreHeroes.com"
        ], 
        "PBP_MAH_102_6_pdf/MAH102 Lecture Notes.pdf[9]": [
            "Vanquish", 
            "Toxic", 
            "Employees", 
            "(MAH102)", 
            "Who", 
            "Are", 
            "The", 
            "Instigators?", 
            "Male", 
            "or", 
            "female:", 
            "coworkers,", 
            "supervisors,", 
            "managers", 
            "Tend", 
            "to", 
            "be", 
            "rude", 
            "to", 
            "coworkers,", 
            "disrespectful", 
            "of", 
            "subordinates", 
            "Generally", 
            "difficult", 
            "to", 
            "get", 
            "along", 
            "with", 
            "Often", 
            "emotionally", 
            "reactive", 
            "to", 
            "problems", 
            "and", 
            "stressful", 
            "situations.", 
            "Some", 
            "are", 
            "particularly", 
            "skilled", 
            "at", 
            "\u201ckissing", 
            "up", 
            "and", 
            "kicking", 
            "down\u201d", 
            "Why", 
            "Be", 
            "Civil?", 
            "83%", 
            "of", 
            "people", 
            "report", 
            "that", 
            "it", 
            "is", 
            "\u201cvery", 
            "important\"", 
            "to", 
            "work", 
            "in", 
            "a", 
            "civil", 
            "environment", 
            "(Baltimore", 
            "Workplace", 
            "Study,", 
            "2003)", 
            "What", 
            "you", 
            "give", 
            "is", 
            "what", 
            "you", 
            "get", 
            "One", 
            "person", 
            "can", 
            "have", 
            "a", 
            "positive", 
            "impact", 
            "on", 
            "the", 
            "work", 
            "environment", 
            "\u2014", 
            "Improved", 
            "cooperation", 
            "\u2014", 
            "Improved", 
            "productivity", 
            "\u2014", 
            "Improved", 
            "teamwork", 
            "Managers", 
            "Are", 
            "Heroes", 
            "384", 
            "Technology", 
            "Drive", 
            "Malvern,", 
            "PA", 
            "19355\u20141315", 
            "1\u2014877\u2014477\u20141755", 
            "|", 
            "ManagersAreHeroes.com", 
            "10"
        ], 
        "PBP_MAH_102_6_pdf/MAH102 Lecture Notes.pdf[6]": [
            "Vanquish", 
            "Toxic", 
            "Employees", 
            "(MAH102)", 
            "Incivility", 
            "is", 
            "often", 
            "ambiguous", 
            "\\/", 
            "The", 
            "intent", 
            "to", 
            "harm", 
            "may", 
            "not", 
            "be", 
            "clear", 
            "/", 
            "The", 
            "instigator", 
            "often", 
            "pretends", 
            "innocence", 
            "or", 
            "claims", 
            "that", 
            "the", 
            "injured", 
            "party", 
            "is", 
            "\u201dtoo", 
            "sensitive\u201d", 
            "or", 
            "misunderstood", 
            "the", 
            "situation", 
            "Incivility", 
            "Often", 
            "Not", 
            "Reported", 
            "\u00b0", 
            "Employees", 
            "fear", 
            "reprisals", 
            "or", 
            "damage", 
            "to", 
            "their", 
            "careers", 
            "\u00b0", 
            "In", 
            "exit", 
            "interviews,", 
            "incivility", 
            "may", 
            "not", 
            "be", 
            "mentioned", 
            "because", 
            "employees", 
            "don\u2019t", 
            "want", 
            "to", 
            "affect", 
            "future", 
            "references", 
            "or", 
            "may", 
            "even", 
            "blame", 
            "themselves", 
            "for", 
            "\u201dnot", 
            "being", 
            "able", 
            "to", 
            "take", 
            "it.\u201d", 
            "Managers", 
            "Are", 
            "Heroes", 
            "384", 
            "Technology", 
            "Drive", 
            "Malvern,", 
            "PA", 
            "19355\u20141315", 
            "1\u2014877\u2014477\u20141755", 
            "|", 
            "ManagersAreHeroes.com"
        ], 
        "PBP_MAH_102_6_pdf/MAH102 Lecture Notes.pdf[8]": [
            "Vanquish", 
            "Toxic", 
            "Employees", 
            "(MAH102)", 
            "Chat", 
            "Box", 
            "Question", 
            "What\u2019s", 
            "your", 
            "most", 
            "common", 
            "challenge", 
            "when", 
            "it", 
            "comes", 
            "to", 
            "unciviI/toxic", 
            "behavior?", 
            "(Type", 
            "in", 
            "the", 
            "Chat", 
            "Box)", 
            "The", 
            "Incivility", 
            "Spiral", 
            "/", 
            "3", 
            "Percenttion", 
            "of", 
            "Unfair", 
            "ess", 
            "Fee\ufb01ngs", 
            "Uncivil", 
            "Behavio", 
            "Desire", 
            "omecip", 
            "r", 
            "or", 
            "revenge", 
            "\u201cAn", 
            "eye", 
            "for", 
            "an", 
            "eye", 
            "makes", 
            "the", 
            "whole", 
            "world", 
            "blind.\"", 
            "\u2014\u2014Ghandi", 
            "Managers", 
            "Are", 
            "Heroes", 
            "384", 
            "Technology", 
            "Drive", 
            "Malvern,", 
            "PA", 
            "19355\u20141315", 
            "1\u2014877\u2014477\u20141755", 
            "|", 
            "ManagersAreHeroes.com"
        ], 
        "PBP_MAH_102_6_pdf/MAH102 Lecture Notes.pdf[5]": [
            "Vanquish", 
            "Toxic", 
            "Employees", 
            "(MAH102)", 
            "Some", 
            "Consequences", 
            "N=800", 
            "Took", 
            "frustration", 
            "out", 
            "on", 
            "customers", 
            "Left", 
            "job", 
            "due", 
            "to", 
            "incivility", 
            "Commitment", 
            "to", 
            "the", 
            "erg", 
            "deemed", 
            "Performance", 
            "declined", 
            "Lost", 
            "Iwork", 
            "tame", 
            "a\u2018-.riol.iding", 
            "the", 
            "offender", 
            "Lest", 
            "work", 
            "ttrne", 
            "worrying", 
            "about", 
            "the", 
            "incident", 
            "lnte", 
            "ntionally", 
            "decreased", 
            "work", 
            "effort", 
            "\u201810", 
            "20", 
            "30", 
            "40", 
            "5C]", 
            "60", 
            "70", 
            "80", 
            "[:I", 
            "ll", 
            "Negativity", 
            "Statistics", 
            "(Poll)", 
            "1.", 
            "One", 
            "in", 
            "six", 
            "employees", 
            "are", 
            "actively", 
            "sabotaging", 
            "their", 
            "workplace.", 
            "2.", 
            "25%", 
            "of", 
            "employees", 
            "witness", 
            "workplace", 
            "incivility", 
            "every", 
            "day", 
            "3.", 
            "50%", 
            "of", 
            "employees", 
            "are", 
            "the", 
            "direct", 
            "target", 
            "of", 
            "an", 
            "uncivil", 
            "act", 
            "once", 
            "a", 
            "week", 
            "4.", 
            "90", 
            "percent", 
            "of", 
            "RNs", 
            "have", 
            "reported", 
            "verbal", 
            "abuse", 
            "by", 
            "a", 
            "physician", 
            "5.", 
            "Companies", 
            "lose", 
            "$3", 
            "billion", 
            "a", 
            "year", 
            "due", 
            "to", 
            "the", 
            "effects", 
            "of", 
            "negative", 
            "attitudes", 
            "and", 
            "behavior", 
            "at", 
            "work", 
            "12", 
            "Managers", 
            "Are", 
            "Heroes", 
            "384", 
            "Technology", 
            "Drive", 
            "Malvern,", 
            "PA", 
            "19355\u20141315", 
            "1\u2014877\u2014477\u20141755", 
            "|", 
            "ManagersAreHeroes.com"
        ], 
        "PBP_MAH_102_6_pdf/MAH102 Lecture Notes.pdf[12]": [
            "Vanquish", 
            "Toxic", 
            "Employees", 
            "(MAH102)", 
            "Communicate", 
            "With", 
            "Clarity", 
            "Remember", 
            "pleasantries", 
            "Don\u2019t", 
            "interrupt,", 
            "ask", 
            "if", 
            "the", 
            "person", 
            "has", 
            "time", 
            "Be", 
            "open-minded", 
            "Say", 
            "what", 
            "you", 
            "mean", 
            "Talk", 
            "to", 
            "people,", 
            "not", 
            "about", 
            "people", 
            "Be", 
            "aware", 
            "of", 
            "tone", 
            "and", 
            "volume", 
            "Be", 
            "respectful,", 
            "even", 
            "in", 
            "disagreement", 
            "Create", 
            "A", 
            "Culture", 
            "of", 
            "Civility", 
            "Clearly", 
            "define", 
            "expectations", 
            "for", 
            "how", 
            "employees", 
            "treat", 
            "each", 
            "other", 
            "Organization", 
            "culture", 
            "and", 
            "values", 
            "Employee", 
            "orientation", 
            "Leaders", 
            "model", 
            "civility", 
            "Managers", 
            "Are", 
            "Heroes", 
            "384", 
            "Technology", 
            "Drive", 
            "Malvern,", 
            "PA", 
            "19355\u20141315", 
            "1\u2014877\u2014477\u20141755", 
            "|", 
            "ManagersAreHeroes.com", 
            "13"
        ], 
        "PBP_MAH_102_6_pdf/MAH102 Lecture Notes.pdf[4]": [
            "Vanquish", 
            "Toxic", 
            "Employees", 
            "(MAH102)", 
            "Why", 
            "Toxic?", 
            "\u00b0", 
            "Decrease", 
            "in", 
            "productivity", 
            "\u00b0", 
            "Unwilling", 
            "to", 
            "make", 
            "sensible", 
            "\u00b0", 
            "Morale", 
            "noticeably", 
            "slumps", 
            "changes", 
            "\u00b0", 
            "Antagonistic", 
            "attitude", 
            "'", 
            "Unwilling", 
            "t0", 
            "80", 
            "the", 
            "extra", 
            "mile", 
            "while", 
            "encouraging", 
            "0", 
            "Increase", 
            "in", 
            "personal", 
            "attacks", 
            "others", 
            "to", 
            "do", 
            "the", 
            "same", 
            "0", 
            "Harmful", 
            "gossip", 
            "or", 
            "rumors", 
            "..", 
            "\u00b0", 
            "Unwilling", 
            "to", 
            "help", 
            "others", 
            "\u00b0", 
            "lnab\ufb02\ufb01y", 
            "It", 
            "only", 
            "takes", 
            "one", 
            "One", 
            "employee", 
            "can", 
            "infect", 
            "a", 
            "department;", 
            "even", 
            "an", 
            "entire", 
            "company.", 
            "Managers", 
            "Are", 
            "Heroes", 
            "384", 
            "Technology", 
            "Drive", 
            "Malvern,", 
            "PA", 
            "19355\u20141315", 
            "1\u2014877\u2014477\u20141755", 
            "|", 
            "ManagersAreHeroes.com"
        ], 
        "PBP_MAH_102_6_pdf/MAH102 Lecture Notes.pdf[11]": [
            "Vanquish", 
            "Toxic", 
            "Employees", 
            "(MAH102)", 
            "How", 
            "to", 
            "Control", 
            "Negativity", 
            "Before", 
            "it", 
            "Spreads", 
            "Hire", 
            "Right", 
            "Set", 
            "Standards", 
            "Participate", 
            "Communicate", 
            "24", 
            "Managers", 
            "Are", 
            "Heroes", 
            "384", 
            "Technology", 
            "Drive", 
            "Malvern,", 
            "PA", 
            "19355\u20141315", 
            "1\u2014877\u2014477\u20141755", 
            "|", 
            "ManagersAreHeroes.com", 
            "12"
        ], 
        "PBP_MAH_102_6_pdf/MAH102 Lecture Notes.pdf[17]": [
            "Vanquish", 
            "Toxic", 
            "Employees", 
            "(MAH102)", 
            "Don\u2019t...", 
            "Shower", 
            "negative", 
            "people", 
            "with", 
            "lots", 
            "of", 
            "attention", 
            "Stop", 
            "asking", 
            "them", 
            "to", 
            "pitch", 
            "in", 
            "Lower", 
            "your", 
            "expectations", 
            "of", 
            "them", 
            "Correct", 
            "them", 
            "less", 
            "often", 
            "Allow", 
            "negative", 
            "employees", 
            "to", 
            "commiserate", 
            "without", 
            "intervening", 
            "Allow", 
            "employees", 
            "to", 
            "get", 
            "bored", 
            "or", 
            "complacent", 
            "Transforming", 
            "Through", 
            "Coaching", 
            "Step", 
            "1:", 
            "Opening", 
            "the", 
            "meeting", 
            "Step", 
            "2:", 
            "Getting", 
            "Agreement", 
            "on", 
            "cooperation", 
            "Step", 
            "3:", 
            "State", 
            "the", 
            "behavioral", 
            "issue", 
            "Step", 
            "4:", 
            "Check", 
            "for", 
            "understanding", 
            "Step", 
            "4:", 
            "Get", 
            "a", 
            "Commitment", 
            "to", 
            "Act", 
            "Step", 
            "5:", 
            "Close", 
            "the", 
            "meeting", 
            "Set", 
            "follow-up", 
            "meeting", 
            "(no", 
            "longer", 
            "than", 
            "2-3", 
            "weeks)", 
            "Managers", 
            "Are", 
            "Heroes", 
            "384", 
            "Technology", 
            "Drive", 
            "Malvern,", 
            "PA", 
            "19355\u20141315", 
            "1\u2014877\u2014477\u20141755", 
            "|", 
            "ManagersAreHeroes.com", 
            "18"
        ], 
        "PBP_MAH_102_6_pdf/MAH102 Lecture Notes.pdf[19]": [
            "Vanquish", 
            "Toxic", 
            "Employees", 
            "(MAH102)", 
            "Hire", 
            "Right", 
            "Set", 
            "Standards", 
            "Participate", 
            "Communicate", 
            "39", 
            "Build", 
            "a", 
            "System", 
            "-", 
            "Clear", 
            "values", 
            "and", 
            "'-", 
            "Getting", 
            "supervisors", 
            "and", 
            "standards", 
            "of", 
            "conduct", 
            "managers", 
            "on", 
            "board", 
            "and", 
            "equipping", 
            "them", 
            "with", 
            ".", 
            "Strong", 
            "orientation", 
            "needed", 
            "skills", 
            "programs", 
            "0", 
            "Creating", 
            "a", 
            "culture", 
            "that", 
            "-", 
            "Training", 
            "in", 
            "rejects", 
            "incivility", 
            "and", 
            "communication", 
            "and", 
            "supports", 
            "reporting", 
            "and", 
            "related", 
            "skills", 
            "addressing", 
            "it", 
            "-", 
            "Engaging", 
            "employees", 
            "in", 
            "positive", 
            "workplace", 
            "efforts", 
            "4O", 
            "Managers", 
            "Are", 
            "Heroes", 
            "384", 
            "Technology", 
            "Drive", 
            "Malvern,", 
            "PA", 
            "19355\u20141315", 
            "1\u2014877\u2014477\u20141755", 
            "|", 
            "ManagersAreHeroes.com", 
            "20"
        ], 
        "PBP_MAH_102_6_pdf/MAH102 Lecture Notes.pdf[10]": [
            "Vanquish", 
            "Toxic", 
            "Employees", 
            "(MAH102)", 
            "If", 
            "not", 
            "handled", 
            "quickly,", 
            "negativity...", 
            "1.", 
            "Blocks", 
            "positive", 
            "change", 
            "2.", 
            "Blocks", 
            "productivity", 
            "3.", 
            "Kills", 
            "morale,", 
            "further", 
            "reducing", 
            "productivity", 
            "4.", 
            "Generally", 
            "self-fulfilling;", 
            "thus,", 
            "chances", 
            "of", 
            "group", 
            "or", 
            "organizational", 
            "failure", 
            "increase", 
            "Chat", 
            "Box", 
            "Question", 
            "How", 
            "is", 
            "uncivil/toxic", 
            "behavior", 
            "addressed", 
            "now", 
            "in", 
            "your", 
            "workplace?", 
            "(Type", 
            "in", 
            "the", 
            "Chat", 
            "Box)", 
            "Managers", 
            "Are", 
            "Heroes", 
            "384", 
            "Technology", 
            "Drive", 
            "Malvern,", 
            "PA", 
            "19355\u20141315", 
            "1\u2014877\u2014477\u20141755", 
            "|", 
            "ManagersAreHeroes.com", 
            "11"
        ], 
        "PBP_MAH_102_6_pdf/MAH102 Lecture Notes.pdf[3]": [
            "Vanquish", 
            "Toxic", 
            "Employees", 
            "(MAH102)", 
            "Have", 
            "you", 
            "thought", 
            "of", 
            "Toxic", 
            "Workplaces", 
            "in", 
            "this", 
            "way?", 
            "It", 
            "Starts", 
            "With", 
            "Incivility", 
            "\u00b0", 
            "Behavior", 
            "that", 
            "violates", 
            "workplace/social", 
            "norms", 
            "for", 
            "mutual", 
            "respect", 
            "in", 
            "such", 
            "a", 
            "way", 
            "that", 
            "cooperation", 
            "and", 
            "motivation", 
            "are", 
            "reduced", 
            "\u00b0", 
            "Behavior", 
            "can", 
            "be", 
            "\u201dunder", 
            "the", 
            "radar\u201d", 
            "and", 
            "difficult", 
            "to", 
            "detect", 
            "Managers", 
            "Are", 
            "Heroes", 
            "384", 
            "Technology", 
            "Drive", 
            "Malvern,", 
            "PA", 
            "19355\u20141315", 
            "1\u2014877\u2014477\u20141755", 
            "|", 
            "ManagersAreHeroes.com"
        ], 
        "PBP_MAH_102_6_pdf/MAH102 Lecture Notes.pdf[13]": [
            "Vanquish", 
            "Toxic", 
            "Employees", 
            "(MAH102)", 
            "Create", 
            "A", 
            "Culture", 
            "of", 
            "Civility", 
            "Leaders", 
            "identify", 
            "and", 
            "address", 
            "incivility", 
            "Reward/reinforce", 
            "civil", 
            "behavior", 
            "Offenders", 
            "face", 
            "consequences", 
            "Encourage", 
            "stress", 
            "management,", 
            "active", 
            "listening,", 
            "conflict", 
            "resolution", 
            "skills", 
            "Define", 
            "Civil", 
            "Behavior", 
            "Engage", 
            "employees", 
            "in", 
            "creating", 
            "the", 
            "definition.", 
            "Here", 
            "are", 
            "some", 
            "items", 
            "employee", 
            "groups", 
            "have", 
            "suggested:", 
            "Avoid", 
            "sarcasm,", 
            "put", 
            "-", 
            "Apologize", 
            "when", 
            "in", 
            "the", 
            "downs,", 
            "offensive", 
            "humor", 
            "wrong", 
            "Listen", 
            "attentively", 
            "with", 
            "0", 
            "Respect", 
            "coworkers\u2019", 
            "eye", 
            "contact", 
            "\u201cstuff\u201d", 
            "(e.g.,", 
            "workspace,", 
            "tools,", 
            "food", 
            "in", 
            "the", 
            "Watch", 
            "body", 
            "refrigerator)", 
            "language/", 
            "personal", 
            "space", 
            "0", 
            "Give", 
            "each", 
            "other", 
            "positive", 
            "reinforcement", 
            "Managers", 
            "Are", 
            "Heroes", 
            "384", 
            "Technology", 
            "Drive", 
            "Malvern,", 
            "PA", 
            "19355\u20141315", 
            "1\u2014877\u2014477\u20141755", 
            "|", 
            "ManagersAreHeroes.com", 
            "14"
        ], 
        "PBP_MAH_102_6_pdf/MAH102 Lecture Notes.pdf[20]": [
            "Vanquish", 
            "Toxic", 
            "Employees", 
            "(MAH102)", 
            "What", 
            "is", 
            "one", 
            "thing", 
            "you", 
            "are", 
            "going", 
            "to", 
            "do", 
            "as", 
            "a", 
            "result", 
            "of", 
            "our", 
            "work", 
            "together", 
            "today?", 
            "(Type", 
            "in", 
            "Chat", 
            "Box}", 
            "4].", 
            "Managers", 
            "Are", 
            "Heroes", 
            "384", 
            "Technology", 
            "Drive", 
            "Malvern,", 
            "PA", 
            "19355\u20141315", 
            "1\u2014877\u2014477\u20141755", 
            "|", 
            "ManagersAreHeroes.com", 
            "21"
        ], 
        "PBP_MAH_102_6_pdf/MAH102 Lecture Notes.pdf[2]": [
            "Vanquish", 
            "Toxic", 
            "Employees", 
            "(MAH102)", 
            "SHOULD", 
            "YOU", 
            "EVER", 
            "FIND", 
            "YOURSELF", 
            "THE", 
            "VICTIM", 
            "OF", 
            "OTHER", 
            "PEOPLES", 
            "BITTERNESS.", 
            "SMALLNESS,", 
            "OR", 
            "INSECURI'I\u2018IES.", 
            "REMEMBER", 
            "YOU", 
            "COULD", 
            "BE", 
            "THEM.", 
            "But", 
            "you\u2019re", 
            "not\u2014You", 
            "Are", 
            "A", 
            "Hero!", 
            "Let\u2019s", 
            "Become", 
            "Even", 
            "More", 
            "Heroic", 
            "By", 
            "Mastering", 
            "a", 
            "Tough", 
            "Topic", 
            "Managers", 
            "Are", 
            "Heroes", 
            "384", 
            "Technology", 
            "Drive", 
            "Malvern,", 
            "PA", 
            "19355\u20141315", 
            "1\u2014877\u2014477\u20141755", 
            "|", 
            "ManagersAreHeroes.com"
        ], 
        "PBP_MAH_102_6_pdf/MAH102 Lecture Notes.pdf[18]": [
            "Vanquish", 
            "Toxic", 
            "Employees", 
            "(MAH102)", 
            "Avoid", 
            "Words", 
            "That", 
            "Incite", 
            "Negative", 
            "Feelings", 
            "0", 
            "\u201cYou", 
            "should/you", 
            "0", 
            "\u201cIf", 
            "you", 
            "don\u2019t", 
            "do", 
            "this,", 
            "must...\u201d", 
            "then", 
            "I\u2019ll...\u201d", 
            "0", 
            "\u201cYou", 
            "lied...\u201d", 
            "0", 
            "\u201cYou\u2019ll", 
            "never", 
            "changenf\u2019", 
            "0", 
            "\u201cThis", 
            "is", 
            "so", 
            "typical", 
            "of", 
            "you...\u201d", 
            "0", 
            "\u201cYou\u2019re", 
            "being", 
            "hysterical/", 
            "0", 
            "\u201cYou", 
            "always/you", 
            "unreasonable...\u201d", 
            "nevenn\u201d", 
            "-", 
            "\u201cThe", 
            "problem", 
            "is", 
            "you...\u201d", 
            "Responding", 
            "to", 
            "Incivility", 
            "and", 
            "Toxic", 
            "Behaviors", 
            "-", 
            "Have", 
            "healthy", 
            "boundaries", 
            ".", 
            "Know", 
            "your", 
            "conflict", 
            "style", 
            ".", 
            "Express", 
            "your", 
            "point", 
            "of", 
            "View", 
            ".", 
            "Avoid", 
            "escalation", 
            ".", 
            "Stay", 
            "away", 
            "from", 
            "the", 
            "low", 
            "road", 
            "Managers", 
            "Are", 
            "Heroes", 
            "384", 
            "Technology", 
            "Drive", 
            "Malvern,", 
            "PA", 
            "19355\u20141315", 
            "1\u2014877\u2014477\u20141755", 
            "|", 
            "ManagersAreHeroes.com", 
            "19"
        ], 
        "PBP_MAH_102_6_pdf/MAH102 Lecture Notes.pdf[14]": [
            "Vanquish", 
            "Toxic", 
            "Employees", 
            "(MAH102)", 
            "Being", 
            "Civil", 
            "Does", 
            "Not", 
            "Mean", 
            "I", 
            "Not", 
            "speaking", 
            "up", 
            "for", 
            "yourself", 
            ".", 
            "Being", 
            "someone", 
            "you", 
            "are", 
            "not", 
            "I", 
            "Avoiding", 
            "conflict", 
            "when", 
            "it", 
            "is", 
            "necessary", 
            "I", 
            "Pretending", 
            "to", 
            "be", 
            "nice,", 
            "then", 
            "stabbing", 
            "someone", 
            "in", 
            "the", 
            "back", 
            "I", 
            "Giving", 
            "up", 
            "your", 
            "rights", 
            "to", 
            "seek", 
            "assistance", 
            "in", 
            "dealing", 
            "with", 
            "difficult", 
            "people", 
            "at", 
            "work", 
            "29", 
            "Chat", 
            "Box", 
            "Question", 
            "What", 
            "are", 
            "some", 
            "things", 
            "that", 
            "you\u2019ve", 
            "tried", 
            "or", 
            "done", 
            "to", 
            "establish", 
            "the", 
            "kind", 
            "of", 
            "culture", 
            "you", 
            "want?", 
            "(Type", 
            "inside", 
            "of", 
            "Q&A", 
            "box)", 
            "30", 
            "Managers", 
            "Are", 
            "Heroes", 
            "384", 
            "Technology", 
            "Drive", 
            "Malvern,", 
            "PA", 
            "19355\u20141315", 
            "1\u2014877\u2014477\u20141755", 
            "|", 
            "ManagersAreHeroes.com", 
            "15"
        ], 
        "PBP_MAH_102_6_pdf/MAH102 Lecture Notes.pdf[1]": [
            "Vanquish", 
            "Toxic", 
            "Employees", 
            "(MAH102)", 
            "Pre-Evaluation", 
            "Breakdown", 
            "|", 
            "effectively", 
            "handle", 
            "the", 
            "excuses", 
            "I", 
            "receive", 
            "from", 
            "my", 
            "toxic", 
            "employees.", 
            "My", 
            "toxic", 
            "employees", 
            "have", 
            "an", 
            "attitude", 
            "problems", 
            "or", 
            "big", 
            "egos.", 
            "Alw", 
            "ys", 
            "Frequently", 
            "Sometimes", 
            "S", 
            "Id", 
            "m", 
            "N", 
            "|", 
            "appropriately", 
            "document", 
            "all", 
            "of", 
            "my", 
            "employee", 
            "behavioral", 
            "issues", 
            "and", 
            "conversations.", 
            "Always", 
            "F", 
            "q", 
            "tly", 
            "Sometimes", 
            "S", 
            "ld", 
            "m", 
            "N", 
            "Alw", 
            "ys", 
            "Frequently", 
            "Sometimes", 
            "S", 
            "Id", 
            "m", 
            "Nev", 
            "3", 
            "Pre-Evaluation", 
            "Breakdown", 
            "My", 
            "employees", 
            "and", 
            "I", 
            "have", 
            "an", 
            "environment", 
            "of", 
            "mutual", 
            "respect.", 
            "Always", 
            "Frequently", 
            "Sometimes", 
            "Seldom", 
            "Never", 
            "_", 
            "_", 
            "_", 
            "I", 
            "address", 
            "tOXIc", 
            "employee", 
            "behaVIor", 
            "right", 
            "away.", 
            "Always", 
            "Frequently", 
            "Sometimes", 
            "Seldom", 
            "Never", 
            "4", 
            "Managers", 
            "Are", 
            "Heroes", 
            "384", 
            "Technology", 
            "Drive", 
            "Malvern,", 
            "PA", 
            "19355\u20141315", 
            "1\u2014877\u2014477\u20141755", 
            "|", 
            "ManagersAreHeroes.com"
        ]
    }, 
    "PBP_MAH_102_6_CONTENT04-1": {
        "PBP_MAH_102_6_pdf/MAH102_PRESENTATION_PDF.pdf[2]": [
            ".", 
            ".", 
            "\u2018.", 
            "V\u2018l\u2018l", 
            "1'1'<.!l':!l\u201di", 
            "i\u2018", 
            "Goals", 
            "0", 
            "Have", 
            "fun!", 
            "0", 
            "Look", 
            "at", 
            "dif\ufb01cult", 
            "people", 
            "a", 
            "little", 
            "differently", 
            "0", 
            "Have", 
            "actionable", 
            "tools", 
            "that", 
            "you", 
            "can", 
            "use", 
            "instantly", 
            "Managers", 
            "Are", 
            "Heroes", 
            "Mana_ersAreHeroes.com"
        ], 
        "PBP_MAH_102_6_pdf/MAH102_PRESENTATION_PDF.pdf[0]": [
            "MANAGERS", 
            "ARE", 
            "HEROES", 
            "Sowing", 
            "the", 
            "world.", 
            "one", 
            "workplace", 
            "villoin", 
            "at", 
            "o", 
            "time.", 
            "chquish", 
            "Toxic", 
            "Employees", 
            "Superpower", 
            "Troining", 
            "Managers", 
            "Are", 
            "Heroes", 
            "384", 
            "Technology", 
            "Drive", 
            "Malvern,", 
            "PA", 
            "19355\u20141315", 
            "1\u2014877-477\u20141755", 
            "|", 
            "ManagersAreHeroes.com"
        ], 
        "PBP_MAH_102_6_pdf/MAH102_PRESENTATION_PDF.pdf[1]": [
            "ifesaquish", 
            "Toxic", 
            "Employees", 
            "Superpower", 
            "Training", 
            "Mission", 
            "Advisor:", 
            "Steve", 
            "Roesler", 
            "-:\"i:\u2018.i:i:1\"", 
            "V", 
            "\u20197", 
            "Get", 
            "involved!", 
            "Live", 
            "on", 
            "webinar", 
            "day", 
            "&", 
            "on", 
            "the", 
            "HeroBoard", 
            "We", 
            "want", 
            "to", 
            "provide", 
            "you", 
            "tools", 
            "to", 
            "become", 
            "a", 
            "heroic", 
            "manager!", 
            "Managers", 
            "Are", 
            "Heroes", 
            "Mana_ersAreHeroes.com"
        ], 
        "PBP_MAH_102_6_pdf/MAH102_PRESENTATION_PDF.pdf[7]": [
            "1.", 
            "Hostile/aggressive", 
            "(bully)", 
            "6.", 
            "Know-it-all", 
            "2.", 
            "Whiner", 
            "7.", 
            "Sniping", 
            "3.", 
            "Negativist", 
            "8.", 
            "Indecision", 
            "(the", 
            "'no'", 
            "person)", 
            "(the", 
            "'maybe\u2019", 
            "person)", 
            "4.", 
            "Arrogance", 
            "9.", 
            "Super", 
            "Agreeable", 
            "(think", 
            "they", 
            "know-it-all)", 
            "(the", 
            "'yes\u2019", 
            "person)", 
            "5.", 
            "Unresponsive/Silent", 
            "1", 
            ".l", 
            "t'", 
            "(the", 
            "'nothing'", 
            "person)", 
            "0", 
            "mpa", 
            "lence", 
            "What", 
            "does", 
            "your", 
            "organization", 
            "want", 
            "and", 
            "need", 
            "from", 
            "its", 
            "people?", 
            "How", 
            "do", 
            "you", 
            "identify", 
            "and", 
            "translate", 
            "what", 
            "you", 
            "want", 
            "and", 
            "need?", 
            "Are", 
            "you", 
            "focusing", 
            "on", 
            "what", 
            "you", 
            "do", 
            "want", 
            "or", 
            "don't", 
            "want?", 
            "Do", 
            "you", 
            "capitalize", 
            "on", 
            "the", 
            "power", 
            "of", 
            "observation?", 
            "When", 
            "and", 
            "how", 
            "do", 
            "you", 
            "ask", 
            "for", 
            "speci\ufb01c", 
            "changes", 
            "in", 
            "behavior", 
            "and", 
            "performance?", 
            "Managers", 
            "Are", 
            "Heroes", 
            "Mana_ersAreHeroes.com"
        ], 
        "PBP_MAH_102_6_pdf/MAH102_PRESENTATION_PDF.pdf[6]": [
            "Things", 
            "Go", 
            "Wrong", 
            "When:", 
            "0", 
            "Rules,", 
            "procedures,", 
            "values,", 
            "expectations", 
            "aren't", 
            "made", 
            "clear", 
            "0", 
            "Supervisors", 
            "haven't", 
            "been", 
            "able", 
            "to", 
            "talk", 
            "skillfully", 
            "and", 
            "quickly", 
            "enough", 
            "about", 
            "the", 
            "issue(s)", 
            "Consider", 
            "this:", 
            "Are", 
            "you", 
            "including", 
            "everything", 
            "that", 
            "is", 
            "involved", 
            "with", 
            "a", 
            "particular", 
            "task?", 
            "How", 
            "good", 
            "are", 
            "you", 
            "at", 
            "painting", 
            "a", 
            "picture", 
            "in", 
            "the", 
            "heat", 
            "of", 
            "the", 
            "moment?", 
            "\u201cThe", 
            "difference", 
            "between", 
            "employees", 
            "who", 
            "perform", 
            "well", 
            "and", 
            "those", 
            "who", 
            "perform", 
            "poorly", 
            "is", 
            "not", 
            "how", 
            "they", 
            "are", 
            "paid", 
            "but", 
            "how", 
            "they", 
            "are", 
            "treated.\u201d", 
            "Managers", 
            "Are", 
            "Heroes", 
            "Mana_ersAreHeroes.com"
        ], 
        "PBP_MAH_102_6_pdf/MAH102_PRESENTATION_PDF.pdf[4]": [
            "1':", 
            "-.", 
            ":", 
            "ii\u201d", 
            "\"", 
            "Ask", 
            "yourself", 
            "some", 
            "probing", 
            "questions:", 
            "Who", 
            "is", 
            "pushing", 
            "my", 
            "buttons", 
            "at", 
            "work?", 
            "What", 
            "is", 
            "pushing", 
            "my", 
            "buttons", 
            "at", 
            "work?", 
            "Why", 
            "does", 
            "it", 
            "really", 
            "matter?", 
            "What", 
            "are", 
            "our", 
            "responsibilities:", 
            "0", 
            "Hitting", 
            "metrics/goals/etc.", 
            "0", 
            "Manage", 
            "people", 
            "toward", 
            "that", 
            "goal", 
            "Be", 
            "an", 
            "orchestra", 
            "leader!", 
            "Managers", 
            "Are", 
            "Heroes", 
            "Mana_ersAreHeroes.com"
        ], 
        "PBP_MAH_102_6_pdf/MAH102_PRESENTATION_PDF.pdf[5]": [
            "you're", 
            "trying", 
            "to", 
            "acc-melfth", 
            "(metric,", 
            "goal,", 
            "etc)", 
            "to", 
            "manage", 
            "People", 
            "toward", 
            "the", 
            "\"What\"", 
            "Process", 
            "Super", 
            "Tip!", 
            "$", 
            "This", 
            "can", 
            "be", 
            "used", 
            "to", 
            "coach", 
            "your", 
            "people,", 
            "during", 
            "a", 
            "performance", 
            "review,", 
            "or", 
            "a", 
            "diagnostic", 
            "to", 
            "work", 
            "towards", 
            "a", 
            "particular", 
            "goal", 
            "Managers", 
            "Are", 
            "Heroes", 
            "Mana_ersAreHeroes.com"
        ], 
        "PBP_MAH_102_6_pdf/MAH102_PRESENTATION_PDF.pdf[3]": [
            "'", 
            "-:-\\", 
            ",,", 
            "_", 
            "..'", 
            ",_i,", 
            "_|_", 
            ".", 
            "\u2018u", 
            "11'~-li'!-')", 
            "\u201c1:1!", 
            "'J-\u2018Hv", 
            "712:7", 
            "Ask", 
            "yourself", 
            "some", 
            "probing", 
            "questions:", 
            "Who", 
            "is", 
            "pushing", 
            "my", 
            "buttons", 
            "at", 
            "work?", 
            "What", 
            "is", 
            "pushing", 
            "my", 
            "buttons", 
            "at", 
            "work?", 
            "Why", 
            "does", 
            "it", 
            "really", 
            "matter?", 
            "\u2018VI'", 
            "4\u2018", 
            ",'", 
            "H!\"", 
            "i\u2018hl.", 
            "'", 
            "u}.", 
            ",", 
            "V", 
            ".7", 
            ",", 
            "5", 
            "_rr", 
            ",", 
            "|_", 
            "_", 
            "\u2018_\u2018", 
            "thus.\u00bb", 
            "\"has", 
            "'", 
            ".", 
            "1mg\u201c", 
            "712:?", 
            "Ask", 
            "yourself", 
            "some", 
            "probing", 
            "questions:", 
            "Who", 
            "is", 
            "pushing", 
            "my", 
            "buttons", 
            "at", 
            "work?", 
            "What", 
            "is", 
            "pushing", 
            "my", 
            "buttons", 
            "at", 
            "work?", 
            "pompous", 
            ".1)", 
            "comments,", 
            ":2", 
            "'", 
            "c'r\u2018ndCCiQOW", 
            "ilw", 
            "\u201d'c'\u00e9\u2018h\u2018u", 
            "Mn", 
            "3", 
            "*3", 
            "~", 
            "\u201dmy?", 
            "\"\u20193'", 
            "*", 
            ".9\u201c", 
            "51:5:", 
            "U04\u201c", 
            "'L\u2018f-Cc\ufb01", 
            "-", 
            "\u20187", 
            "\"", 
            "\"", 
            "(dyxnky", 
            "\"", 
            "'7", 
            "SCHWL'CalIO\ufb02", 
            "'", 
            "--", 
            "power", 
            "g", 
            "g", 
            "(\u201cI\u2018Y'l\u2018", 
            "an", 
            "er", 
            "L'XpL\u2019lllSC", 
            "-,,-3", 
            "(5%!", 
            "\\\u2018.l", 
            "1:\"", 
            "negativist", 
            "j.", 
            "1*", 
            "kl\u2018loll.\u2018", 
            "ll", 
            "'3\u201d", 
            "\u2018", 
            "no", 
            "show", 
            "Managers", 
            "Are", 
            "Heroes", 
            "Mana-ersAreHeroes.com"
        ]
    }
}