﻿"first name","last name","email","internal id","external id","course","first interaction"
"Cheryl","Adkins","cheryl.l.lastomirsky-adkins@medtronic.com","aa76ec8d-c384-48a9-b9f0-faf7b55a00cb","51V","PBP_WLC_305_4","2016-02-15 10:59"
"Mary","Abatie","mary.e.abatie@oregon.gov","dfc7120f-9717-43f1-b797-21775e768c96","51T","PBP_WLC_305_4","2016-02-12 17:42"
"Darlene","Weber","darlene.weber@csaa.com","40f5b29e-21ee-4eaf-831d-c634d69b8051","4R8","PBP_WLC_305_4","2016-02-11 09:46"
"Sofia","Poliak","spoliak@flcities.com","10f096e2-1c3a-4eaf-a217-7213fdd62207","523","PBP_WLC_305_4","2016-02-11 20:10"
"Kesley","Tweed","kesley.tweed@enbridge.com","6439231d-daee-439c-b72f-71ec15406ac4","51N","PBP_WLC_305_4","2016-02-10 18:29"
"Vicki","Baker","vbaker@ahsstaffing.com","596e50c2-5959-48e2-9af0-c1959c51f81e","528","PBP_WLC_305_4","2016-02-10 18:05"
"Maria","Cavallo","maria.c.cavallo@medtronic.com","b35085f7-a1c8-415c-a150-2ddd0e4a1473","51U","PBP_WLC_305_4","2016-02-11 09:28"
"Lillian","McIntyre","lilly_mcintyre@teamhealth.com","ca2a2529-6ff9-423e-9659-62542e969525","524","PBP_WLC_305_4","2016-02-10 15:47"
"Annie","Li","annie.s.li@kp.org","619fdf3c-dc23-4617-a1da-e738e7652836","31L","PBP_WLC_305_4","2016-02-11 19:17"
"Theresa","Davis","theresa.davis@inova.org","467c583c-3378-4d99-be70-d9103b0e40f0","4UH","PBP_WLC_305_4","2016-02-15 17:51"
"Francesca","DeLeon","francesca.deleon@enbridge.com","14928783-1a93-46f7-9c4e-6ac4498a2b82","51M","PBP_WLC_305_4","2016-02-15 15:21"
"Kathleen","McManus","kathleen.m.mcmanus@medtronic.com","2080070e-dce0-4447-8800-e1d7c7cdb432","51R","PBP_WLC_305_4","2016-02-10 10:21"
"Julie ","Reifer-Jones","reifer-jonesj@liat.com","575b7251-1094-4144-9096-b014febeaad5","525","PBP_WLC_305_4","2016-02-09 14:53"
"Ernestine","Slay","ernestine.slay@oregon.gov","6779cb21-e4f6-47bc-95fe-344e58777d9c","51P","PBP_WLC_305_4","2016-02-10 13:50"
"Rosa","Alvarez","ralvarez@mx.imshealth.com","2f78bc99-e2fc-4bc4-9e21-d0d6cf4212da","4XM","PBP_WLC_305_4","2016-02-16 12:44"
"Amanda","Wasniewski","amanda.wasniewski@fmc.com","cbce1bec-598e-47b1-b83d-67916f738ad2","51K","PBP_WLC_305_4","2016-02-10 08:34"
"MARYROSE","SALVACION","maryrose.salvacion@bayer.com","cf3d73ea-a615-4b98-ab65-cfcac89e76f6","522","PBP_WLC_305_4","2016-02-10 11:13"
"Dawn","Cummings","dac7@pge.com","4658e802-9dfb-4e0e-8270-ad0783469c4a","4ER","PBP_WLC_305_4","2016-02-16 11:15"
"Gail N.","Robinson","gnrobinson@clark.edu","0225a76e-c5ce-43cf-bfc6-37ac849b11ab","53W","PBP_WLC_305_4","2016-02-10 13:32"
"Cathy","Brosnan-Trepus","susan.a.daugherty-flynn@oregon.gov","f8b18315-0810-48a8-904b-e6337e847da5","51S","PBP_WLC_305_4","2016-02-10 12:51"
"JOELLE","RONDEAU","JRONDEAU@sgmagence.com","84355766-82b8-4ab7-8120-0111929dbc70","51Z","PBP_WLC_305_4","2016-02-11 09:46"
"Teresa","Paschall","teresap@cal-cert.com","ba338861-bb3a-483c-b8bd-3e5f4ad84551","4U4","PBP_WLC_305_4","2016-02-15 20:00"
"Sarah","Mihalow","sarah_mihalow@cable.comcast.com","94b0a12f-e154-4b93-8d82-c2a0f9465958","547","PBP_WLC_305_4","2016-02-16 11:45"
"Leslie","Boggs","leslie.carrell.boggs@gmail.com","d0610172-2a74-4597-a287-a3d7e97dd8f6","526","PBP_WLC_305_4","2016-02-10 13:39"
"Bridget","Eastham","bridget.dowdle@first-american.net","8ae95337-3de9-40a0-8e5c-8c4228eb25ac","4Q8","PBP_WLC_305_4","2016-02-15 19:19"
"Elsie","Onofrio","elsie.onofrio@medtronic.com","e6a86749-25d5-41cd-b821-18c9d7d046cf","51Q","PBP_WLC_305_4","2016-02-15 13:44"
"Sarah","Carper","sarah.carper@metrotech.edu","f41c281a-1121-426c-92c1-53a6ae2db407","3Q5","PBP_WLC_305_4","2016-02-10 10:49"
"Jodi ","Crovo","jodi.d.crovo@medtronic.com","ba1446f7-fd29-48d6-89ec-d17b16c5098e","521","PBP_WLC_305_4","2016-02-10 13:21"
"Candra","Cho","ccho@ssmh.org","7230e336-ee2f-4f0c-a823-c9bbd7e16f61","4Q3","PBP_WLC_305_4","2016-02-11 09:05"
"Laura","Engles-Horton","laura.engles-horton@bayer.com","74f273e5-9147-4908-b37b-19f6cf95d547","54A","PBP_WLC_305_4","2016-02-12 11:54"
"Nicole ","Grant","nicole.grant@medtronic.com","1b53da90-c554-482b-a9e7-d219e4631604","52X","PBP_WLC_305_4","2016-02-10 14:12"
