user,003b182d-51cd-42c2-9efd-d90ecea5d1d9,Lisa,Vogt,lisa.a.vogt@medtronic.com
dates/chapters,PBP_WLC_302_4_CHAPTER00,PBP_WLC_302_4_CHAPTER01,PBP_WLC_302_4_CHAPTER02,PBP_WLC_302_4_CHAPTER03,PBP_WLC_302_4_CHAPTER04,PBP_WLC_302_4_CHAPTER05,PBP_WLC_302_4_CHAPTER06,PBP_WLC_302_4_CHAPTER07,PBP_WLC_302_4_CHAPTER08,PBP_WLC_302_4_CHAPTER09,PBP_WLC_302_4_CHAPTER10
2015_10_27,0,0,0,0,0,0,0,0,0,0,0
2015_10_28,0,0,0,0,0,0,0,0,0,0,0
2015_10_29,0,0,0,0,0,0,0,0,0,0,0
2015_10_30,0,0,0,0,0,0,0,0,0,0,0
2015_10_31,0,0,0,0,0,0,0,0,0,0,0
2015_11_1,0,0,0,0,0,0,0,0,0,0,0
2015_11_2,0,0,0,0,0,0,0,0,0,0,0
2015_11_3,0,0,0,0,0,0,0,0,0,0,0
2015_11_4,1,1,1,1,0,0,0,0,0,0,0
2015_11_5,1,0,0,0,0,0,0,0,0,0,0
2015_11_6,0,0,0,0,0,0,0,0,0,0,0
2015_11_7,0,0,0,0,0,0,0,0,0,0,0
2015_11_8,0,0,0,0,0,0,0,0,0,0,0
2015_11_9,0,0,0,0,0,0,0,0,0,0,0
2015_11_10,0,0,0,0,0,0,0,0,0,0,0
2015_11_11,0,0,0,0,0,0,0,0,0,0,0
2015_11_12,0,0,0,0,0,0,0,0,0,0,0
2015_11_13,0,0,0,0,0,0,0,0,0,0,0
2015_11_14,0,0,0,0,0,0,0,0,0,0,0
2015_11_16,0,0,0,0,0,0,0,0,0,0,0
2015_11_18,0,0,0,0,0,0,0,0,0,0,0
2015_11_19,0,0,0,0,0,0,0,0,0,0,0
2015_11_20,0,0,0,0,0,0,0,0,0,0,0
2015_11_23,0,0,0,0,0,0,0,0,0,0,0
2015_11_24,0,0,0,0,0,0,0,0,0,0,0
2015_11_25,0,0,0,0,0,0,0,0,0,0,0
2015_11_30,0,0,0,0,0,0,0,0,0,0,0
2015_12_1,0,0,0,0,0,0,0,0,0,0,0
2015_12_3,0,0,0,0,0,0,0,0,0,0,0
2015_12_4,0,0,0,0,0,0,0,0,0,0,0
2015_12_15,0,0,0,0,0,0,0,0,0,0,0
2015_12_16,0,0,0,0,0,0,0,0,0,0,0
2015_12_28,0,0,0,0,0,0,0,0,0,0,0
2016_1_7,0,0,0,0,0,0,0,0,0,0,0
2016_1_8,0,0,0,0,0,0,0,0,0,0,0
2016_1_11,0,0,0,0,0,0,0,0,0,0,0
  
user,0d73eb97-bf46-4d17-8ebd-0cdee69019b3,Denice,Hallstein,denice.hallstein@cetonline.org
dates/chapters,PBP_WLC_302_4_CHAPTER00,PBP_WLC_302_4_CHAPTER01,PBP_WLC_302_4_CHAPTER02,PBP_WLC_302_4_CHAPTER03,PBP_WLC_302_4_CHAPTER04,PBP_WLC_302_4_CHAPTER05,PBP_WLC_302_4_CHAPTER06,PBP_WLC_302_4_CHAPTER07,PBP_WLC_302_4_CHAPTER08,PBP_WLC_302_4_CHAPTER09,PBP_WLC_302_4_CHAPTER10
2015_10_27,0,0,0,0,0,0,0,0,0,0,0
2015_10_28,1,1,1,1,1,1,1,0,0,0,0
2015_10_29,0,0,0,0,0,0,0,0,0,0,0
2015_10_30,0,0,0,0,0,0,0,0,0,0,0
2015_10_31,0,0,0,0,0,0,0,0,0,0,0
2015_11_1,0,0,0,0,0,0,0,0,0,0,0
2015_11_2,0,0,0,0,0,0,0,0,0,0,0
2015_11_3,0,0,0,0,0,0,0,0,0,0,0
2015_11_4,0,0,0,0,0,0,0,1,1,1,0
2015_11_5,0,0,0,0,0,0,0,0,0,1,0
2015_11_6,0,0,0,0,0,0,0,0,0,0,0
2015_11_7,0,0,0,0,0,0,0,0,0,0,0
2015_11_8,0,0,0,0,0,0,0,0,0,0,0
2015_11_9,0,0,0,0,0,0,0,0,0,0,0
2015_11_10,0,0,0,0,0,0,0,0,0,0,0
2015_11_11,0,0,0,0,0,0,0,0,0,0,0
2015_11_12,0,0,0,0,0,0,0,0,0,0,0
2015_11_13,0,0,0,0,0,0,0,0,0,0,0
2015_11_14,0,0,0,0,0,0,0,0,0,0,0
2015_11_16,0,0,0,0,0,0,0,0,0,0,0
2015_11_18,0,0,0,0,0,0,0,0,0,0,0
2015_11_19,0,0,0,0,0,0,0,0,0,0,0
2015_11_20,0,0,0,0,0,0,0,0,0,0,0
2015_11_23,0,0,0,0,0,0,0,0,0,0,0
2015_11_24,0,0,0,0,0,0,0,0,0,0,0
2015_11_25,0,0,0,0,0,0,0,0,0,0,0
2015_11_30,0,0,0,0,0,0,0,0,0,0,0
2015_12_1,0,0,0,0,0,0,0,0,0,0,0
2015_12_3,0,0,0,0,0,0,0,0,0,0,0
2015_12_4,0,0,0,0,0,0,0,0,0,0,0
2015_12_15,0,0,0,0,0,0,0,0,0,0,0
2015_12_16,0,0,0,0,0,0,0,0,0,0,0
2015_12_28,0,0,0,0,0,0,0,0,0,0,0
2016_1_7,0,0,0,0,0,0,0,0,0,0,0
2016_1_8,0,0,0,0,0,0,0,0,0,0,0
2016_1_11,0,0,0,0,0,0,0,0,0,0,0
  
user,228f6acb-6b86-4bd5-b52f-1bb3701e2534,Kathy,Park,kpark@interceptpharma.com
dates/chapters,PBP_WLC_302_4_CHAPTER00,PBP_WLC_302_4_CHAPTER01,PBP_WLC_302_4_CHAPTER02,PBP_WLC_302_4_CHAPTER03,PBP_WLC_302_4_CHAPTER04,PBP_WLC_302_4_CHAPTER05,PBP_WLC_302_4_CHAPTER06,PBP_WLC_302_4_CHAPTER07,PBP_WLC_302_4_CHAPTER08,PBP_WLC_302_4_CHAPTER09,PBP_WLC_302_4_CHAPTER10
2015_10_27,0,0,0,0,0,0,0,0,0,0,0
2015_10_28,0,0,0,0,0,0,0,0,0,0,0
2015_10_29,0,0,0,0,0,0,0,0,0,0,0
2015_10_30,0,0,0,0,0,0,0,0,0,0,0
2015_10_31,0,0,0,0,0,0,0,0,0,0,0
2015_11_1,1,2,1,1,1,1,2,0,0,0,0
2015_11_2,0,0,0,0,0,0,0,0,0,0,0
2015_11_3,0,0,0,0,0,0,0,0,0,0,0
2015_11_4,0,0,0,0,0,0,0,1,2,0,0
2015_11_5,0,0,0,0,0,0,0,0,0,0,0
2015_11_6,0,0,0,0,0,0,0,0,1,1,0
2015_11_7,0,0,0,0,0,0,0,0,0,0,0
2015_11_8,0,0,0,0,0,0,0,0,0,1,1
2015_11_9,1,0,0,0,0,0,0,0,0,1,1
2015_11_10,0,0,0,0,0,0,0,0,0,0,0
2015_11_11,0,0,0,0,0,0,0,0,0,0,0
2015_11_12,0,0,0,0,0,0,0,0,0,0,0
2015_11_13,0,0,0,0,0,0,0,0,0,0,0
2015_11_14,0,0,0,0,0,0,0,0,0,0,0
2015_11_16,0,0,0,0,0,0,0,0,0,0,0
2015_11_18,0,0,0,0,0,0,0,0,0,0,0
2015_11_19,0,0,0,0,0,0,0,0,0,0,0
2015_11_20,0,0,0,0,0,0,0,0,0,0,0
2015_11_23,0,0,0,0,0,0,0,0,0,0,0
2015_11_24,0,0,0,0,0,0,0,0,0,0,0
2015_11_25,0,0,0,0,0,0,0,0,0,0,0
2015_11_30,0,0,0,0,0,0,0,0,0,0,0
2015_12_1,0,0,0,0,0,0,0,0,0,0,0
2015_12_3,0,0,0,0,0,0,0,0,0,0,0
2015_12_4,0,0,0,0,0,0,0,0,0,0,0
2015_12_15,0,0,0,0,0,0,0,0,0,0,0
2015_12_16,0,0,0,0,0,0,0,0,0,0,0
2015_12_28,0,0,0,0,0,0,0,0,0,0,0
2016_1_7,0,0,0,0,0,0,0,0,0,0,0
2016_1_8,0,0,0,0,0,0,0,0,0,0,0
2016_1_11,0,0,0,0,0,0,0,0,0,0,0
  
user,26d7ebc2-c513-4b6b-bba3-f8cad3eccd7c,first_name,last_name,cannot find
dates/chapters,PBP_WLC_302_4_CHAPTER00,PBP_WLC_302_4_CHAPTER01,PBP_WLC_302_4_CHAPTER02,PBP_WLC_302_4_CHAPTER03,PBP_WLC_302_4_CHAPTER04,PBP_WLC_302_4_CHAPTER05,PBP_WLC_302_4_CHAPTER06,PBP_WLC_302_4_CHAPTER07,PBP_WLC_302_4_CHAPTER08,PBP_WLC_302_4_CHAPTER09,PBP_WLC_302_4_CHAPTER10
2015_10_27,0,0,0,0,0,0,0,0,0,0,0
2015_10_28,0,0,0,0,0,0,0,0,0,0,0
2015_10_29,0,0,0,0,0,0,0,0,0,0,0
2015_10_30,0,0,0,0,0,0,0,0,0,0,0
2015_10_31,0,0,0,0,0,0,0,0,0,0,0
2015_11_1,0,0,0,0,0,0,0,0,0,0,0
2015_11_2,0,0,0,0,0,0,0,0,0,0,0
2015_11_3,0,0,0,0,0,0,0,0,0,0,0
2015_11_4,1,1,1,1,1,1,1,1,0,0,0
2015_11_5,0,0,0,0,0,0,0,0,0,0,0
2015_11_6,0,0,0,0,0,0,0,0,0,0,0
2015_11_7,0,0,0,0,0,0,0,0,0,0,0
2015_11_8,0,0,0,0,0,0,0,0,0,0,0
2015_11_9,0,0,0,0,0,0,0,0,0,0,0
2015_11_10,0,0,0,0,0,0,0,0,1,2,0
2015_11_11,0,0,0,0,0,0,0,0,0,0,0
2015_11_12,0,0,0,0,0,0,0,0,0,0,0
2015_11_13,0,0,0,0,0,0,0,0,0,0,0
2015_11_14,0,0,0,0,0,0,0,0,0,0,0
2015_11_16,0,0,0,0,0,0,0,0,0,0,0
2015_11_18,0,0,0,0,0,0,0,0,0,0,0
2015_11_19,0,0,0,0,0,0,0,0,0,0,0
2015_11_20,0,0,0,0,0,0,0,0,0,0,0
2015_11_23,0,0,0,0,0,0,0,0,0,0,0
2015_11_24,0,0,0,0,0,0,0,0,0,0,0
2015_11_25,0,0,0,0,0,0,0,0,0,0,0
2015_11_30,0,0,0,0,0,0,0,0,0,0,0
2015_12_1,0,0,0,0,0,0,0,0,0,0,0
2015_12_3,0,0,0,0,0,0,0,0,0,0,0
2015_12_4,0,0,0,0,0,0,0,0,0,0,0
2015_12_15,0,0,0,0,0,0,0,0,0,0,0
2015_12_16,0,0,0,0,0,0,0,0,0,0,0
2015_12_28,0,0,0,0,0,0,0,0,0,0,0
2016_1_7,0,0,0,0,0,0,0,0,0,0,0
2016_1_8,0,0,0,0,0,0,0,0,0,0,0
2016_1_11,0,0,0,0,0,0,0,0,0,0,0
  
user,28a7bb26-dafc-4767-ab51-074bb6e140f3,first_name,last_name,cannot find
dates/chapters,PBP_WLC_302_4_CHAPTER00,PBP_WLC_302_4_CHAPTER01,PBP_WLC_302_4_CHAPTER02,PBP_WLC_302_4_CHAPTER03,PBP_WLC_302_4_CHAPTER04,PBP_WLC_302_4_CHAPTER05,PBP_WLC_302_4_CHAPTER06,PBP_WLC_302_4_CHAPTER07,PBP_WLC_302_4_CHAPTER08,PBP_WLC_302_4_CHAPTER09,PBP_WLC_302_4_CHAPTER10
2015_10_27,0,0,0,0,0,0,0,0,0,0,0
2015_10_28,0,0,0,0,0,0,0,0,0,0,0
2015_10_29,0,0,0,0,0,0,0,0,0,0,0
2015_10_30,0,0,0,0,0,0,0,0,0,0,0
2015_10_31,0,0,0,0,0,0,0,0,0,0,0
2015_11_1,0,0,0,0,0,0,0,0,0,0,0
2015_11_2,0,0,0,0,0,0,0,0,0,0,0
2015_11_3,0,0,0,0,0,0,0,0,0,0,0
2015_11_4,0,0,0,0,0,0,0,0,0,0,0
2015_11_5,0,0,0,0,0,0,0,0,0,0,0
2015_11_6,0,0,0,0,0,0,0,0,0,0,0
2015_11_7,0,0,0,0,0,0,0,0,0,0,0
2015_11_8,0,0,0,0,0,0,0,0,0,0,0
2015_11_9,0,0,0,0,0,0,0,0,0,0,0
2015_11_10,0,0,0,0,0,0,0,0,0,0,0
2015_11_11,0,0,0,0,0,0,0,0,0,0,0
2015_11_12,0,0,0,0,0,0,0,0,0,0,0
2015_11_13,0,0,0,0,0,0,0,0,0,0,0
2015_11_14,0,0,0,0,0,0,0,0,0,0,0
2015_11_16,0,0,0,0,0,0,0,0,0,0,0
2015_11_18,0,0,0,0,0,0,0,0,0,0,0
2015_11_19,0,0,0,0,0,0,0,0,0,0,0
2015_11_20,0,0,0,0,0,0,0,0,0,0,0
2015_11_23,0,0,0,0,0,0,0,0,0,0,0
2015_11_24,0,0,0,0,0,0,0,0,0,0,0
2015_11_25,0,0,0,0,0,0,0,0,0,0,0
2015_11_30,0,0,0,0,0,0,0,0,0,0,0
2015_12_1,0,0,0,0,0,0,0,0,0,0,0
2015_12_3,0,0,0,0,0,0,0,0,0,0,0
2015_12_4,0,0,0,0,0,0,0,0,0,0,0
2015_12_15,0,0,0,0,0,0,0,0,0,0,0
2015_12_16,0,0,0,0,0,0,0,0,0,0,0
2015_12_28,0,0,0,0,0,0,0,0,0,0,0
2016_1_7,0,0,0,0,0,0,0,0,0,0,0
2016_1_8,0,0,0,0,0,0,0,0,0,0,0
2016_1_11,0,0,0,0,0,0,0,0,0,0,0
  
user,29440024-8a49-4866-aeb8-2f3d3c3d14a9,Cynthia,McCallum,camccallum@fedex.com
dates/chapters,PBP_WLC_302_4_CHAPTER00,PBP_WLC_302_4_CHAPTER01,PBP_WLC_302_4_CHAPTER02,PBP_WLC_302_4_CHAPTER03,PBP_WLC_302_4_CHAPTER04,PBP_WLC_302_4_CHAPTER05,PBP_WLC_302_4_CHAPTER06,PBP_WLC_302_4_CHAPTER07,PBP_WLC_302_4_CHAPTER08,PBP_WLC_302_4_CHAPTER09,PBP_WLC_302_4_CHAPTER10
2015_10_27,1,0,0,0,0,0,0,0,0,0,0
2015_10_28,0,0,0,0,0,0,0,0,0,0,0
2015_10_29,0,0,0,0,0,0,0,0,0,0,0
2015_10_30,0,1,1,1,0,0,0,0,0,0,0
2015_10_31,0,0,0,0,0,0,0,0,0,0,0
2015_11_1,0,0,0,0,0,0,0,0,0,0,0
2015_11_2,0,0,0,0,0,0,0,0,0,0,0
2015_11_3,0,1,0,2,0,0,0,0,0,0,0
2015_11_4,0,0,0,0,0,0,0,0,0,0,0
2015_11_5,0,0,0,0,0,0,0,0,0,0,0
2015_11_6,0,0,0,0,0,0,0,0,0,0,0
2015_11_7,0,0,0,0,0,0,0,0,0,0,0
2015_11_8,0,0,0,0,0,0,0,0,0,0,0
2015_11_9,0,2,0,1,1,1,1,1,1,0,0
2015_11_10,0,0,0,0,0,0,0,0,1,1,1
2015_11_11,0,0,0,0,0,0,0,0,0,0,0
2015_11_12,0,0,0,0,0,0,0,0,0,0,0
2015_11_13,0,0,0,0,0,0,0,0,0,0,0
2015_11_14,0,0,0,0,0,0,0,0,0,0,0
2015_11_16,0,0,0,0,0,0,0,0,0,0,0
2015_11_18,0,0,0,0,0,0,0,0,0,0,0
2015_11_19,0,0,0,0,0,0,0,0,0,0,0
2015_11_20,0,0,0,0,0,0,0,0,0,0,0
2015_11_23,0,0,0,0,0,0,0,0,0,0,0
2015_11_24,0,0,0,0,0,0,0,0,0,0,0
2015_11_25,0,0,0,0,0,0,0,0,0,0,0
2015_11_30,0,0,0,0,0,0,0,0,0,0,0
2015_12_1,0,0,0,0,0,0,0,0,0,0,0
2015_12_3,0,0,0,0,0,0,0,0,0,0,0
2015_12_4,0,0,0,0,0,0,0,0,0,0,0
2015_12_15,0,0,0,0,0,0,0,0,0,0,0
2015_12_16,0,0,0,0,0,0,0,0,0,0,0
2015_12_28,0,0,0,0,0,0,0,0,0,0,0
2016_1_7,0,0,0,0,0,0,0,0,0,0,0
2016_1_8,0,0,0,0,0,0,0,0,0,0,0
2016_1_11,0,0,0,0,0,0,0,0,0,0,0
  
user,2ab0f97a-7cd0-43aa-96f2-125c9139fa60,first_name,last_name,cannot find
dates/chapters,PBP_WLC_302_4_CHAPTER00,PBP_WLC_302_4_CHAPTER01,PBP_WLC_302_4_CHAPTER02,PBP_WLC_302_4_CHAPTER03,PBP_WLC_302_4_CHAPTER04,PBP_WLC_302_4_CHAPTER05,PBP_WLC_302_4_CHAPTER06,PBP_WLC_302_4_CHAPTER07,PBP_WLC_302_4_CHAPTER08,PBP_WLC_302_4_CHAPTER09,PBP_WLC_302_4_CHAPTER10
2015_10_27,0,0,0,0,0,0,0,0,0,0,0
2015_10_28,0,0,0,0,0,0,0,0,0,0,0
2015_10_29,0,0,0,0,0,0,0,0,0,0,0
2015_10_30,0,0,0,0,0,0,0,0,0,0,0
2015_10_31,0,0,0,0,0,0,0,0,0,0,0
2015_11_1,0,0,0,0,0,0,0,0,0,0,0
2015_11_2,0,0,0,0,0,0,0,0,0,0,0
2015_11_3,0,0,0,0,0,0,0,0,0,0,0
2015_11_4,0,0,0,0,0,0,0,0,0,0,0
2015_11_5,0,0,0,0,0,0,0,0,0,0,0
2015_11_6,0,0,0,0,0,0,0,0,0,0,0
2015_11_7,0,0,0,0,0,0,0,0,0,0,0
2015_11_8,0,0,0,0,0,0,0,0,0,0,0
2015_11_9,0,0,0,0,0,0,0,0,0,0,0
2015_11_10,0,0,0,0,0,0,0,0,0,0,0
2015_11_11,0,0,0,0,0,0,0,0,0,0,0
2015_11_12,0,0,0,0,0,0,0,0,0,0,0
2015_11_13,0,0,0,0,0,0,0,0,0,0,0
2015_11_14,0,0,0,0,0,0,0,0,0,0,0
2015_11_16,0,0,0,0,0,0,0,0,0,0,0
2015_11_18,0,0,0,0,0,0,0,0,0,0,0
2015_11_19,0,0,0,0,0,0,0,0,0,0,0
2015_11_20,0,0,0,0,0,0,0,0,0,0,0
2015_11_23,0,0,0,0,0,0,0,0,0,0,0
2015_11_24,0,0,0,0,0,0,0,0,0,0,0
2015_11_25,0,0,0,0,0,0,0,0,0,0,0
2015_11_30,0,0,0,0,0,0,0,0,0,0,0
2015_12_1,0,0,0,0,0,0,0,0,0,0,0
2015_12_3,0,0,0,0,0,0,0,0,0,0,0
2015_12_4,0,0,0,0,0,0,0,0,0,0,0
2015_12_15,0,0,0,0,0,0,0,0,0,0,0
2015_12_16,0,0,0,0,0,0,0,0,0,0,0
2015_12_28,0,0,0,0,0,0,0,0,0,0,0
2016_1_7,0,0,0,0,0,0,0,0,0,0,0
2016_1_8,0,0,0,0,0,0,0,0,0,0,0
2016_1_11,0,0,0,0,0,0,0,0,0,0,0
  
user,2df975d6-46aa-460d-9d88-419ef2d8dddd,Cecilia,Mulhollen,cmulhollen@triumphgroup.com
dates/chapters,PBP_WLC_302_4_CHAPTER00,PBP_WLC_302_4_CHAPTER01,PBP_WLC_302_4_CHAPTER02,PBP_WLC_302_4_CHAPTER03,PBP_WLC_302_4_CHAPTER04,PBP_WLC_302_4_CHAPTER05,PBP_WLC_302_4_CHAPTER06,PBP_WLC_302_4_CHAPTER07,PBP_WLC_302_4_CHAPTER08,PBP_WLC_302_4_CHAPTER09,PBP_WLC_302_4_CHAPTER10
2015_10_27,0,0,0,0,0,0,0,0,0,0,0
2015_10_28,3,1,3,1,0,0,0,0,0,0,0
2015_10_29,2,0,3,0,0,0,0,0,0,0,0
2015_10_30,0,1,3,3,1,2,1,0,0,0,0
2015_10_31,0,0,0,0,0,0,0,0,0,0,0
2015_11_1,0,1,1,2,1,1,1,2,0,0,0
2015_11_2,0,0,0,0,0,0,0,0,0,0,0
2015_11_3,0,0,0,0,0,0,0,0,0,0,0
2015_11_4,0,0,0,0,0,0,1,1,4,1,0
2015_11_5,0,0,0,0,0,0,0,0,0,1,0
2015_11_6,0,0,0,0,0,0,1,0,0,1,1
2015_11_7,0,0,0,0,0,0,0,0,0,0,0
2015_11_8,0,0,0,0,0,0,0,0,0,0,0
2015_11_9,0,0,0,0,0,0,0,0,0,1,2
2015_11_10,0,0,0,0,0,0,0,0,0,0,0
2015_11_11,0,0,0,0,0,0,0,0,0,0,0
2015_11_12,0,0,0,0,0,0,0,0,0,0,0
2015_11_13,0,0,0,0,0,0,0,0,0,0,0
2015_11_14,0,0,0,0,0,0,0,0,0,0,0
2015_11_16,0,0,0,0,0,0,0,0,0,0,0
2015_11_18,0,0,0,0,0,0,0,0,0,0,0
2015_11_19,0,0,0,0,0,0,0,0,0,0,0
2015_11_20,0,0,0,0,0,0,0,0,0,0,0
2015_11_23,0,0,0,0,0,0,0,0,0,0,0
2015_11_24,0,0,0,0,0,0,0,0,0,0,0
2015_11_25,0,0,0,0,0,0,0,0,0,0,0
2015_11_30,0,0,0,0,0,0,0,0,0,0,0
2015_12_1,0,0,0,0,0,0,0,0,0,0,0
2015_12_3,0,0,0,0,0,0,0,0,0,0,0
2015_12_4,0,0,0,0,0,0,0,0,0,0,0
2015_12_15,0,0,0,0,0,0,0,0,0,0,0
2015_12_16,0,0,0,0,0,0,0,0,0,0,0
2015_12_28,0,0,0,0,0,0,0,0,0,0,0
2016_1_7,0,0,0,0,0,0,0,0,0,0,0
2016_1_8,0,0,0,0,0,0,0,0,0,0,0
2016_1_11,0,0,0,0,0,0,0,0,0,0,0
  
user,37308937-008b-43a1-b6de-e1c6bb58ae32,first_name,last_name,cannot find
dates/chapters,PBP_WLC_302_4_CHAPTER00,PBP_WLC_302_4_CHAPTER01,PBP_WLC_302_4_CHAPTER02,PBP_WLC_302_4_CHAPTER03,PBP_WLC_302_4_CHAPTER04,PBP_WLC_302_4_CHAPTER05,PBP_WLC_302_4_CHAPTER06,PBP_WLC_302_4_CHAPTER07,PBP_WLC_302_4_CHAPTER08,PBP_WLC_302_4_CHAPTER09,PBP_WLC_302_4_CHAPTER10
2015_10_27,0,0,0,0,0,0,0,0,0,0,0
2015_10_28,0,0,0,0,0,0,0,0,0,0,0
2015_10_29,0,0,0,0,0,0,0,0,0,0,0
2015_10_30,0,0,0,0,0,0,0,0,0,0,0
2015_10_31,0,0,0,0,0,0,0,0,0,0,0
2015_11_1,0,0,0,0,0,0,0,0,0,0,0
2015_11_2,0,0,0,0,0,0,0,0,0,0,0
2015_11_3,0,0,0,0,0,0,0,0,0,0,0
2015_11_4,0,0,0,0,0,0,0,0,0,0,0
2015_11_5,0,0,0,0,0,0,0,0,0,0,0
2015_11_6,0,0,0,0,0,0,0,0,0,0,0
2015_11_7,0,0,0,0,0,0,0,0,0,0,0
2015_11_8,0,0,0,0,0,0,0,0,0,0,0
2015_11_9,0,0,0,0,0,0,0,0,0,0,0
2015_11_10,0,0,0,0,0,0,0,0,0,0,0
2015_11_11,0,0,0,0,0,0,0,0,0,0,0
2015_11_12,0,0,0,0,0,0,0,0,0,0,0
2015_11_13,0,0,0,0,0,0,0,0,0,0,0
2015_11_14,0,0,0,0,0,0,0,0,0,0,0
2015_11_16,0,0,0,0,0,0,0,0,0,0,0
2015_11_18,0,0,0,0,0,0,0,0,0,0,0
2015_11_19,0,0,0,0,0,0,0,0,0,0,0
2015_11_20,0,0,0,0,0,0,0,0,0,0,0
2015_11_23,0,0,0,0,0,0,0,0,0,0,0
2015_11_24,0,0,0,0,0,0,0,0,0,0,0
2015_11_25,0,0,0,0,0,0,0,0,0,0,0
2015_11_30,0,0,0,0,0,0,0,0,0,0,0
2015_12_1,0,0,0,0,0,0,0,0,0,0,0
2015_12_3,0,0,0,0,0,0,0,0,0,0,0
2015_12_4,0,0,0,0,0,0,0,0,0,0,0
2015_12_15,0,0,0,0,0,0,0,0,0,0,0
2015_12_16,0,0,0,0,0,0,0,0,0,0,0
2015_12_28,0,0,0,0,0,0,0,0,0,0,0
2016_1_7,0,0,0,0,0,0,0,0,0,0,0
2016_1_8,0,0,0,0,0,0,0,0,0,0,0
2016_1_11,0,0,0,0,0,0,0,0,0,0,0
  
user,3b0d7f23-c3d2-4503-aa77-c5b88f06a2cd,Lisa,Oania,loania@kichler.com
dates/chapters,PBP_WLC_302_4_CHAPTER00,PBP_WLC_302_4_CHAPTER01,PBP_WLC_302_4_CHAPTER02,PBP_WLC_302_4_CHAPTER03,PBP_WLC_302_4_CHAPTER04,PBP_WLC_302_4_CHAPTER05,PBP_WLC_302_4_CHAPTER06,PBP_WLC_302_4_CHAPTER07,PBP_WLC_302_4_CHAPTER08,PBP_WLC_302_4_CHAPTER09,PBP_WLC_302_4_CHAPTER10
2015_10_27,0,0,0,0,0,0,0,0,0,0,0
2015_10_28,0,0,0,0,0,0,0,0,0,0,0
2015_10_29,1,1,2,0,0,0,0,0,0,0,0
2015_10_30,0,0,0,0,0,0,0,0,0,0,0
2015_10_31,0,0,0,0,0,0,0,0,0,0,0
2015_11_1,0,0,0,0,0,0,0,0,0,0,0
2015_11_2,0,0,1,1,2,0,0,0,0,0,0
2015_11_3,0,0,0,0,1,2,1,0,0,0,0
2015_11_4,0,0,0,0,0,0,0,1,1,0,0
2015_11_5,0,0,0,0,0,0,0,0,0,0,0
2015_11_6,0,0,1,0,0,0,0,0,2,1,0
2015_11_7,0,0,0,0,0,0,0,0,0,0,0
2015_11_8,0,0,0,0,0,0,0,0,0,0,0
2015_11_9,0,0,0,0,0,0,1,0,0,1,1
2015_11_10,0,0,0,0,0,0,0,0,0,0,0
2015_11_11,0,0,0,0,0,0,0,0,0,0,0
2015_11_12,0,0,0,0,0,0,0,0,1,0,0
2015_11_13,0,0,0,0,0,0,0,0,0,0,0
2015_11_14,0,0,0,0,0,0,0,0,0,0,0
2015_11_16,0,0,0,0,0,0,0,0,0,0,0
2015_11_18,0,0,0,0,0,0,0,0,0,0,0
2015_11_19,0,0,0,0,0,0,0,0,0,0,0
2015_11_20,0,0,0,0,0,0,0,0,0,0,0
2015_11_23,0,0,0,0,0,0,0,0,0,0,0
2015_11_24,0,0,0,0,0,0,0,0,0,0,0
2015_11_25,0,0,4,1,1,1,1,1,0,0,0
2015_11_30,0,0,0,0,0,0,0,0,0,0,0
2015_12_1,0,0,0,0,0,0,0,0,0,0,0
2015_12_3,0,0,0,0,0,0,0,0,0,0,0
2015_12_4,0,0,0,0,0,0,0,0,0,0,0
2015_12_15,0,0,0,0,0,0,0,0,0,0,0
2015_12_16,0,0,0,0,0,0,0,0,0,0,0
2015_12_28,0,0,0,0,0,0,0,0,0,0,0
2016_1_7,0,0,0,0,0,0,0,0,0,0,0
2016_1_8,0,0,0,0,0,0,0,0,0,0,0
2016_1_11,0,0,0,0,0,0,0,0,0,0,0
  
user,448be22d-1b8c-4848-9f50-0018460996a1,first_name,last_name,cannot find
dates/chapters,PBP_WLC_302_4_CHAPTER00,PBP_WLC_302_4_CHAPTER01,PBP_WLC_302_4_CHAPTER02,PBP_WLC_302_4_CHAPTER03,PBP_WLC_302_4_CHAPTER04,PBP_WLC_302_4_CHAPTER05,PBP_WLC_302_4_CHAPTER06,PBP_WLC_302_4_CHAPTER07,PBP_WLC_302_4_CHAPTER08,PBP_WLC_302_4_CHAPTER09,PBP_WLC_302_4_CHAPTER10
2015_10_27,0,0,0,0,0,0,0,0,0,0,0
2015_10_28,0,0,0,0,0,0,0,0,0,0,0
2015_10_29,0,0,0,0,0,0,0,0,0,0,0
2015_10_30,0,0,0,0,0,0,0,0,0,0,0
2015_10_31,0,0,0,0,0,0,0,0,0,0,0
2015_11_1,0,0,0,0,0,0,0,0,0,0,0
2015_11_2,0,0,0,0,0,0,0,0,0,0,0
2015_11_3,0,0,0,0,0,0,0,0,0,0,0
2015_11_4,0,0,0,0,0,0,0,0,0,0,0
2015_11_5,0,0,0,0,0,0,0,0,0,0,0
2015_11_6,0,0,0,0,0,0,0,0,0,0,0
2015_11_7,0,0,0,0,0,0,0,0,0,0,0
2015_11_8,0,0,0,0,0,0,0,0,0,0,0
2015_11_9,0,0,0,0,0,0,0,0,0,0,0
2015_11_10,0,0,0,0,0,0,0,0,0,0,0
2015_11_11,0,0,0,0,0,0,0,0,0,0,0
2015_11_12,0,0,0,0,0,0,0,0,0,0,0
2015_11_13,0,0,0,0,0,0,0,0,0,0,0
2015_11_14,0,0,0,0,0,0,0,0,0,0,0
2015_11_16,0,0,0,0,0,0,0,0,0,0,0
2015_11_18,0,0,0,0,0,0,0,0,0,0,0
2015_11_19,0,0,0,0,0,0,0,0,0,0,0
2015_11_20,0,0,0,0,0,0,0,0,0,0,0
2015_11_23,0,0,0,0,0,0,0,0,0,0,0
2015_11_24,0,0,0,0,0,0,0,0,0,0,0
2015_11_25,0,0,0,0,0,0,0,0,0,0,0
2015_11_30,0,0,0,0,0,0,0,0,0,0,0
2015_12_1,0,0,0,0,0,0,0,0,0,0,0
2015_12_3,0,0,0,0,0,0,0,0,0,0,0
2015_12_4,0,0,0,0,0,0,0,0,0,0,0
2015_12_15,0,0,0,0,0,0,0,0,0,0,0
2015_12_16,0,0,0,0,0,0,0,0,0,0,0
2015_12_28,0,0,0,0,0,0,0,0,0,0,0
2016_1_7,0,0,0,0,0,0,0,0,0,0,0
2016_1_8,0,0,0,0,0,0,0,0,0,0,0
2016_1_11,0,0,0,0,0,0,0,0,0,0,0
  
user,4658e802-9dfb-4e0e-8270-ad0783469c4a,Dawn,Cummings,dac7@pge.com
dates/chapters,PBP_WLC_302_4_CHAPTER00,PBP_WLC_302_4_CHAPTER01,PBP_WLC_302_4_CHAPTER02,PBP_WLC_302_4_CHAPTER03,PBP_WLC_302_4_CHAPTER04,PBP_WLC_302_4_CHAPTER05,PBP_WLC_302_4_CHAPTER06,PBP_WLC_302_4_CHAPTER07,PBP_WLC_302_4_CHAPTER08,PBP_WLC_302_4_CHAPTER09,PBP_WLC_302_4_CHAPTER10
2015_10_27,0,0,0,0,0,0,0,0,0,0,0
2015_10_28,3,1,0,0,0,0,0,0,0,0,0
2015_10_29,0,0,0,0,0,0,0,0,0,0,0
2015_10_30,0,0,0,0,0,0,0,0,0,0,0
2015_10_31,0,0,0,0,0,0,0,0,0,0,0
2015_11_1,0,0,0,0,0,0,0,0,0,0,0
2015_11_2,3,3,2,2,1,1,1,0,0,0,0
2015_11_3,0,0,0,0,0,0,0,0,0,0,0
2015_11_4,0,0,0,0,0,0,0,0,0,0,0
2015_11_5,0,0,0,0,0,0,0,0,0,0,0
2015_11_6,0,0,0,0,0,0,0,0,0,0,0
2015_11_7,0,0,0,0,0,2,2,3,1,1,1
2015_11_8,0,0,0,0,0,0,0,0,0,0,0
2015_11_9,0,0,0,0,0,0,0,0,0,0,0
2015_11_10,0,0,0,0,0,0,0,0,0,0,0
2015_11_11,0,0,0,0,0,0,0,0,0,0,0
2015_11_12,0,0,0,0,0,0,0,0,0,0,0
2015_11_13,0,0,0,0,0,0,0,0,0,0,0
2015_11_14,0,0,0,0,0,0,0,0,0,0,0
2015_11_16,0,0,0,0,0,0,0,0,0,0,0
2015_11_18,0,0,0,0,0,0,0,0,0,0,0
2015_11_19,0,0,0,0,0,0,0,0,0,0,0
2015_11_20,0,0,0,0,0,0,0,0,0,0,0
2015_11_23,0,0,0,0,0,0,0,0,0,0,0
2015_11_24,0,0,0,0,0,0,0,0,0,0,0
2015_11_25,0,0,0,0,0,0,0,0,0,0,0
2015_11_30,0,0,0,0,0,0,0,0,0,0,0
2015_12_1,0,0,0,0,0,0,0,0,0,0,0
2015_12_3,0,0,0,0,0,0,0,0,0,0,0
2015_12_4,0,0,0,0,0,0,0,0,0,0,0
2015_12_15,0,0,0,0,0,0,0,0,0,0,0
2015_12_16,0,0,0,0,0,0,0,0,0,0,0
2015_12_28,0,0,0,0,0,0,0,0,0,0,0
2016_1_7,0,0,0,0,0,0,0,0,0,0,0
2016_1_8,0,0,0,0,0,0,0,0,0,0,0
2016_1_11,0,0,0,0,0,0,0,0,0,0,0
  
user,4bb033ff-cf14-401b-aff8-d20c1c437ab8,first_name,last_name,cannot find
dates/chapters,PBP_WLC_302_4_CHAPTER00,PBP_WLC_302_4_CHAPTER01,PBP_WLC_302_4_CHAPTER02,PBP_WLC_302_4_CHAPTER03,PBP_WLC_302_4_CHAPTER04,PBP_WLC_302_4_CHAPTER05,PBP_WLC_302_4_CHAPTER06,PBP_WLC_302_4_CHAPTER07,PBP_WLC_302_4_CHAPTER08,PBP_WLC_302_4_CHAPTER09,PBP_WLC_302_4_CHAPTER10
2015_10_27,0,0,0,0,0,0,0,0,0,0,0
2015_10_28,1,1,1,0,0,0,0,0,0,0,0
2015_10_29,1,1,7,2,1,1,1,2,0,0,0
2015_10_30,0,0,0,0,0,0,0,0,0,0,0
2015_10_31,0,0,0,0,0,0,0,0,0,0,0
2015_11_1,0,0,0,0,0,0,0,0,0,0,0
2015_11_2,0,0,0,0,0,0,0,0,0,0,0
2015_11_3,0,0,0,0,0,0,0,0,0,0,0
2015_11_4,6,1,0,0,0,0,1,0,1,0,0
2015_11_5,0,0,0,0,0,0,0,0,0,0,0
2015_11_6,0,0,0,0,0,0,0,0,0,0,0
2015_11_7,0,0,0,0,0,0,0,0,0,0,0
2015_11_8,0,0,0,0,0,0,0,0,0,0,0
2015_11_9,0,0,0,0,0,0,0,0,0,0,0
2015_11_10,0,0,0,0,0,0,0,0,0,0,0
2015_11_11,0,0,0,0,0,0,0,0,0,0,0
2015_11_12,0,0,0,0,0,0,0,0,0,0,0
2015_11_13,0,0,0,0,0,0,0,0,0,0,0
2015_11_14,0,0,0,0,0,0,0,0,0,0,0
2015_11_16,0,0,0,0,0,0,0,0,0,0,0
2015_11_18,0,0,0,0,0,0,0,0,0,0,0
2015_11_19,0,0,0,0,0,0,0,0,0,0,0
2015_11_20,0,0,0,0,0,0,0,0,0,0,0
2015_11_23,0,0,0,0,0,0,0,0,0,0,0
2015_11_24,0,0,0,0,0,0,0,0,0,0,0
2015_11_25,0,0,0,0,0,0,0,0,0,0,0
2015_11_30,0,0,0,0,0,0,0,0,0,0,0
2015_12_1,0,0,0,0,0,0,0,0,0,0,0
2015_12_3,0,0,0,0,0,0,0,0,0,0,0
2015_12_4,0,0,0,0,0,0,0,0,0,0,0
2015_12_15,0,0,0,0,0,0,0,0,0,0,0
2015_12_16,0,0,0,0,0,0,0,0,0,0,0
2015_12_28,0,0,0,0,0,0,0,0,0,0,0
2016_1_7,0,0,0,0,0,0,0,0,0,0,0
2016_1_8,0,0,0,0,0,0,0,0,0,0,0
2016_1_11,0,0,0,0,0,0,0,0,0,0,0
  
user,5042f3e9-85b6-42bf-8b55-fa4c328b3395,first_name,last_name,cannot find
dates/chapters,PBP_WLC_302_4_CHAPTER00,PBP_WLC_302_4_CHAPTER01,PBP_WLC_302_4_CHAPTER02,PBP_WLC_302_4_CHAPTER03,PBP_WLC_302_4_CHAPTER04,PBP_WLC_302_4_CHAPTER05,PBP_WLC_302_4_CHAPTER06,PBP_WLC_302_4_CHAPTER07,PBP_WLC_302_4_CHAPTER08,PBP_WLC_302_4_CHAPTER09,PBP_WLC_302_4_CHAPTER10
2015_10_27,0,0,0,0,0,0,0,0,0,0,0
2015_10_28,1,1,1,1,1,1,2,0,0,0,0
2015_10_29,0,1,0,0,0,0,0,2,0,0,0
2015_10_30,0,0,0,0,0,0,2,0,0,0,0
2015_10_31,0,0,0,0,0,0,0,0,0,0,0
2015_11_1,0,0,0,0,0,0,0,0,0,0,0
2015_11_2,0,0,0,0,0,0,1,0,0,0,0
2015_11_3,0,0,0,0,0,0,1,0,0,0,0
2015_11_4,0,0,0,0,0,0,0,0,0,0,0
2015_11_5,0,0,0,0,0,1,1,0,0,0,0
2015_11_6,0,0,0,0,0,0,0,0,0,0,0
2015_11_7,0,0,0,0,0,0,0,0,0,0,0
2015_11_8,0,0,0,0,0,0,0,0,0,0,0
2015_11_9,0,0,0,0,0,0,0,0,0,0,0
2015_11_10,0,0,0,0,0,0,0,0,0,0,0
2015_11_11,0,0,0,0,0,0,0,0,1,1,0
2015_11_12,0,0,0,0,0,0,0,0,0,0,0
2015_11_13,0,0,0,0,0,0,0,0,0,0,0
2015_11_14,0,0,0,0,0,0,0,0,0,0,0
2015_11_16,0,0,0,0,0,0,0,0,0,0,0
2015_11_18,0,0,0,0,0,0,0,0,0,0,0
2015_11_19,0,0,0,0,0,0,0,0,0,0,0
2015_11_20,0,0,0,0,0,0,0,0,0,0,0
2015_11_23,0,0,0,0,0,0,0,0,0,0,0
2015_11_24,0,0,0,0,0,0,0,0,0,0,0
2015_11_25,0,0,0,0,0,0,0,0,0,0,0
2015_11_30,0,0,0,0,0,0,0,0,0,0,0
2015_12_1,0,0,0,0,0,0,0,0,0,1,0
2015_12_3,0,0,0,0,0,0,0,0,0,0,0
2015_12_4,0,0,0,0,0,0,0,0,0,0,0
2015_12_15,0,0,0,0,0,0,0,0,0,0,0
2015_12_16,0,0,0,0,0,0,0,0,0,0,0
2015_12_28,0,0,0,0,0,0,0,0,0,0,0
2016_1_7,0,0,0,0,0,0,0,0,0,0,0
2016_1_8,0,0,0,0,0,0,0,0,0,0,0
2016_1_11,0,0,0,0,0,0,0,0,0,0,0
  
user,58bac6e6-3fbb-4da6-a93f-72696c7c8877,Jodi,McCall,jodi.k.mccall@medtronic.com
dates/chapters,PBP_WLC_302_4_CHAPTER00,PBP_WLC_302_4_CHAPTER01,PBP_WLC_302_4_CHAPTER02,PBP_WLC_302_4_CHAPTER03,PBP_WLC_302_4_CHAPTER04,PBP_WLC_302_4_CHAPTER05,PBP_WLC_302_4_CHAPTER06,PBP_WLC_302_4_CHAPTER07,PBP_WLC_302_4_CHAPTER08,PBP_WLC_302_4_CHAPTER09,PBP_WLC_302_4_CHAPTER10
2015_10_27,0,0,0,0,0,0,0,0,0,0,0
2015_10_28,1,2,0,0,0,0,0,0,0,0,0
2015_10_29,0,0,1,1,1,0,0,0,0,0,0
2015_10_30,0,0,0,0,0,0,0,0,0,0,0
2015_10_31,0,0,0,0,0,0,0,0,0,0,0
2015_11_1,0,0,0,0,0,0,0,0,0,0,0
2015_11_2,0,1,0,0,1,3,3,1,1,0,0
2015_11_3,0,0,0,0,0,0,0,0,0,0,0
2015_11_4,0,0,0,0,0,0,0,0,2,0,0
2015_11_5,0,0,0,0,0,0,0,0,0,0,0
2015_11_6,0,0,0,0,0,0,0,0,0,0,0
2015_11_7,0,0,0,0,0,0,0,0,0,0,0
2015_11_8,0,0,0,0,0,0,0,0,0,0,0
2015_11_9,0,0,0,0,0,0,0,0,0,0,0
2015_11_10,0,0,0,0,0,0,0,0,0,0,0
2015_11_11,0,0,0,0,0,0,2,1,0,2,2
2015_11_12,0,0,0,0,0,0,0,0,0,0,0
2015_11_13,0,0,0,0,0,0,0,0,0,0,0
2015_11_14,0,0,0,0,0,0,0,0,0,0,0
2015_11_16,0,0,0,0,0,0,0,0,0,0,0
2015_11_18,0,0,0,0,0,0,0,0,0,0,0
2015_11_19,0,0,0,0,0,0,0,0,0,0,0
2015_11_20,0,0,0,0,0,0,0,0,0,0,0
2015_11_23,0,0,0,0,0,0,0,0,0,0,0
2015_11_24,0,0,0,0,0,0,0,0,0,0,0
2015_11_25,0,0,0,0,0,0,0,0,0,0,0
2015_11_30,0,0,0,0,0,0,0,0,0,0,0
2015_12_1,0,0,0,0,0,0,0,0,0,0,0
2015_12_3,0,0,0,0,0,0,0,0,0,0,0
2015_12_4,0,0,0,0,0,0,0,0,0,0,0
2015_12_15,0,0,0,0,0,0,0,0,0,0,0
2015_12_16,0,0,0,0,0,0,0,0,0,0,0
2015_12_28,0,0,0,0,0,0,0,0,0,0,0
2016_1_7,0,0,0,0,0,0,0,0,0,0,0
2016_1_8,0,0,0,0,0,0,0,0,0,0,0
2016_1_11,0,0,0,0,0,0,0,0,0,0,0
  
user,623a1cfb-bd17-408f-9f5e-4b02116c1637,Erika,Worthy,worthye@tcnj.edu
dates/chapters,PBP_WLC_302_4_CHAPTER00,PBP_WLC_302_4_CHAPTER01,PBP_WLC_302_4_CHAPTER02,PBP_WLC_302_4_CHAPTER03,PBP_WLC_302_4_CHAPTER04,PBP_WLC_302_4_CHAPTER05,PBP_WLC_302_4_CHAPTER06,PBP_WLC_302_4_CHAPTER07,PBP_WLC_302_4_CHAPTER08,PBP_WLC_302_4_CHAPTER09,PBP_WLC_302_4_CHAPTER10
2015_10_27,0,0,0,0,0,0,0,0,0,0,0
2015_10_28,0,0,0,0,0,0,0,0,0,0,0
2015_10_29,0,0,0,0,0,0,0,0,0,0,0
2015_10_30,0,0,0,0,0,0,0,0,0,0,0
2015_10_31,0,0,0,0,0,0,0,0,0,0,0
2015_11_1,1,1,1,1,0,0,0,0,0,0,0
2015_11_2,0,0,0,0,0,0,0,0,0,0,0
2015_11_3,0,0,0,1,0,0,0,0,0,0,0
2015_11_4,0,0,0,0,0,0,0,0,0,0,0
2015_11_5,0,0,0,0,0,0,0,0,0,0,0
2015_11_6,0,0,0,0,0,0,0,0,0,0,0
2015_11_7,0,1,1,1,2,1,1,0,0,0,0
2015_11_8,0,0,0,0,0,0,0,0,0,0,0
2015_11_9,0,0,0,0,0,0,0,0,0,0,0
2015_11_10,0,0,0,0,0,0,0,0,0,0,0
2015_11_11,0,0,0,0,0,0,0,0,0,0,0
2015_11_12,0,0,0,0,0,0,0,0,0,0,0
2015_11_13,0,0,0,0,0,0,0,0,0,0,0
2015_11_14,0,0,0,0,0,0,0,0,0,0,0
2015_11_16,0,0,0,0,0,0,0,0,0,0,0
2015_11_18,0,0,0,0,0,0,0,0,0,0,0
2015_11_19,0,0,0,0,0,0,0,0,0,0,0
2015_11_20,0,0,0,0,0,0,0,0,0,0,0
2015_11_23,0,0,0,0,0,0,0,0,0,0,0
2015_11_24,0,0,0,0,0,0,0,0,0,0,0
2015_11_25,0,0,0,0,0,0,0,0,0,0,0
2015_11_30,0,0,0,0,0,0,0,0,0,0,0
2015_12_1,0,0,0,0,0,0,0,0,0,0,0
2015_12_3,0,0,0,0,0,0,0,0,0,0,0
2015_12_4,0,0,0,0,0,0,0,0,0,0,0
2015_12_15,0,0,0,0,0,0,0,0,0,0,0
2015_12_16,0,0,0,0,0,0,0,0,0,0,0
2015_12_28,0,0,0,0,0,0,0,0,0,0,0
2016_1_7,0,0,0,0,0,0,0,0,0,0,0
2016_1_8,0,0,0,0,0,0,0,0,0,0,0
2016_1_11,0,0,0,0,0,0,0,0,0,0,0
  
user,67b68ff1-159c-4467-b7df-2272e6e26650,first_name,last_name,cannot find
dates/chapters,PBP_WLC_302_4_CHAPTER00,PBP_WLC_302_4_CHAPTER01,PBP_WLC_302_4_CHAPTER02,PBP_WLC_302_4_CHAPTER03,PBP_WLC_302_4_CHAPTER04,PBP_WLC_302_4_CHAPTER05,PBP_WLC_302_4_CHAPTER06,PBP_WLC_302_4_CHAPTER07,PBP_WLC_302_4_CHAPTER08,PBP_WLC_302_4_CHAPTER09,PBP_WLC_302_4_CHAPTER10
2015_10_27,0,0,0,0,0,0,0,0,0,0,0
2015_10_28,0,0,0,0,0,0,0,0,0,0,0
2015_10_29,0,0,0,0,0,0,0,0,0,0,0
2015_10_30,0,0,0,0,0,0,0,0,0,0,0
2015_10_31,0,0,0,0,0,0,0,0,0,0,0
2015_11_1,0,0,0,0,0,0,0,0,0,0,0
2015_11_2,0,0,0,0,0,0,0,0,0,0,0
2015_11_3,0,0,0,0,0,0,0,0,0,0,0
2015_11_4,0,0,0,0,0,0,0,0,0,0,0
2015_11_5,1,1,1,1,1,1,1,1,3,1,0
2015_11_6,0,0,0,0,0,0,0,0,0,0,0
2015_11_7,0,0,0,0,0,0,0,0,0,0,0
2015_11_8,0,0,0,0,0,0,0,0,0,0,0
2015_11_9,0,0,0,0,0,0,1,0,0,0,0
2015_11_10,0,0,0,0,0,0,0,0,0,0,0
2015_11_11,0,0,0,0,0,0,0,0,0,0,0
2015_11_12,0,0,0,0,0,0,0,0,0,0,0
2015_11_13,0,0,0,0,0,0,0,0,0,0,0
2015_11_14,0,0,0,0,0,0,0,0,0,0,0
2015_11_16,0,0,0,0,0,0,0,0,0,0,0
2015_11_18,0,0,0,0,0,0,0,0,0,0,0
2015_11_19,0,0,0,0,0,0,0,0,0,0,0
2015_11_20,0,0,0,0,0,0,0,0,0,0,0
2015_11_23,0,0,0,0,0,0,0,0,0,0,0
2015_11_24,0,0,0,0,0,0,0,0,0,0,0
2015_11_25,0,0,0,0,0,0,0,0,0,0,0
2015_11_30,0,0,0,0,0,0,0,0,0,0,0
2015_12_1,0,0,0,0,0,0,0,0,0,0,0
2015_12_3,0,0,0,0,0,0,0,0,0,0,0
2015_12_4,0,0,0,0,0,0,0,0,0,0,0
2015_12_15,0,0,0,0,0,0,0,0,0,0,0
2015_12_16,0,0,0,0,0,0,0,0,0,0,0
2015_12_28,0,0,0,0,0,0,0,0,0,0,0
2016_1_7,0,0,0,0,0,0,0,0,0,0,0
2016_1_8,0,0,0,0,0,0,0,0,0,0,0
2016_1_11,0,0,0,0,0,0,0,0,0,0,0
  
user,68507bb5-7366-400f-b771-ea11f74a019b,Myra,Mercado,myra.mercado@usps.gov
dates/chapters,PBP_WLC_302_4_CHAPTER00,PBP_WLC_302_4_CHAPTER01,PBP_WLC_302_4_CHAPTER02,PBP_WLC_302_4_CHAPTER03,PBP_WLC_302_4_CHAPTER04,PBP_WLC_302_4_CHAPTER05,PBP_WLC_302_4_CHAPTER06,PBP_WLC_302_4_CHAPTER07,PBP_WLC_302_4_CHAPTER08,PBP_WLC_302_4_CHAPTER09,PBP_WLC_302_4_CHAPTER10
2015_10_27,0,0,0,0,0,0,0,0,0,0,0
2015_10_28,1,4,5,3,2,1,0,0,0,0,0
2015_10_29,1,1,0,0,0,0,0,0,0,0,0
2015_10_30,0,0,0,0,0,0,0,0,0,0,0
2015_10_31,0,0,0,0,0,0,0,0,0,0,0
2015_11_1,0,0,0,0,0,0,0,0,0,0,0
2015_11_2,2,1,6,1,2,1,1,0,0,0,0
2015_11_3,0,0,0,0,0,0,0,0,0,0,0
2015_11_4,0,0,0,0,0,0,0,0,0,0,0
2015_11_5,0,0,0,0,0,0,0,0,0,0,0
2015_11_6,0,0,0,0,0,0,0,0,0,0,0
2015_11_7,0,0,0,0,0,0,0,0,0,0,0
2015_11_8,0,0,0,0,0,0,0,0,0,0,0
2015_11_9,1,2,3,2,3,4,8,11,6,5,3
2015_11_10,0,0,0,0,0,0,0,0,0,0,0
2015_11_11,0,0,0,0,0,0,0,0,0,0,0
2015_11_12,0,0,0,0,0,0,0,0,0,0,0
2015_11_13,0,0,0,0,0,0,0,0,0,0,0
2015_11_14,0,0,0,0,0,0,0,0,0,0,0
2015_11_16,0,0,0,0,0,0,0,0,0,0,0
2015_11_18,0,0,0,0,0,0,0,0,0,0,0
2015_11_19,0,0,0,0,0,0,0,0,0,0,0
2015_11_20,0,0,0,0,0,0,0,0,0,0,0
2015_11_23,0,0,0,0,0,0,0,0,0,0,0
2015_11_24,0,0,0,0,0,0,0,0,0,0,0
2015_11_25,0,0,0,0,0,0,0,0,0,0,0
2015_11_30,0,0,0,0,0,0,0,0,0,0,0
2015_12_1,0,0,0,0,0,0,0,0,0,0,0
2015_12_3,0,0,0,0,0,0,0,0,0,0,0
2015_12_4,0,0,0,0,0,0,0,0,0,0,0
2015_12_15,0,0,0,0,0,0,0,0,0,0,0
2015_12_16,0,0,0,0,0,0,0,0,0,0,0
2015_12_28,0,0,0,0,0,0,0,0,0,0,0
2016_1_7,0,0,0,0,0,0,0,0,0,0,0
2016_1_8,0,0,0,0,0,0,0,0,0,0,0
2016_1_11,0,0,0,0,0,0,0,0,0,0,0
  
user,687ab48d-e8a0-4649-9364-b63ca9908378,Andrea,Nicholson,anicholson@summitconstructors.com
dates/chapters,PBP_WLC_302_4_CHAPTER00,PBP_WLC_302_4_CHAPTER01,PBP_WLC_302_4_CHAPTER02,PBP_WLC_302_4_CHAPTER03,PBP_WLC_302_4_CHAPTER04,PBP_WLC_302_4_CHAPTER05,PBP_WLC_302_4_CHAPTER06,PBP_WLC_302_4_CHAPTER07,PBP_WLC_302_4_CHAPTER08,PBP_WLC_302_4_CHAPTER09,PBP_WLC_302_4_CHAPTER10
2015_10_27,0,0,0,0,0,0,0,0,0,0,0
2015_10_28,0,0,0,0,0,0,0,0,0,0,0
2015_10_29,0,0,0,0,0,0,0,0,0,0,0
2015_10_30,2,4,7,5,2,0,0,0,0,0,0
2015_10_31,0,0,0,0,0,0,0,0,0,0,0
2015_11_1,0,0,0,0,0,0,0,0,0,0,0
2015_11_2,0,0,0,0,1,1,1,0,0,0,0
2015_11_3,0,0,0,0,0,0,0,0,0,0,0
2015_11_4,0,0,0,0,0,1,2,2,1,0,0
2015_11_5,0,0,0,0,0,0,0,0,5,1,0
2015_11_6,0,0,0,0,0,0,0,0,0,0,0
2015_11_7,0,0,0,0,0,0,0,0,0,0,0
2015_11_8,0,0,0,0,0,0,0,0,1,1,1
2015_11_9,0,0,0,0,0,0,0,0,0,0,0
2015_11_10,0,0,0,0,0,0,0,0,0,0,0
2015_11_11,0,0,0,0,0,0,0,0,0,0,0
2015_11_12,0,0,0,0,0,0,0,0,0,0,0
2015_11_13,0,0,0,0,0,0,0,0,0,0,0
2015_11_14,0,0,0,0,0,0,0,0,0,0,0
2015_11_16,0,0,0,0,0,0,0,0,0,0,0
2015_11_18,0,0,0,0,0,0,0,0,0,0,0
2015_11_19,0,0,0,0,0,0,0,0,0,0,0
2015_11_20,0,0,0,0,0,0,0,0,0,0,0
2015_11_23,0,0,0,0,0,0,0,0,0,0,0
2015_11_24,0,0,0,0,0,0,0,0,0,0,0
2015_11_25,0,0,0,0,0,0,0,0,0,0,0
2015_11_30,0,0,0,0,0,0,0,0,0,0,0
2015_12_1,0,0,0,0,0,0,0,0,0,0,0
2015_12_3,0,0,0,0,0,0,0,0,0,0,0
2015_12_4,0,0,0,0,0,0,0,0,0,0,0
2015_12_15,0,0,0,0,0,0,0,0,0,0,0
2015_12_16,0,0,0,0,0,0,0,0,0,0,0
2015_12_28,0,0,0,0,0,0,0,0,0,0,0
2016_1_7,0,0,0,0,0,0,0,0,0,0,0
2016_1_8,0,0,0,0,0,0,0,0,0,0,0
2016_1_11,0,0,0,0,0,0,0,0,0,0,0
  
user,6b930cc1-a6bb-4493-99b2-4dd9a79f16e9,Amy,Page,amy_page@cable.comcast.com
dates/chapters,PBP_WLC_302_4_CHAPTER00,PBP_WLC_302_4_CHAPTER01,PBP_WLC_302_4_CHAPTER02,PBP_WLC_302_4_CHAPTER03,PBP_WLC_302_4_CHAPTER04,PBP_WLC_302_4_CHAPTER05,PBP_WLC_302_4_CHAPTER06,PBP_WLC_302_4_CHAPTER07,PBP_WLC_302_4_CHAPTER08,PBP_WLC_302_4_CHAPTER09,PBP_WLC_302_4_CHAPTER10
2015_10_27,0,0,0,0,0,0,0,0,0,0,0
2015_10_28,2,1,1,1,0,0,0,0,0,0,0
2015_10_29,0,0,0,0,0,0,0,0,0,0,0
2015_10_30,0,0,0,0,0,0,0,0,0,0,0
2015_10_31,0,0,0,0,0,0,0,0,0,0,0
2015_11_1,0,0,0,0,0,0,0,0,0,0,0
2015_11_2,0,1,0,1,1,2,1,1,2,0,0
2015_11_3,0,0,0,0,0,0,1,0,0,0,0
2015_11_4,0,0,0,0,0,0,0,0,1,0,0
2015_11_5,0,0,0,0,0,1,0,0,0,2,1
2015_11_6,0,0,0,0,0,0,0,0,0,0,0
2015_11_7,0,0,0,0,0,0,0,0,0,0,0
2015_11_8,0,0,0,0,0,0,0,0,0,0,0
2015_11_9,0,0,0,0,0,1,4,0,0,0,0
2015_11_10,0,0,0,0,0,0,0,0,0,0,0
2015_11_11,0,0,0,0,0,0,0,0,0,0,0
2015_11_12,0,0,0,0,0,0,0,0,0,0,0
2015_11_13,0,0,0,0,0,0,0,0,0,0,0
2015_11_14,0,0,0,0,0,0,0,0,0,0,0
2015_11_16,0,0,0,0,0,0,0,0,0,0,0
2015_11_18,0,0,0,0,0,0,0,0,0,0,0
2015_11_19,0,0,0,0,0,0,0,0,0,0,0
2015_11_20,0,0,0,0,0,0,0,0,0,0,0
2015_11_23,0,0,0,0,0,0,0,0,0,0,0
2015_11_24,0,0,0,0,0,0,0,0,0,0,0
2015_11_25,0,0,0,0,0,0,0,0,0,0,0
2015_11_30,0,0,0,0,0,0,0,0,0,0,0
2015_12_1,0,0,0,0,0,0,0,0,0,0,0
2015_12_3,0,0,0,0,0,0,0,0,0,0,0
2015_12_4,0,0,0,0,0,0,0,0,0,0,0
2015_12_15,0,0,0,0,0,0,0,0,0,0,0
2015_12_16,0,0,0,0,0,0,0,0,0,0,0
2015_12_28,0,0,0,0,0,0,0,0,0,0,0
2016_1_7,0,0,0,0,0,0,0,0,0,0,0
2016_1_8,0,0,0,0,0,0,0,0,0,0,0
2016_1_11,0,0,0,0,0,0,0,0,0,0,0
  
user,6bbefb14-5d5e-4262-a97e-efcb908ec67e,first_name,last_name,cannot find
dates/chapters,PBP_WLC_302_4_CHAPTER00,PBP_WLC_302_4_CHAPTER01,PBP_WLC_302_4_CHAPTER02,PBP_WLC_302_4_CHAPTER03,PBP_WLC_302_4_CHAPTER04,PBP_WLC_302_4_CHAPTER05,PBP_WLC_302_4_CHAPTER06,PBP_WLC_302_4_CHAPTER07,PBP_WLC_302_4_CHAPTER08,PBP_WLC_302_4_CHAPTER09,PBP_WLC_302_4_CHAPTER10
2015_10_27,0,0,0,0,0,0,0,0,0,0,0
2015_10_28,0,0,0,0,0,0,0,0,0,0,0
2015_10_29,0,0,0,0,0,0,0,0,0,0,0
2015_10_30,0,0,0,0,0,0,0,0,0,0,0
2015_10_31,0,0,0,0,0,0,0,0,0,0,0
2015_11_1,0,0,0,0,0,0,0,0,0,0,0
2015_11_2,0,0,0,0,0,0,0,0,0,0,0
2015_11_3,0,0,0,0,0,0,0,0,0,0,0
2015_11_4,0,0,0,0,0,0,0,0,0,0,0
2015_11_5,0,0,0,0,0,0,0,0,0,0,0
2015_11_6,0,0,0,0,0,0,0,0,0,0,0
2015_11_7,0,0,0,0,0,0,0,0,0,0,0
2015_11_8,0,0,0,0,0,0,0,0,0,0,0
2015_11_9,0,0,0,0,0,0,0,0,0,0,0
2015_11_10,0,0,0,0,0,0,0,0,0,0,0
2015_11_11,1,1,1,1,1,1,1,1,1,0,0
2015_11_12,0,0,0,0,0,0,0,0,0,0,0
2015_11_13,0,0,0,0,0,0,0,0,0,0,0
2015_11_14,0,0,0,0,0,0,0,0,0,0,0
2015_11_16,0,0,0,0,0,0,0,0,0,0,0
2015_11_18,0,0,0,0,0,0,0,0,0,0,0
2015_11_19,0,0,0,0,0,0,0,0,0,0,0
2015_11_20,0,0,0,0,0,0,0,0,0,0,0
2015_11_23,1,0,0,0,0,0,1,1,1,0,0
2015_11_24,0,0,0,0,0,0,0,0,0,0,0
2015_11_25,0,0,0,0,0,0,0,0,0,0,0
2015_11_30,0,0,0,0,0,0,0,0,0,0,0
2015_12_1,0,0,0,0,0,0,0,0,0,0,0
2015_12_3,0,0,0,0,0,0,0,0,0,0,0
2015_12_4,0,0,0,0,0,0,0,0,0,0,0
2015_12_15,0,0,0,0,0,0,0,0,0,0,0
2015_12_16,0,0,0,0,0,0,0,0,0,0,0
2015_12_28,0,0,0,0,0,0,0,0,0,0,0
2016_1_7,0,0,0,0,0,0,0,0,0,0,0
2016_1_8,0,0,0,0,0,0,0,0,0,0,0
2016_1_11,0,0,0,0,0,0,0,0,0,0,0
  
user,6be899d1-b8e0-4f98-984a-9dc28a66b4e1,Erin,Beidle,ebeidle@remaxregional.net
dates/chapters,PBP_WLC_302_4_CHAPTER00,PBP_WLC_302_4_CHAPTER01,PBP_WLC_302_4_CHAPTER02,PBP_WLC_302_4_CHAPTER03,PBP_WLC_302_4_CHAPTER04,PBP_WLC_302_4_CHAPTER05,PBP_WLC_302_4_CHAPTER06,PBP_WLC_302_4_CHAPTER07,PBP_WLC_302_4_CHAPTER08,PBP_WLC_302_4_CHAPTER09,PBP_WLC_302_4_CHAPTER10
2015_10_27,0,0,0,0,0,0,0,0,0,0,0
2015_10_28,0,0,0,0,0,0,0,0,0,0,0
2015_10_29,0,0,0,0,0,0,0,0,0,0,0
2015_10_30,0,0,0,0,0,0,0,0,0,0,0
2015_10_31,0,0,0,0,0,0,0,0,0,0,0
2015_11_1,0,0,0,0,0,0,0,0,0,0,0
2015_11_2,0,0,0,0,0,0,0,0,0,0,0
2015_11_3,0,0,0,0,0,0,0,0,0,0,0
2015_11_4,0,0,0,0,0,0,0,0,0,0,0
2015_11_5,1,1,1,1,1,1,1,1,0,0,0
2015_11_6,0,0,0,0,0,0,0,0,1,1,1
2015_11_7,0,0,0,0,0,0,0,0,0,0,0
2015_11_8,0,0,0,0,0,0,0,0,0,0,0
2015_11_9,0,0,0,0,0,0,0,0,0,0,0
2015_11_10,0,0,0,0,0,0,0,0,0,0,0
2015_11_11,0,0,0,0,0,0,0,0,0,0,0
2015_11_12,0,0,0,0,0,0,0,0,0,0,0
2015_11_13,0,0,0,0,0,0,0,0,0,0,0
2015_11_14,0,0,0,0,0,0,0,0,0,0,0
2015_11_16,0,0,0,0,0,0,0,0,0,0,0
2015_11_18,0,0,0,0,0,0,0,0,0,0,0
2015_11_19,0,0,0,0,0,0,0,0,0,0,0
2015_11_20,0,0,0,0,0,0,0,0,0,0,0
2015_11_23,0,0,0,0,0,0,0,0,0,0,0
2015_11_24,0,0,0,0,0,0,0,0,0,0,0
2015_11_25,0,0,0,0,0,0,0,0,0,0,0
2015_11_30,0,0,0,0,0,0,0,0,0,0,0
2015_12_1,0,0,0,0,0,0,0,0,0,0,0
2015_12_3,0,0,0,0,0,0,0,0,0,0,0
2015_12_4,0,0,0,0,0,0,0,0,0,0,0
2015_12_15,0,0,0,0,0,0,0,0,0,0,0
2015_12_16,0,0,0,0,0,0,0,0,0,0,0
2015_12_28,0,0,0,0,0,0,0,0,0,0,0
2016_1_7,0,0,0,0,0,0,0,0,0,0,0
2016_1_8,0,0,0,0,0,0,0,0,0,0,0
2016_1_11,0,0,0,0,0,0,0,0,0,0,0
  
user,6de0fd61-5313-4ee3-b08e-1006358f76c9,first_name,last_name,cannot find
dates/chapters,PBP_WLC_302_4_CHAPTER00,PBP_WLC_302_4_CHAPTER01,PBP_WLC_302_4_CHAPTER02,PBP_WLC_302_4_CHAPTER03,PBP_WLC_302_4_CHAPTER04,PBP_WLC_302_4_CHAPTER05,PBP_WLC_302_4_CHAPTER06,PBP_WLC_302_4_CHAPTER07,PBP_WLC_302_4_CHAPTER08,PBP_WLC_302_4_CHAPTER09,PBP_WLC_302_4_CHAPTER10
2015_10_27,0,0,0,0,0,0,0,0,0,0,0
2015_10_28,0,0,0,0,0,0,0,0,0,0,0
2015_10_29,0,0,0,0,0,0,0,0,0,0,0
2015_10_30,0,0,0,0,0,0,0,0,0,0,0
2015_10_31,0,0,0,0,0,0,0,0,0,0,0
2015_11_1,0,0,0,0,0,0,0,0,0,0,0
2015_11_2,0,0,0,0,0,0,0,0,0,0,0
2015_11_3,0,0,0,0,0,0,0,0,0,0,0
2015_11_4,0,0,0,0,0,0,0,0,0,0,0
2015_11_5,1,1,1,1,1,1,1,0,0,0,0
2015_11_6,0,0,0,0,0,0,0,0,0,0,0
2015_11_7,0,0,0,0,0,0,0,0,0,0,0
2015_11_8,0,0,0,0,0,0,0,0,0,0,0
2015_11_9,0,0,0,0,0,0,0,0,0,0,0
2015_11_10,0,0,0,0,0,0,0,0,0,0,0
2015_11_11,0,0,0,0,0,0,0,0,0,0,0
2015_11_12,0,0,0,0,0,0,0,0,0,0,0
2015_11_13,0,0,0,0,0,0,0,0,0,0,0
2015_11_14,0,0,0,0,0,0,0,0,0,0,0
2015_11_16,0,0,0,0,0,0,0,0,0,0,0
2015_11_18,0,0,0,0,0,0,0,0,0,0,0
2015_11_19,0,0,0,0,0,0,0,0,0,0,0
2015_11_20,0,0,0,0,0,0,0,0,0,0,0
2015_11_23,0,0,0,0,0,0,0,0,0,0,0
2015_11_24,0,0,0,0,0,0,0,0,0,0,0
2015_11_25,0,0,0,0,0,0,0,0,0,0,0
2015_11_30,0,0,0,0,0,0,0,0,0,0,0
2015_12_1,0,0,0,0,0,0,0,0,0,0,0
2015_12_3,0,0,0,0,0,0,0,0,0,0,0
2015_12_4,0,0,0,0,0,0,0,0,0,0,0
2015_12_15,0,0,0,0,0,0,0,0,0,0,0
2015_12_16,0,0,0,0,0,0,0,0,0,0,0
2015_12_28,0,0,0,0,0,0,0,0,0,0,0
2016_1_7,0,0,0,0,0,0,0,0,0,0,0
2016_1_8,0,0,0,0,0,0,0,0,0,0,0
2016_1_11,0,0,0,0,0,0,0,0,0,0,0
  
user,7089086d-3d6d-4e03-bac4-b19fe9a69c0c,first_name,last_name,cannot find
dates/chapters,PBP_WLC_302_4_CHAPTER00,PBP_WLC_302_4_CHAPTER01,PBP_WLC_302_4_CHAPTER02,PBP_WLC_302_4_CHAPTER03,PBP_WLC_302_4_CHAPTER04,PBP_WLC_302_4_CHAPTER05,PBP_WLC_302_4_CHAPTER06,PBP_WLC_302_4_CHAPTER07,PBP_WLC_302_4_CHAPTER08,PBP_WLC_302_4_CHAPTER09,PBP_WLC_302_4_CHAPTER10
2015_10_27,0,0,0,0,0,0,0,0,0,0,0
2015_10_28,1,0,0,0,0,0,0,0,0,0,0
2015_10_29,0,0,0,0,0,0,0,0,0,0,0
2015_10_30,0,0,0,0,0,0,0,0,0,0,0
2015_10_31,0,0,0,0,0,0,0,0,0,0,0
2015_11_1,0,0,0,0,0,0,0,0,0,0,0
2015_11_2,0,1,1,1,1,1,1,1,1,1,1
2015_11_3,0,0,0,0,0,0,0,0,0,0,0
2015_11_4,0,0,0,0,0,0,0,0,0,0,0
2015_11_5,0,0,0,0,0,0,2,0,2,1,1
2015_11_6,0,0,0,0,0,0,0,0,1,0,0
2015_11_7,0,0,0,0,0,0,0,0,0,0,0
2015_11_8,0,0,0,0,0,0,0,0,0,0,0
2015_11_9,0,0,0,0,0,0,0,0,0,0,0
2015_11_10,0,0,0,0,0,0,0,0,0,0,0
2015_11_11,0,0,0,0,0,0,0,0,0,0,0
2015_11_12,0,0,0,0,0,0,0,0,0,0,0
2015_11_13,0,0,0,0,0,0,0,0,0,0,0
2015_11_14,0,0,0,0,0,0,0,0,0,0,0
2015_11_16,0,0,0,0,0,0,0,0,0,0,0
2015_11_18,0,0,0,0,0,0,0,0,0,0,0
2015_11_19,0,0,0,0,0,0,0,0,0,0,0
2015_11_20,0,0,0,0,0,0,0,0,0,0,0
2015_11_23,0,0,0,0,0,0,0,0,0,0,0
2015_11_24,0,0,0,0,0,0,0,0,0,0,0
2015_11_25,0,0,0,0,0,0,0,0,0,0,0
2015_11_30,0,0,0,0,0,0,0,0,0,0,0
2015_12_1,0,0,0,0,0,0,0,0,0,0,0
2015_12_3,0,0,0,0,0,0,0,0,0,0,0
2015_12_4,0,0,0,0,0,0,0,0,0,0,0
2015_12_15,0,0,0,0,0,0,0,0,0,0,0
2015_12_16,0,0,0,0,0,0,0,0,0,0,0
2015_12_28,0,0,0,0,0,0,0,0,0,0,0
2016_1_7,0,0,0,0,0,0,0,0,0,0,0
2016_1_8,0,0,0,0,0,0,0,0,0,0,0
2016_1_11,0,0,0,0,0,0,0,0,0,0,0
  
user,714cb2cf-825c-43ac-93ea-61e892d06520,Lori,Burch,lburch@urbanleague-stl.org
dates/chapters,PBP_WLC_302_4_CHAPTER00,PBP_WLC_302_4_CHAPTER01,PBP_WLC_302_4_CHAPTER02,PBP_WLC_302_4_CHAPTER03,PBP_WLC_302_4_CHAPTER04,PBP_WLC_302_4_CHAPTER05,PBP_WLC_302_4_CHAPTER06,PBP_WLC_302_4_CHAPTER07,PBP_WLC_302_4_CHAPTER08,PBP_WLC_302_4_CHAPTER09,PBP_WLC_302_4_CHAPTER10
2015_10_27,0,0,0,0,0,0,0,0,0,0,0
2015_10_28,0,0,0,0,0,0,0,0,0,0,0
2015_10_29,0,0,0,0,0,0,0,0,0,0,0
2015_10_30,0,0,0,0,0,0,0,0,0,0,0
2015_10_31,0,0,0,0,0,0,0,0,0,0,0
2015_11_1,0,0,0,0,0,0,0,0,0,0,0
2015_11_2,0,0,0,0,0,0,0,0,0,0,0
2015_11_3,0,0,0,0,0,0,0,0,0,0,0
2015_11_4,0,0,0,0,0,0,0,0,0,0,0
2015_11_5,0,0,0,0,0,0,0,0,0,0,0
2015_11_6,0,0,0,0,0,0,0,0,0,0,0
2015_11_7,0,0,0,0,0,0,0,0,0,0,0
2015_11_8,0,0,0,0,0,0,0,0,0,0,0
2015_11_9,0,0,0,0,0,0,0,0,0,0,0
2015_11_10,0,0,0,0,0,0,0,0,0,0,0
2015_11_11,0,0,0,0,0,0,0,0,0,0,0
2015_11_12,0,0,0,0,0,0,0,0,0,0,0
2015_11_13,0,0,0,0,0,0,0,0,0,0,0
2015_11_14,0,0,0,0,0,0,0,0,0,0,0
2015_11_16,0,0,0,0,0,0,0,0,0,0,0
2015_11_18,0,0,0,0,0,0,0,0,0,0,0
2015_11_19,0,0,0,0,0,0,0,0,0,0,0
2015_11_20,0,0,0,0,0,0,0,0,0,0,0
2015_11_23,2,0,0,0,0,0,0,0,0,0,0
2015_11_24,0,0,0,0,0,0,0,0,0,0,0
2015_11_25,0,0,0,0,0,0,0,0,0,0,0
2015_11_30,0,0,0,0,0,0,0,0,0,0,0
2015_12_1,0,0,0,0,0,0,0,0,0,0,0
2015_12_3,0,0,0,0,0,0,0,0,0,0,0
2015_12_4,0,0,0,0,0,0,0,0,0,0,0
2015_12_15,0,0,0,0,0,0,0,0,0,0,0
2015_12_16,0,0,0,0,0,0,0,0,0,0,0
2015_12_28,0,0,0,0,0,0,0,0,0,0,0
2016_1_7,0,0,0,0,0,0,0,0,0,0,0
2016_1_8,0,0,0,0,0,0,0,0,0,0,0
2016_1_11,0,0,0,0,0,0,0,0,0,0,0
  
user,79002ce3-99c3-4062-9379-c2b11c509948,Krisha,Zito,krisha.zito@haemonetics.com
dates/chapters,PBP_WLC_302_4_CHAPTER00,PBP_WLC_302_4_CHAPTER01,PBP_WLC_302_4_CHAPTER02,PBP_WLC_302_4_CHAPTER03,PBP_WLC_302_4_CHAPTER04,PBP_WLC_302_4_CHAPTER05,PBP_WLC_302_4_CHAPTER06,PBP_WLC_302_4_CHAPTER07,PBP_WLC_302_4_CHAPTER08,PBP_WLC_302_4_CHAPTER09,PBP_WLC_302_4_CHAPTER10
2015_10_27,0,0,0,0,0,0,0,0,0,0,0
2015_10_28,0,0,0,0,0,0,0,0,0,0,0
2015_10_29,0,0,0,0,0,0,0,0,0,0,0
2015_10_30,0,0,0,0,0,0,0,0,0,0,0
2015_10_31,0,0,0,0,0,0,0,0,0,0,0
2015_11_1,0,0,0,0,0,0,0,0,0,0,0
2015_11_2,1,1,1,1,0,0,0,0,0,0,0
2015_11_3,0,0,0,0,0,0,0,0,0,0,0
2015_11_4,0,0,0,1,1,1,1,2,1,0,0
2015_11_5,0,0,0,0,0,0,0,0,0,0,0
2015_11_6,0,0,0,0,0,0,0,0,0,0,0
2015_11_7,0,0,0,0,0,0,0,0,0,0,0
2015_11_8,0,0,0,0,0,0,0,0,0,0,0
2015_11_9,0,0,0,0,0,0,1,0,1,1,0
2015_11_10,0,0,0,0,0,0,0,0,0,0,0
2015_11_11,0,0,0,0,0,0,1,0,0,1,1
2015_11_12,0,0,0,0,0,0,0,0,0,1,0
2015_11_13,0,0,0,0,0,0,0,0,0,0,0
2015_11_14,0,0,0,0,0,0,0,0,0,0,0
2015_11_16,0,0,0,0,0,0,0,0,0,0,0
2015_11_18,0,0,0,0,0,0,0,0,0,0,0
2015_11_19,0,0,0,0,0,0,0,0,0,0,0
2015_11_20,0,0,0,0,0,0,0,0,0,0,0
2015_11_23,0,0,0,0,0,0,0,0,0,0,0
2015_11_24,0,0,0,0,0,0,0,0,0,0,0
2015_11_25,0,0,0,0,0,0,0,0,0,0,0
2015_11_30,0,0,0,0,0,0,0,0,0,0,0
2015_12_1,0,0,0,0,0,0,0,0,0,0,0
2015_12_3,0,0,0,0,0,0,0,0,0,0,0
2015_12_4,0,0,0,0,0,0,0,0,0,0,0
2015_12_15,0,0,0,0,0,0,0,0,0,0,0
2015_12_16,0,0,0,0,0,0,0,0,0,0,0
2015_12_28,0,0,0,0,0,0,0,0,0,0,0
2016_1_7,0,0,0,0,0,0,0,0,0,0,0
2016_1_8,0,0,0,0,0,0,0,0,0,0,0
2016_1_11,0,0,0,0,0,0,0,0,0,0,0
  
user,9188f88c-1304-4a68-99dc-2268e3506b89,Brenda,Gray,bgray@mhacy.org
dates/chapters,PBP_WLC_302_4_CHAPTER00,PBP_WLC_302_4_CHAPTER01,PBP_WLC_302_4_CHAPTER02,PBP_WLC_302_4_CHAPTER03,PBP_WLC_302_4_CHAPTER04,PBP_WLC_302_4_CHAPTER05,PBP_WLC_302_4_CHAPTER06,PBP_WLC_302_4_CHAPTER07,PBP_WLC_302_4_CHAPTER08,PBP_WLC_302_4_CHAPTER09,PBP_WLC_302_4_CHAPTER10
2015_10_27,0,0,0,0,0,0,0,0,0,0,0
2015_10_28,0,0,0,0,0,0,0,0,0,0,0
2015_10_29,1,1,1,0,0,0,0,0,0,0,0
2015_10_30,0,0,0,0,0,0,0,0,0,0,0
2015_10_31,0,0,0,0,0,0,0,0,0,0,0
2015_11_1,0,0,0,0,0,0,0,0,0,0,0
2015_11_2,0,0,0,0,0,0,0,0,0,0,0
2015_11_3,0,0,0,0,0,0,0,0,0,0,0
2015_11_4,0,0,0,0,0,0,0,0,0,0,0
2015_11_5,0,0,0,0,0,0,0,0,0,0,0
2015_11_6,1,1,4,3,2,1,1,1,1,1,1
2015_11_7,0,0,0,0,0,0,0,0,0,0,0
2015_11_8,0,0,0,0,0,0,0,0,0,0,0
2015_11_9,0,0,0,0,0,0,0,0,0,0,0
2015_11_10,0,0,0,0,0,0,0,0,0,0,0
2015_11_11,0,0,0,0,0,0,0,0,0,0,0
2015_11_12,0,0,0,0,0,0,0,0,0,0,0
2015_11_13,0,0,0,0,0,0,0,0,0,0,0
2015_11_14,0,0,0,0,0,0,0,0,0,0,0
2015_11_16,0,0,0,0,0,0,0,0,0,0,0
2015_11_18,0,0,0,0,0,0,0,0,0,0,0
2015_11_19,0,0,0,0,0,0,0,0,0,0,0
2015_11_20,0,0,0,0,0,0,0,0,0,0,0
2015_11_23,0,0,0,0,0,0,0,0,0,0,0
2015_11_24,0,0,0,0,0,0,0,0,0,0,0
2015_11_25,0,0,0,0,0,0,0,0,0,0,0
2015_11_30,0,0,0,0,0,0,0,0,0,0,0
2015_12_1,0,0,0,0,0,0,0,0,0,0,0
2015_12_3,0,0,0,0,0,0,0,0,0,0,0
2015_12_4,0,0,0,0,0,0,0,0,0,0,0
2015_12_15,0,0,0,0,0,0,0,0,0,0,0
2015_12_16,0,0,0,0,0,0,0,0,0,0,0
2015_12_28,0,0,0,0,0,0,0,0,0,0,0
2016_1_7,0,0,0,0,0,0,0,0,0,0,0
2016_1_8,0,0,0,0,0,0,0,0,0,0,0
2016_1_11,0,0,0,0,0,0,0,0,0,0,0
  
user,9265cce7-ee25-4164-990a-2bc5a35c16d0,first_name,last_name,cannot find
dates/chapters,PBP_WLC_302_4_CHAPTER00,PBP_WLC_302_4_CHAPTER01,PBP_WLC_302_4_CHAPTER02,PBP_WLC_302_4_CHAPTER03,PBP_WLC_302_4_CHAPTER04,PBP_WLC_302_4_CHAPTER05,PBP_WLC_302_4_CHAPTER06,PBP_WLC_302_4_CHAPTER07,PBP_WLC_302_4_CHAPTER08,PBP_WLC_302_4_CHAPTER09,PBP_WLC_302_4_CHAPTER10
2015_10_27,0,0,0,0,0,0,0,0,0,0,0
2015_10_28,0,0,0,0,0,0,0,0,0,0,0
2015_10_29,0,0,0,0,0,0,0,0,0,0,0
2015_10_30,1,1,1,1,1,1,1,1,1,1,0
2015_10_31,0,0,0,0,0,0,0,0,0,0,0
2015_11_1,0,0,0,0,0,0,0,0,0,0,0
2015_11_2,0,0,0,0,0,0,0,0,0,0,0
2015_11_3,0,0,0,0,0,0,0,0,0,0,0
2015_11_4,0,0,0,0,0,0,0,0,0,0,0
2015_11_5,0,0,0,0,0,0,0,0,0,0,0
2015_11_6,0,0,0,0,0,0,0,0,0,0,0
2015_11_7,0,0,0,0,0,0,0,0,0,0,0
2015_11_8,0,0,0,0,0,0,0,0,0,0,0
2015_11_9,0,0,0,0,0,0,0,0,0,0,0
2015_11_10,0,0,0,0,0,0,0,0,0,0,0
2015_11_11,0,0,0,0,0,0,0,0,0,0,0
2015_11_12,0,0,0,0,0,0,0,0,0,0,0
2015_11_13,0,0,0,0,0,0,0,0,0,0,0
2015_11_14,0,0,0,0,0,0,0,0,0,0,0
2015_11_16,0,0,0,0,0,0,0,0,0,0,0
2015_11_18,0,0,0,0,0,0,0,0,0,0,0
2015_11_19,0,0,0,0,0,0,0,0,0,0,0
2015_11_20,0,0,0,0,0,0,0,0,0,0,0
2015_11_23,0,0,0,0,0,0,0,0,0,0,0
2015_11_24,0,0,0,0,0,0,0,0,0,0,0
2015_11_25,0,0,0,0,0,0,0,0,0,0,0
2015_11_30,0,0,0,0,0,0,0,0,0,0,0
2015_12_1,0,0,0,0,0,0,0,0,0,0,0
2015_12_3,0,0,0,0,0,0,0,0,0,0,0
2015_12_4,0,0,0,0,0,0,0,0,0,0,0
2015_12_15,0,0,0,0,0,0,0,0,0,0,0
2015_12_16,0,0,0,0,0,0,0,0,0,0,0
2015_12_28,0,0,0,0,0,0,0,0,0,0,0
2016_1_7,0,0,0,0,0,0,0,0,0,0,0
2016_1_8,0,0,0,0,0,0,0,0,0,0,0
2016_1_11,0,0,0,0,0,0,0,0,0,0,0
  
user,9fe2ca82-02ae-43bc-840b-9700b482f350,Therass,Brooks,therass.brooks38@t-mobile.com
dates/chapters,PBP_WLC_302_4_CHAPTER00,PBP_WLC_302_4_CHAPTER01,PBP_WLC_302_4_CHAPTER02,PBP_WLC_302_4_CHAPTER03,PBP_WLC_302_4_CHAPTER04,PBP_WLC_302_4_CHAPTER05,PBP_WLC_302_4_CHAPTER06,PBP_WLC_302_4_CHAPTER07,PBP_WLC_302_4_CHAPTER08,PBP_WLC_302_4_CHAPTER09,PBP_WLC_302_4_CHAPTER10
2015_10_27,0,0,0,0,0,0,0,0,0,0,0
2015_10_28,0,0,0,0,0,0,0,0,0,0,0
2015_10_29,1,1,1,0,0,0,0,0,0,0,0
2015_10_30,0,0,0,0,0,0,0,0,0,0,0
2015_10_31,0,0,0,0,0,0,0,0,0,0,0
2015_11_1,0,0,0,0,0,0,0,0,0,0,0
2015_11_2,0,0,0,0,0,0,0,0,0,0,0
2015_11_3,0,0,0,0,0,0,0,0,0,0,0
2015_11_4,0,0,0,0,0,0,0,0,0,0,0
2015_11_5,0,0,0,0,0,0,0,0,0,0,0
2015_11_6,0,0,0,0,0,0,0,0,0,0,0
2015_11_7,0,1,1,1,1,1,1,1,1,2,1
2015_11_8,0,0,0,0,0,0,0,0,0,0,0
2015_11_9,0,0,0,0,0,0,0,0,0,0,0
2015_11_10,0,0,0,0,0,0,0,0,0,0,0
2015_11_11,0,0,0,0,0,0,0,0,0,0,0
2015_11_12,0,0,0,0,0,0,0,0,0,0,0
2015_11_13,0,0,0,0,0,0,0,0,0,0,0
2015_11_14,0,0,0,0,0,0,0,0,0,0,0
2015_11_16,0,0,0,0,0,0,0,0,0,0,0
2015_11_18,0,0,0,0,0,0,0,0,0,0,0
2015_11_19,0,0,0,0,0,0,0,0,0,0,0
2015_11_20,0,0,0,0,0,0,0,0,0,0,0
2015_11_23,0,0,0,0,0,0,0,0,0,0,0
2015_11_24,0,0,0,0,0,0,0,0,0,0,0
2015_11_25,0,0,0,0,0,0,0,0,0,0,0
2015_11_30,0,0,0,0,0,0,0,0,0,0,0
2015_12_1,0,0,0,0,0,0,0,0,0,0,0
2015_12_3,0,0,0,0,0,0,0,0,0,0,0
2015_12_4,0,0,0,0,0,0,0,0,0,0,0
2015_12_15,0,0,0,0,0,0,0,0,0,0,0
2015_12_16,0,0,0,0,0,0,0,0,0,0,0
2015_12_28,0,0,0,0,0,0,0,0,0,0,0
2016_1_7,0,0,0,0,0,0,0,0,0,0,0
2016_1_8,0,0,0,0,0,0,0,0,0,0,0
2016_1_11,0,0,0,0,0,0,0,0,0,0,0
  
user,a5e96cd5-6bee-4cd9-9db0-72d878fdb52c,Kaitlin,Ropar,kaitlin.ropar@roche.com
dates/chapters,PBP_WLC_302_4_CHAPTER00,PBP_WLC_302_4_CHAPTER01,PBP_WLC_302_4_CHAPTER02,PBP_WLC_302_4_CHAPTER03,PBP_WLC_302_4_CHAPTER04,PBP_WLC_302_4_CHAPTER05,PBP_WLC_302_4_CHAPTER06,PBP_WLC_302_4_CHAPTER07,PBP_WLC_302_4_CHAPTER08,PBP_WLC_302_4_CHAPTER09,PBP_WLC_302_4_CHAPTER10
2015_10_27,0,0,0,0,0,0,0,0,0,0,0
2015_10_28,0,0,0,0,0,0,0,0,0,0,0
2015_10_29,0,0,0,0,0,0,0,0,0,0,0
2015_10_30,0,0,0,0,0,0,0,0,0,0,0
2015_10_31,0,0,0,0,0,0,0,0,0,0,0
2015_11_1,0,0,0,0,0,0,0,0,0,0,0
2015_11_2,1,5,4,2,2,2,2,0,0,0,0
2015_11_3,0,0,0,0,0,0,0,0,0,0,0
2015_11_4,0,0,0,0,0,0,0,0,0,0,0
2015_11_5,0,0,0,0,0,0,0,0,0,0,0
2015_11_6,0,1,2,2,2,2,0,2,0,0,0
2015_11_7,0,0,0,0,0,0,0,0,0,0,0
2015_11_8,0,0,0,0,0,0,0,0,0,0,0
2015_11_9,0,0,0,0,0,0,0,0,0,0,0
2015_11_10,0,0,0,0,0,0,0,0,0,0,0
2015_11_11,0,0,0,0,0,0,0,0,0,0,0
2015_11_12,0,0,0,0,0,0,0,0,0,0,0
2015_11_13,0,0,0,0,0,0,0,0,0,0,0
2015_11_14,0,0,0,0,0,0,0,0,0,0,0
2015_11_16,0,0,1,0,0,0,0,0,0,0,0
2015_11_18,0,0,0,0,0,0,0,0,0,0,0
2015_11_19,0,0,0,0,0,0,0,0,0,0,0
2015_11_20,0,0,0,0,0,0,0,0,0,0,0
2015_11_23,0,0,0,0,0,0,0,0,0,0,0
2015_11_24,0,0,0,0,0,0,0,0,0,0,0
2015_11_25,0,0,0,0,0,0,0,0,0,0,0
2015_11_30,0,0,0,0,0,0,0,0,0,0,0
2015_12_1,0,0,0,0,0,0,0,0,0,0,0
2015_12_3,0,0,0,0,0,0,0,0,0,0,0
2015_12_4,0,0,0,0,0,0,0,0,0,0,0
2015_12_15,0,0,0,0,0,0,0,0,0,0,0
2015_12_16,0,0,0,0,0,0,0,0,0,0,0
2015_12_28,0,0,0,0,0,0,0,0,0,0,0
2016_1_7,0,0,0,0,0,0,0,0,0,0,0
2016_1_8,0,0,0,0,0,0,0,0,0,0,0
2016_1_11,0,0,1,1,2,2,1,0,2,0,0
  
user,a683b235-dac2-417f-bc32-55ccc1c6c916,first_name,last_name,cannot find
dates/chapters,PBP_WLC_302_4_CHAPTER00,PBP_WLC_302_4_CHAPTER01,PBP_WLC_302_4_CHAPTER02,PBP_WLC_302_4_CHAPTER03,PBP_WLC_302_4_CHAPTER04,PBP_WLC_302_4_CHAPTER05,PBP_WLC_302_4_CHAPTER06,PBP_WLC_302_4_CHAPTER07,PBP_WLC_302_4_CHAPTER08,PBP_WLC_302_4_CHAPTER09,PBP_WLC_302_4_CHAPTER10
2015_10_27,0,0,0,0,0,0,0,0,0,0,0
2015_10_28,0,0,0,0,0,0,0,0,0,0,0
2015_10_29,0,0,0,0,0,0,0,0,0,0,0
2015_10_30,0,0,0,0,0,0,0,0,0,0,0
2015_10_31,0,0,0,0,0,0,0,0,0,0,0
2015_11_1,0,0,0,0,0,0,0,0,0,0,0
2015_11_2,0,0,0,0,0,0,0,0,0,0,0
2015_11_3,0,0,0,0,0,0,0,0,0,0,0
2015_11_4,0,0,0,0,0,0,0,0,0,0,0
2015_11_5,0,0,0,0,0,0,0,0,0,0,0
2015_11_6,0,0,0,0,0,0,0,0,0,0,0
2015_11_7,0,0,0,0,0,0,0,0,0,0,0
2015_11_8,0,0,0,0,0,0,0,0,0,0,0
2015_11_9,0,0,0,0,0,0,0,0,0,0,0
2015_11_10,0,0,0,0,0,0,0,0,0,0,0
2015_11_11,0,0,0,0,0,0,0,0,0,0,0
2015_11_12,0,0,0,0,0,0,0,0,0,0,0
2015_11_13,0,0,0,0,0,0,0,0,0,0,0
2015_11_14,0,0,0,0,0,0,0,0,0,0,0
2015_11_16,0,0,0,0,0,0,0,0,0,0,0
2015_11_18,0,0,0,0,0,0,0,0,0,0,0
2015_11_19,0,0,0,0,0,0,0,0,0,0,0
2015_11_20,0,0,0,0,0,0,0,0,0,0,0
2015_11_23,0,0,0,0,0,0,0,0,0,0,0
2015_11_24,0,0,0,0,0,0,0,0,0,0,0
2015_11_25,0,0,0,0,0,0,0,0,0,0,0
2015_11_30,0,0,0,0,0,0,0,0,0,0,0
2015_12_1,0,0,0,0,0,0,0,0,0,0,0
2015_12_3,0,0,0,0,0,0,0,0,0,0,0
2015_12_4,0,0,0,0,0,0,0,0,0,0,0
2015_12_15,0,0,0,0,0,0,0,0,0,0,0
2015_12_16,0,0,0,0,0,0,0,0,0,0,0
2015_12_28,0,0,0,0,0,0,0,0,0,0,0
2016_1_7,0,0,0,0,0,0,0,0,0,0,0
2016_1_8,0,0,0,0,0,0,0,0,0,0,0
2016_1_11,0,0,0,0,0,0,0,0,0,0,0
  
user,aa01472b-be23-4fd3-a4c5-4475b9611f9b,first_name,last_name,cannot find
dates/chapters,PBP_WLC_302_4_CHAPTER00,PBP_WLC_302_4_CHAPTER01,PBP_WLC_302_4_CHAPTER02,PBP_WLC_302_4_CHAPTER03,PBP_WLC_302_4_CHAPTER04,PBP_WLC_302_4_CHAPTER05,PBP_WLC_302_4_CHAPTER06,PBP_WLC_302_4_CHAPTER07,PBP_WLC_302_4_CHAPTER08,PBP_WLC_302_4_CHAPTER09,PBP_WLC_302_4_CHAPTER10
2015_10_27,0,0,0,0,0,0,0,0,0,0,0
2015_10_28,0,0,0,0,0,0,0,0,0,0,0
2015_10_29,0,0,0,0,0,0,0,0,0,0,0
2015_10_30,0,0,0,0,0,0,0,0,0,0,0
2015_10_31,0,0,0,0,0,0,0,0,0,0,0
2015_11_1,0,0,0,0,0,0,0,0,0,0,0
2015_11_2,0,0,0,0,0,0,0,0,0,0,0
2015_11_3,0,0,0,0,0,0,0,0,0,0,0
2015_11_4,0,0,0,0,0,0,0,0,0,0,0
2015_11_5,0,0,0,0,0,0,0,0,0,0,0
2015_11_6,0,0,0,0,0,0,0,0,0,0,0
2015_11_7,0,0,0,0,0,0,0,0,0,0,0
2015_11_8,0,0,0,0,0,0,0,0,0,0,0
2015_11_9,0,0,0,0,0,0,0,0,0,0,0
2015_11_10,0,0,0,0,0,0,0,0,0,0,0
2015_11_11,0,0,0,0,0,0,0,0,0,0,0
2015_11_12,0,0,0,0,0,0,0,0,0,0,0
2015_11_13,0,0,0,0,0,0,0,0,0,0,0
2015_11_14,0,0,0,0,0,0,0,0,0,0,0
2015_11_16,0,0,0,0,0,0,0,0,0,0,0
2015_11_18,0,0,0,0,0,0,0,0,0,0,0
2015_11_19,0,0,0,0,0,0,0,0,0,0,0
2015_11_20,0,0,0,0,0,0,0,0,0,0,0
2015_11_23,0,0,0,0,0,0,0,0,0,0,0
2015_11_24,0,0,0,0,0,0,0,0,0,0,0
2015_11_25,0,0,0,0,0,0,0,0,0,0,0
2015_11_30,0,0,0,0,0,0,0,0,0,0,0
2015_12_1,0,0,0,0,0,0,0,0,0,0,0
2015_12_3,0,0,0,0,0,0,0,0,0,0,0
2015_12_4,0,0,0,0,0,0,0,0,0,0,0
2015_12_15,0,0,0,0,0,0,0,0,0,0,0
2015_12_16,0,0,0,0,0,0,0,0,0,0,0
2015_12_28,0,0,0,0,0,0,0,0,0,0,0
2016_1_7,0,0,0,0,0,0,0,0,0,0,0
2016_1_8,0,0,0,0,0,0,0,0,0,0,0
2016_1_11,0,0,0,0,0,0,0,0,0,0,0
  
user,aadcc507-4825-467c-ac48-82cceaf9dc32,Susan,Bright,brights@fsdb.k12.fl.us
dates/chapters,PBP_WLC_302_4_CHAPTER00,PBP_WLC_302_4_CHAPTER01,PBP_WLC_302_4_CHAPTER02,PBP_WLC_302_4_CHAPTER03,PBP_WLC_302_4_CHAPTER04,PBP_WLC_302_4_CHAPTER05,PBP_WLC_302_4_CHAPTER06,PBP_WLC_302_4_CHAPTER07,PBP_WLC_302_4_CHAPTER08,PBP_WLC_302_4_CHAPTER09,PBP_WLC_302_4_CHAPTER10
2015_10_27,0,0,0,0,0,0,0,0,0,0,0
2015_10_28,0,0,0,0,0,0,0,0,0,0,0
2015_10_29,0,0,0,0,0,0,0,0,0,0,0
2015_10_30,0,0,0,0,0,0,0,0,0,0,0
2015_10_31,0,0,0,0,0,0,0,0,0,0,0
2015_11_1,0,0,0,0,0,0,0,0,0,0,0
2015_11_2,0,0,0,0,0,0,0,0,0,0,0
2015_11_3,0,0,0,0,0,0,0,0,0,0,0
2015_11_4,0,0,0,0,0,0,0,0,0,0,0
2015_11_5,0,0,0,0,0,0,0,0,0,0,0
2015_11_6,0,0,0,0,0,0,0,0,0,0,0
2015_11_7,0,0,0,0,0,0,0,0,0,0,0
2015_11_8,0,0,0,0,0,0,0,0,0,0,0
2015_11_9,0,0,0,0,0,0,0,0,0,0,0
2015_11_10,0,0,0,0,0,0,0,0,0,0,0
2015_11_11,0,0,0,0,0,0,0,0,0,0,0
2015_11_12,0,0,0,0,0,0,0,0,0,0,0
2015_11_13,0,0,0,0,0,0,0,0,0,0,0
2015_11_14,0,0,0,0,0,0,0,0,0,0,0
2015_11_16,0,0,0,0,0,0,0,0,0,0,0
2015_11_18,0,0,0,0,0,0,0,0,0,0,0
2015_11_19,0,0,0,0,0,0,0,0,0,0,0
2015_11_20,1,0,0,0,0,0,0,0,0,0,0
2015_11_23,0,0,0,0,0,0,0,0,0,0,0
2015_11_24,0,0,0,0,0,0,0,0,0,0,0
2015_11_25,0,0,0,0,0,0,0,0,0,0,0
2015_11_30,1,2,1,1,1,1,1,1,2,3,1
2015_12_1,0,0,0,0,0,0,0,0,0,0,0
2015_12_3,0,0,0,0,0,0,0,0,0,0,0
2015_12_4,0,0,0,0,0,0,0,0,0,0,0
2015_12_15,0,0,0,0,0,0,0,0,0,0,0
2015_12_16,0,0,0,0,0,0,0,0,0,0,0
2015_12_28,0,0,0,0,0,0,0,0,0,0,0
2016_1_7,0,0,0,0,0,0,0,0,0,0,0
2016_1_8,0,0,0,0,0,0,0,0,0,0,0
2016_1_11,0,0,0,0,0,0,0,0,0,0,0
  
user,abcfa218-986f-44e8-8ee9-2fa08ee46644,first_name,last_name,cannot find
dates/chapters,PBP_WLC_302_4_CHAPTER00,PBP_WLC_302_4_CHAPTER01,PBP_WLC_302_4_CHAPTER02,PBP_WLC_302_4_CHAPTER03,PBP_WLC_302_4_CHAPTER04,PBP_WLC_302_4_CHAPTER05,PBP_WLC_302_4_CHAPTER06,PBP_WLC_302_4_CHAPTER07,PBP_WLC_302_4_CHAPTER08,PBP_WLC_302_4_CHAPTER09,PBP_WLC_302_4_CHAPTER10
2015_10_27,0,0,0,0,0,0,0,0,0,0,0
2015_10_28,0,0,0,0,0,0,0,0,0,0,0
2015_10_29,1,1,2,3,3,1,1,0,0,0,0
2015_10_30,0,0,0,0,0,0,2,0,0,0,0
2015_10_31,0,0,0,0,0,0,0,0,0,0,0
2015_11_1,0,0,0,0,0,0,0,0,0,0,0
2015_11_2,0,0,0,0,0,0,4,1,1,1,0
2015_11_3,0,0,0,0,0,0,0,0,0,0,0
2015_11_4,0,0,0,0,0,0,2,0,2,0,0
2015_11_5,0,0,0,0,0,0,2,0,1,0,0
2015_11_6,1,0,0,0,0,0,1,1,5,0,0
2015_11_7,0,0,0,0,0,0,0,0,0,0,0
2015_11_8,0,0,0,0,0,0,0,0,0,0,0
2015_11_9,0,1,0,0,1,0,3,0,0,0,0
2015_11_10,0,0,0,0,0,0,2,0,0,0,0
2015_11_11,0,0,0,0,0,0,1,0,0,0,0
2015_11_12,0,0,0,0,0,0,2,0,0,0,0
2015_11_13,0,0,0,0,0,0,0,0,0,0,0
2015_11_14,0,0,0,0,0,0,0,0,0,0,0
2015_11_16,0,0,0,0,0,0,0,0,0,0,0
2015_11_18,0,0,0,0,0,0,0,0,0,0,0
2015_11_19,0,0,0,0,0,0,0,0,0,0,0
2015_11_20,0,0,0,0,0,0,0,0,0,0,0
2015_11_23,0,0,0,0,0,0,0,0,0,0,0
2015_11_24,0,0,0,0,0,0,0,0,0,0,0
2015_11_25,0,0,0,0,0,0,0,0,0,0,0
2015_11_30,0,0,0,0,0,0,0,0,0,0,0
2015_12_1,0,0,0,0,0,0,0,0,0,0,0
2015_12_3,0,0,0,0,0,0,3,0,0,0,0
2015_12_4,0,0,0,0,0,0,0,0,0,0,0
2015_12_15,0,0,0,0,0,0,0,0,1,0,0
2015_12_16,0,0,0,0,0,0,0,0,0,0,0
2015_12_28,0,0,0,0,0,0,0,0,0,0,0
2016_1_7,0,0,0,0,0,0,0,0,0,0,0
2016_1_8,0,0,0,0,0,0,0,0,0,0,0
2016_1_11,0,0,0,0,0,0,0,0,0,0,0
  
user,ad5d3722-95df-4a30-9f6f-98e393fdb4c4,Mandie,Schall,mandieschall@fedex.com
dates/chapters,PBP_WLC_302_4_CHAPTER00,PBP_WLC_302_4_CHAPTER01,PBP_WLC_302_4_CHAPTER02,PBP_WLC_302_4_CHAPTER03,PBP_WLC_302_4_CHAPTER04,PBP_WLC_302_4_CHAPTER05,PBP_WLC_302_4_CHAPTER06,PBP_WLC_302_4_CHAPTER07,PBP_WLC_302_4_CHAPTER08,PBP_WLC_302_4_CHAPTER09,PBP_WLC_302_4_CHAPTER10
2015_10_27,0,0,0,0,0,0,0,0,0,0,0
2015_10_28,0,0,0,0,0,0,0,0,0,0,0
2015_10_29,0,0,0,0,0,0,0,0,0,0,0
2015_10_30,0,0,0,0,0,0,0,0,0,0,0
2015_10_31,0,0,0,0,0,0,0,0,0,0,0
2015_11_1,0,0,0,0,0,0,0,0,0,0,0
2015_11_2,0,0,0,0,0,0,0,0,0,0,0
2015_11_3,0,0,0,0,0,0,0,0,0,0,0
2015_11_4,1,1,1,2,1,2,2,1,2,2,1
2015_11_5,0,0,0,0,0,0,0,0,0,0,0
2015_11_6,0,0,0,0,0,0,0,0,0,0,0
2015_11_7,0,0,0,0,0,0,0,0,0,0,0
2015_11_8,0,0,0,0,0,0,0,0,0,0,0
2015_11_9,0,0,0,0,0,2,2,3,2,2,2
2015_11_10,0,0,0,0,0,0,0,0,0,0,0
2015_11_11,0,0,0,0,0,0,0,0,0,0,0
2015_11_12,0,0,0,0,0,0,0,0,0,0,0
2015_11_13,0,1,1,0,0,0,0,1,0,0,0
2015_11_14,0,0,0,0,0,0,0,0,0,0,0
2015_11_16,0,0,0,0,0,0,0,0,0,0,0
2015_11_18,0,0,0,0,0,0,0,0,0,0,0
2015_11_19,0,0,0,0,0,0,0,0,0,0,0
2015_11_20,0,0,0,0,0,0,0,0,0,0,0
2015_11_23,0,0,0,0,0,0,0,0,0,0,0
2015_11_24,0,0,0,0,0,0,0,0,0,0,0
2015_11_25,0,0,0,0,0,0,0,0,0,0,0
2015_11_30,0,0,0,0,0,0,0,0,0,0,0
2015_12_1,0,0,0,0,0,0,0,0,0,0,0
2015_12_3,0,0,0,0,0,0,0,0,0,0,0
2015_12_4,0,0,0,0,0,0,0,0,0,0,0
2015_12_15,0,0,0,0,0,0,0,0,0,0,0
2015_12_16,0,0,0,0,0,0,0,0,0,0,0
2015_12_28,0,0,0,0,0,0,0,0,0,0,0
2016_1_7,0,0,0,0,0,0,0,0,0,0,0
2016_1_8,0,0,0,0,0,0,0,0,0,0,0
2016_1_11,0,0,0,0,0,0,0,0,0,0,0
  
user,cbac207e-8bee-418c-8586-d1c3a1f6ffb6,first_name,last_name,cannot find
dates/chapters,PBP_WLC_302_4_CHAPTER00,PBP_WLC_302_4_CHAPTER01,PBP_WLC_302_4_CHAPTER02,PBP_WLC_302_4_CHAPTER03,PBP_WLC_302_4_CHAPTER04,PBP_WLC_302_4_CHAPTER05,PBP_WLC_302_4_CHAPTER06,PBP_WLC_302_4_CHAPTER07,PBP_WLC_302_4_CHAPTER08,PBP_WLC_302_4_CHAPTER09,PBP_WLC_302_4_CHAPTER10
2015_10_27,0,0,0,0,0,0,0,0,0,0,0
2015_10_28,0,0,0,0,0,0,0,0,0,0,0
2015_10_29,0,0,0,0,0,0,0,0,0,0,0
2015_10_30,0,0,0,0,0,0,0,0,0,0,0
2015_10_31,0,0,0,0,0,0,0,0,0,0,0
2015_11_1,0,0,0,0,0,0,0,0,0,0,0
2015_11_2,0,0,0,0,0,0,0,0,0,0,0
2015_11_3,0,0,0,0,0,0,0,0,0,0,0
2015_11_4,0,0,0,0,0,0,0,0,0,0,0
2015_11_5,0,0,0,0,0,0,0,0,0,0,0
2015_11_6,0,0,0,0,0,0,0,0,0,0,0
2015_11_7,0,0,0,0,0,0,0,0,0,0,0
2015_11_8,0,0,0,0,0,0,0,0,0,0,0
2015_11_9,0,0,0,0,0,0,0,0,0,0,0
2015_11_10,0,0,0,0,0,0,0,0,0,0,0
2015_11_11,0,0,0,0,0,0,0,0,0,0,0
2015_11_12,0,0,0,0,0,0,0,0,0,0,0
2015_11_13,0,0,0,0,0,0,0,0,0,0,0
2015_11_14,0,0,0,0,0,0,0,0,0,0,0
2015_11_16,0,0,0,0,0,0,0,0,0,0,0
2015_11_18,0,0,0,0,0,0,0,0,0,0,0
2015_11_19,0,0,0,0,0,0,0,0,0,0,0
2015_11_20,0,0,0,0,0,0,0,0,0,0,0
2015_11_23,0,0,0,0,0,0,0,0,0,0,0
2015_11_24,0,0,0,0,0,0,0,0,0,0,0
2015_11_25,0,0,0,0,0,0,0,0,0,0,0
2015_11_30,0,0,0,0,0,0,0,0,0,0,0
2015_12_1,0,0,0,0,0,0,0,0,0,0,0
2015_12_3,0,0,0,0,0,0,0,0,0,0,0
2015_12_4,0,0,0,0,0,0,0,0,0,0,0
2015_12_15,0,0,0,0,0,0,0,0,0,0,0
2015_12_16,0,0,0,0,0,0,0,0,0,0,0
2015_12_28,0,0,0,0,0,0,0,0,0,0,0
2016_1_7,0,0,0,0,0,0,0,0,0,0,0
2016_1_8,0,0,0,0,0,0,0,0,0,0,0
2016_1_11,0,0,0,0,0,0,0,0,0,0,0
  
user,d2fde8ca-af5f-4609-a9cc-0e4164e42321,Diane,Burmeister,d.burmeister@super-tek.com
dates/chapters,PBP_WLC_302_4_CHAPTER00,PBP_WLC_302_4_CHAPTER01,PBP_WLC_302_4_CHAPTER02,PBP_WLC_302_4_CHAPTER03,PBP_WLC_302_4_CHAPTER04,PBP_WLC_302_4_CHAPTER05,PBP_WLC_302_4_CHAPTER06,PBP_WLC_302_4_CHAPTER07,PBP_WLC_302_4_CHAPTER08,PBP_WLC_302_4_CHAPTER09,PBP_WLC_302_4_CHAPTER10
2015_10_27,0,0,0,0,0,0,0,0,0,0,0
2015_10_28,1,1,0,0,0,0,0,0,0,0,0
2015_10_29,0,2,3,0,0,0,0,0,0,0,0
2015_10_30,0,0,0,0,0,0,0,0,0,0,0
2015_10_31,0,0,0,0,0,0,0,0,0,0,0
2015_11_1,0,0,0,0,0,0,0,0,0,0,0
2015_11_2,0,0,0,0,0,0,0,0,0,0,0
2015_11_3,0,0,0,0,0,0,0,0,0,0,0
2015_11_4,0,0,0,0,0,0,0,0,0,0,0
2015_11_5,0,0,0,0,0,0,0,0,0,0,0
2015_11_6,0,0,0,0,0,0,0,0,0,0,0
2015_11_7,0,0,0,0,0,0,0,0,0,0,0
2015_11_8,0,0,0,0,0,0,0,0,0,0,0
2015_11_9,0,0,0,0,0,0,0,0,0,0,0
2015_11_10,0,0,0,0,0,0,0,0,0,0,0
2015_11_11,0,0,0,0,0,0,0,0,0,0,0
2015_11_12,0,0,0,0,0,0,0,0,0,0,0
2015_11_13,0,0,0,0,0,0,0,0,0,0,0
2015_11_14,1,1,1,1,1,1,1,1,1,1,1
2015_11_16,0,0,0,0,0,0,0,0,0,0,0
2015_11_18,0,0,0,0,0,0,0,0,0,0,0
2015_11_19,0,0,0,0,0,0,0,0,0,0,0
2015_11_20,0,0,0,0,0,0,0,0,0,0,0
2015_11_23,0,0,0,0,0,0,0,0,0,0,0
2015_11_24,0,0,0,0,0,0,0,0,0,0,0
2015_11_25,0,0,0,0,0,0,0,0,0,0,0
2015_11_30,0,0,0,0,0,0,0,0,0,0,0
2015_12_1,0,0,0,0,0,0,0,0,0,0,0
2015_12_3,0,0,0,0,0,0,0,0,0,0,0
2015_12_4,0,0,0,0,0,0,0,0,0,0,0
2015_12_15,0,0,0,0,0,0,0,0,0,0,0
2015_12_16,0,0,0,0,0,0,0,0,0,0,0
2015_12_28,0,0,0,0,0,0,0,0,0,0,0
2016_1_7,0,0,0,0,0,0,0,0,0,0,0
2016_1_8,0,0,0,0,0,0,0,0,0,0,0
2016_1_11,0,0,0,0,0,0,0,0,0,0,0
  
user,d81bb4c4-e945-4f33-9c90-55772096f8cf,Lindsey,Griffin,lindsey.griffin@mallinckrodt.com
dates/chapters,PBP_WLC_302_4_CHAPTER00,PBP_WLC_302_4_CHAPTER01,PBP_WLC_302_4_CHAPTER02,PBP_WLC_302_4_CHAPTER03,PBP_WLC_302_4_CHAPTER04,PBP_WLC_302_4_CHAPTER05,PBP_WLC_302_4_CHAPTER06,PBP_WLC_302_4_CHAPTER07,PBP_WLC_302_4_CHAPTER08,PBP_WLC_302_4_CHAPTER09,PBP_WLC_302_4_CHAPTER10
2015_10_27,0,0,0,0,0,0,0,0,0,0,0
2015_10_28,1,1,1,1,1,1,1,1,0,0,0
2015_10_29,0,0,0,0,0,0,0,0,1,4,4
2015_10_30,0,0,0,0,0,0,0,0,0,0,0
2015_10_31,0,0,0,0,0,0,1,0,0,1,0
2015_11_1,0,0,0,0,0,0,0,0,0,0,0
2015_11_2,0,0,0,0,0,0,0,0,0,0,0
2015_11_3,0,0,0,0,0,0,0,0,0,0,0
2015_11_4,0,0,0,0,0,0,0,0,1,1,1
2015_11_5,0,0,0,0,0,0,0,0,0,0,0
2015_11_6,0,0,0,0,0,0,0,0,0,0,0
2015_11_7,0,0,0,0,0,0,0,0,0,0,0
2015_11_8,0,0,0,0,0,0,0,0,0,0,0
2015_11_9,0,0,0,0,0,0,0,0,0,0,0
2015_11_10,0,0,0,0,0,1,0,0,0,1,1
2015_11_11,0,0,0,0,0,0,0,0,0,0,0
2015_11_12,0,0,0,0,0,0,0,0,0,0,0
2015_11_13,0,0,0,0,0,0,0,0,0,0,0
2015_11_14,0,0,0,0,0,0,0,0,0,0,0
2015_11_16,0,0,0,0,0,0,0,0,0,0,0
2015_11_18,0,0,0,0,0,0,0,0,0,0,0
2015_11_19,0,0,0,0,0,0,0,0,0,0,0
2015_11_20,0,0,0,0,0,0,0,0,0,0,0
2015_11_23,0,0,0,0,0,0,0,0,0,0,0
2015_11_24,0,0,0,0,0,0,0,0,0,0,0
2015_11_25,0,0,0,0,0,0,0,0,0,0,0
2015_11_30,0,0,0,0,0,0,0,0,0,0,0
2015_12_1,0,0,0,0,0,0,0,0,0,0,0
2015_12_3,0,0,0,0,0,0,0,0,0,0,0
2015_12_4,0,0,0,0,0,0,0,0,0,0,0
2015_12_15,0,0,0,0,0,0,0,0,0,0,0
2015_12_16,0,0,0,0,0,0,0,0,0,0,0
2015_12_28,0,0,0,0,0,0,0,0,0,0,0
2016_1_7,0,0,0,0,0,0,0,0,0,0,0
2016_1_8,0,0,0,0,0,0,0,0,0,0,0
2016_1_11,0,0,0,0,0,0,0,0,0,0,0
  
user,da66178b-8012-47f1-aab0-cde73fcee233,Emily,Pasnak-Lapchick,elapchick@unicefusa.org
dates/chapters,PBP_WLC_302_4_CHAPTER00,PBP_WLC_302_4_CHAPTER01,PBP_WLC_302_4_CHAPTER02,PBP_WLC_302_4_CHAPTER03,PBP_WLC_302_4_CHAPTER04,PBP_WLC_302_4_CHAPTER05,PBP_WLC_302_4_CHAPTER06,PBP_WLC_302_4_CHAPTER07,PBP_WLC_302_4_CHAPTER08,PBP_WLC_302_4_CHAPTER09,PBP_WLC_302_4_CHAPTER10
2015_10_27,0,0,0,0,0,0,0,0,0,0,0
2015_10_28,2,1,2,2,1,1,1,2,2,0,0
2015_10_29,0,0,1,1,0,0,0,1,0,0,0
2015_10_30,0,0,0,0,0,0,0,0,0,0,0
2015_10_31,0,0,1,0,0,0,0,0,0,1,0
2015_11_1,0,0,0,0,0,0,0,0,0,0,0
2015_11_2,1,0,1,1,1,1,1,0,2,3,0
2015_11_3,3,2,10,4,0,0,0,0,0,2,2
2015_11_4,1,1,9,7,4,3,3,2,3,3,3
2015_11_5,0,0,0,0,0,0,0,0,0,0,0
2015_11_6,0,0,0,0,0,0,0,0,0,0,0
2015_11_7,0,0,0,0,0,0,0,0,0,0,0
2015_11_8,0,0,0,0,0,0,0,0,0,0,0
2015_11_9,0,0,0,0,0,0,0,0,0,0,0
2015_11_10,0,0,0,0,0,0,0,0,0,0,0
2015_11_11,0,0,0,0,0,0,0,0,0,0,0
2015_11_12,0,0,0,0,0,0,0,0,0,0,0
2015_11_13,0,0,0,0,0,0,0,0,0,0,0
2015_11_14,0,0,0,0,0,0,0,0,0,0,0
2015_11_16,0,0,0,0,0,0,0,0,0,0,0
2015_11_18,0,0,0,0,0,0,0,0,0,0,0
2015_11_19,0,0,0,0,0,0,0,0,0,0,0
2015_11_20,0,0,0,0,0,0,0,0,0,0,0
2015_11_23,0,0,0,0,0,0,0,0,0,0,0
2015_11_24,0,0,0,0,0,0,0,0,0,0,0
2015_11_25,0,0,0,0,0,0,0,0,0,0,0
2015_11_30,0,0,0,0,0,0,0,0,0,0,0
2015_12_1,0,0,0,0,0,0,0,0,0,0,0
2015_12_3,0,0,0,0,0,0,0,0,0,0,0
2015_12_4,0,0,0,0,0,0,0,0,0,0,0
2015_12_15,0,0,0,0,0,0,0,0,0,0,0
2015_12_16,0,0,0,0,0,0,0,0,0,0,0
2015_12_28,0,0,0,0,0,0,0,0,0,0,0
2016_1_7,0,0,0,0,0,0,0,0,0,0,0
2016_1_8,0,0,0,0,0,0,0,0,0,0,0
2016_1_11,0,0,0,0,0,0,0,0,0,0,0
  
user,dbc7ac14-4b55-458c-91b2-078da05aeecc,Sharon,Durbin,sharon.durbin@llgi.org
dates/chapters,PBP_WLC_302_4_CHAPTER00,PBP_WLC_302_4_CHAPTER01,PBP_WLC_302_4_CHAPTER02,PBP_WLC_302_4_CHAPTER03,PBP_WLC_302_4_CHAPTER04,PBP_WLC_302_4_CHAPTER05,PBP_WLC_302_4_CHAPTER06,PBP_WLC_302_4_CHAPTER07,PBP_WLC_302_4_CHAPTER08,PBP_WLC_302_4_CHAPTER09,PBP_WLC_302_4_CHAPTER10
2015_10_27,0,0,0,0,0,0,0,0,0,0,0
2015_10_28,0,0,0,0,0,0,0,0,0,0,0
2015_10_29,1,1,1,0,0,0,0,0,0,0,0
2015_10_30,0,0,0,0,0,0,0,0,0,0,0
2015_10_31,0,0,0,0,0,0,0,0,0,0,0
2015_11_1,0,0,0,0,0,0,0,0,0,0,0
2015_11_2,0,0,0,0,0,0,0,0,0,0,0
2015_11_3,0,0,0,0,0,0,0,0,0,0,0
2015_11_4,0,0,0,0,0,0,0,0,0,0,0
2015_11_5,0,0,0,0,0,0,0,0,0,0,0
2015_11_6,0,0,0,0,0,0,0,0,0,0,0
2015_11_7,0,0,0,0,0,0,0,0,0,0,0
2015_11_8,0,0,0,0,0,0,0,0,0,0,0
2015_11_9,0,0,0,0,0,0,0,0,0,0,0
2015_11_10,0,0,0,0,0,0,0,0,0,0,0
2015_11_11,0,0,0,0,0,0,0,0,0,0,0
2015_11_12,0,0,0,0,0,0,0,0,0,0,0
2015_11_13,0,0,0,0,0,0,0,0,0,0,0
2015_11_14,0,0,0,0,0,0,0,0,0,0,0
2015_11_16,0,0,0,0,0,0,0,0,0,0,0
2015_11_18,0,0,0,0,0,0,0,0,0,0,0
2015_11_19,0,0,0,0,0,0,0,0,0,0,0
2015_11_20,0,0,0,0,0,0,0,0,0,0,0
2015_11_23,0,0,0,0,0,0,0,0,0,0,0
2015_11_24,0,0,0,0,0,0,0,0,0,0,0
2015_11_25,0,0,0,0,0,0,0,0,0,0,0
2015_11_30,0,0,0,0,0,0,0,0,0,0,0
2015_12_1,0,0,0,0,0,0,0,0,0,0,0
2015_12_3,0,0,0,0,0,0,0,0,0,0,0
2015_12_4,0,0,0,0,0,0,0,0,0,0,0
2015_12_15,0,0,0,0,0,0,0,0,0,0,0
2015_12_16,0,0,0,0,0,0,0,0,0,0,0
2015_12_28,0,0,0,0,0,0,0,0,0,0,0
2016_1_7,0,0,0,0,0,0,0,0,0,0,0
2016_1_8,0,0,0,0,0,0,0,0,0,0,0
2016_1_11,0,0,0,0,0,0,0,0,0,0,0
  
user,dd990dd5-36ad-4244-b40c-2ed4014fa231,Irma,Avila-Turner,iaturner@navcctv.com
dates/chapters,PBP_WLC_302_4_CHAPTER00,PBP_WLC_302_4_CHAPTER01,PBP_WLC_302_4_CHAPTER02,PBP_WLC_302_4_CHAPTER03,PBP_WLC_302_4_CHAPTER04,PBP_WLC_302_4_CHAPTER05,PBP_WLC_302_4_CHAPTER06,PBP_WLC_302_4_CHAPTER07,PBP_WLC_302_4_CHAPTER08,PBP_WLC_302_4_CHAPTER09,PBP_WLC_302_4_CHAPTER10
2015_10_27,0,0,0,0,0,0,0,0,0,0,0
2015_10_28,0,0,0,0,0,0,0,0,0,0,0
2015_10_29,0,0,0,0,0,0,0,0,0,0,0
2015_10_30,0,0,0,0,0,0,0,0,0,0,0
2015_10_31,0,0,0,0,0,0,0,0,0,0,0
2015_11_1,0,0,0,0,0,0,0,0,0,0,0
2015_11_2,0,0,0,0,0,0,0,0,0,0,0
2015_11_3,0,0,0,0,0,0,0,0,0,0,0
2015_11_4,1,1,4,2,2,2,2,2,2,0,0
2015_11_5,0,0,0,0,0,0,0,0,0,0,0
2015_11_6,0,0,0,0,0,0,0,0,0,0,0
2015_11_7,0,0,0,0,0,0,0,0,0,0,0
2015_11_8,0,0,0,0,0,0,0,0,0,0,0
2015_11_9,0,0,0,0,0,0,0,0,0,0,0
2015_11_10,0,0,0,0,0,0,0,0,0,0,0
2015_11_11,0,0,0,0,0,0,0,0,0,0,0
2015_11_12,0,0,0,0,0,0,0,0,0,0,0
2015_11_13,0,0,0,0,0,0,0,0,0,0,0
2015_11_14,0,0,0,0,0,0,0,0,0,0,0
2015_11_16,0,0,0,0,0,0,0,0,0,0,0
2015_11_18,0,0,0,0,0,0,0,0,0,0,0
2015_11_19,0,0,0,0,0,0,0,0,0,0,0
2015_11_20,0,0,0,0,0,0,0,0,0,0,0
2015_11_23,0,0,0,0,0,0,0,0,0,0,0
2015_11_24,0,0,0,0,0,0,0,0,0,0,0
2015_11_25,0,0,0,0,0,0,0,0,0,0,0
2015_11_30,0,0,0,0,0,0,0,0,0,0,0
2015_12_1,0,0,0,0,0,0,0,0,0,0,0
2015_12_3,0,0,0,0,0,0,0,0,0,0,0
2015_12_4,0,0,0,0,0,0,0,0,0,0,0
2015_12_15,0,0,0,0,0,0,0,0,0,0,0
2015_12_16,0,0,0,0,0,0,0,0,0,0,0
2015_12_28,0,0,0,0,0,0,0,0,0,0,0
2016_1_7,0,0,0,0,0,0,0,0,0,0,0
2016_1_8,0,0,0,0,0,0,0,0,0,0,0
2016_1_11,0,0,0,0,0,0,0,0,0,0,0
  
user,dfecd682-9f44-4b6b-8a5a-dec6e9160002,Katherine,Goldbach,kgoldbach@cubesmart.com
dates/chapters,PBP_WLC_302_4_CHAPTER00,PBP_WLC_302_4_CHAPTER01,PBP_WLC_302_4_CHAPTER02,PBP_WLC_302_4_CHAPTER03,PBP_WLC_302_4_CHAPTER04,PBP_WLC_302_4_CHAPTER05,PBP_WLC_302_4_CHAPTER06,PBP_WLC_302_4_CHAPTER07,PBP_WLC_302_4_CHAPTER08,PBP_WLC_302_4_CHAPTER09,PBP_WLC_302_4_CHAPTER10
2015_10_27,0,0,0,0,0,0,0,0,0,0,0
2015_10_28,0,0,0,0,0,0,0,0,0,0,0
2015_10_29,0,0,0,0,0,0,0,0,0,0,0
2015_10_30,0,0,0,0,0,0,0,0,0,0,0
2015_10_31,0,0,0,0,0,0,0,0,0,0,0
2015_11_1,0,0,0,0,0,0,0,0,0,0,0
2015_11_2,3,1,2,0,0,0,0,0,0,0,0
2015_11_3,0,0,0,1,0,0,0,0,0,0,0
2015_11_4,0,0,0,0,1,2,2,3,2,0,0
2015_11_5,0,0,0,0,0,0,0,0,0,0,0
2015_11_6,0,0,0,0,0,0,0,0,0,0,0
2015_11_7,0,0,0,0,0,0,0,0,0,0,0
2015_11_8,0,0,0,0,0,0,0,0,0,0,0
2015_11_9,0,0,0,0,0,0,0,0,1,1,0
2015_11_10,0,2,0,0,0,0,0,0,1,0,0
2015_11_11,0,0,0,0,0,0,0,0,0,0,0
2015_11_12,0,0,0,0,0,0,0,0,0,0,0
2015_11_13,0,0,0,0,0,0,0,0,0,0,0
2015_11_14,0,0,0,0,0,0,0,0,0,0,0
2015_11_16,0,0,0,0,0,0,0,0,0,0,0
2015_11_18,0,0,0,0,0,0,0,0,0,0,0
2015_11_19,0,0,0,0,0,0,0,0,0,0,0
2015_11_20,0,0,0,0,0,0,0,0,0,0,0
2015_11_23,0,0,0,0,0,0,0,0,0,0,0
2015_11_24,0,0,0,0,0,0,0,0,0,0,0
2015_11_25,0,0,0,0,0,0,0,0,0,0,0
2015_11_30,0,0,0,0,0,0,0,0,0,0,0
2015_12_1,0,0,0,0,0,0,0,0,0,0,0
2015_12_3,0,0,0,0,0,0,0,0,0,0,0
2015_12_4,0,0,0,0,0,0,0,0,0,0,0
2015_12_15,0,0,0,0,0,0,0,0,0,0,0
2015_12_16,0,0,0,0,0,0,0,0,0,0,0
2015_12_28,0,0,0,0,0,0,0,0,0,0,0
2016_1_7,0,0,0,0,0,0,0,0,0,0,0
2016_1_8,0,0,0,0,0,0,0,0,0,0,0
2016_1_11,0,0,0,0,0,0,0,0,0,0,0
  
user,e15aa9d9-75fd-4a9c-8bcd-cc4c0e937f9f,Lana,Tatham,lana.popove@fedex.com
dates/chapters,PBP_WLC_302_4_CHAPTER00,PBP_WLC_302_4_CHAPTER01,PBP_WLC_302_4_CHAPTER02,PBP_WLC_302_4_CHAPTER03,PBP_WLC_302_4_CHAPTER04,PBP_WLC_302_4_CHAPTER05,PBP_WLC_302_4_CHAPTER06,PBP_WLC_302_4_CHAPTER07,PBP_WLC_302_4_CHAPTER08,PBP_WLC_302_4_CHAPTER09,PBP_WLC_302_4_CHAPTER10
2015_10_27,0,0,0,0,0,0,0,0,0,0,0
2015_10_28,0,0,0,0,0,0,0,0,0,0,0
2015_10_29,0,0,0,0,0,0,0,0,0,0,0
2015_10_30,0,0,0,0,0,0,0,0,0,0,0
2015_10_31,1,2,2,2,0,0,0,0,0,0,0
2015_11_1,0,0,1,0,1,2,1,0,0,0,0
2015_11_2,0,0,0,0,0,0,0,0,0,0,0
2015_11_3,0,0,0,0,0,0,0,0,0,0,0
2015_11_4,0,0,0,0,0,0,0,0,0,0,0
2015_11_5,0,0,0,0,0,0,0,0,0,0,0
2015_11_6,0,0,0,0,0,0,0,0,0,0,0
2015_11_7,0,1,2,2,2,2,1,2,2,1,1
2015_11_8,0,0,0,0,0,0,0,0,0,0,0
2015_11_9,0,0,0,0,0,0,0,0,0,0,0
2015_11_10,0,0,0,0,0,0,0,0,0,0,0
2015_11_11,0,0,0,0,0,0,0,0,0,0,0
2015_11_12,0,0,0,0,0,0,0,0,0,0,0
2015_11_13,0,0,0,0,0,0,0,0,0,0,0
2015_11_14,0,0,0,0,0,0,0,0,0,0,0
2015_11_16,0,0,0,0,0,0,0,0,0,0,0
2015_11_18,0,0,0,0,0,0,0,0,0,0,0
2015_11_19,0,0,0,0,0,0,0,0,0,0,0
2015_11_20,0,0,0,0,0,0,0,0,0,0,0
2015_11_23,0,0,0,0,0,0,0,0,0,0,0
2015_11_24,0,0,0,0,0,0,0,0,0,0,0
2015_11_25,0,0,0,0,0,0,0,0,0,0,0
2015_11_30,0,0,0,0,0,0,0,0,0,0,0
2015_12_1,0,0,0,0,0,0,0,0,0,0,0
2015_12_3,0,0,0,0,0,0,0,0,0,0,0
2015_12_4,0,0,0,0,0,0,0,0,0,0,0
2015_12_15,0,0,0,0,0,0,0,0,0,0,0
2015_12_16,0,0,0,0,0,0,0,0,0,0,0
2015_12_28,0,0,0,0,0,0,0,0,0,0,0
2016_1_7,0,0,0,0,0,0,0,0,0,0,0
2016_1_8,0,0,0,0,0,0,0,0,0,0,0
2016_1_11,0,0,0,0,0,0,0,0,0,0,0
  
user,e19644a4-5caa-481f-9ebb-cd1daa2475cd,first_name,last_name,cannot find
dates/chapters,PBP_WLC_302_4_CHAPTER00,PBP_WLC_302_4_CHAPTER01,PBP_WLC_302_4_CHAPTER02,PBP_WLC_302_4_CHAPTER03,PBP_WLC_302_4_CHAPTER04,PBP_WLC_302_4_CHAPTER05,PBP_WLC_302_4_CHAPTER06,PBP_WLC_302_4_CHAPTER07,PBP_WLC_302_4_CHAPTER08,PBP_WLC_302_4_CHAPTER09,PBP_WLC_302_4_CHAPTER10
2015_10_27,0,0,0,0,0,0,0,0,0,0,0
2015_10_28,0,0,0,0,0,0,0,0,0,0,0
2015_10_29,0,0,0,0,0,0,0,0,0,0,0
2015_10_30,0,0,0,0,0,0,0,0,0,0,0
2015_10_31,0,0,0,0,0,0,0,0,0,0,0
2015_11_1,0,0,0,0,0,0,0,0,0,0,0
2015_11_2,0,0,0,0,0,0,0,0,0,0,0
2015_11_3,0,0,0,0,0,0,0,0,0,0,0
2015_11_4,0,0,0,0,0,0,0,0,0,0,0
2015_11_5,1,1,1,1,1,1,1,1,3,1,1
2015_11_6,0,0,0,0,0,0,0,0,0,0,0
2015_11_7,0,0,0,0,0,0,0,0,0,0,0
2015_11_8,0,0,0,0,0,0,0,0,0,0,0
2015_11_9,0,0,0,0,0,0,0,0,0,0,0
2015_11_10,0,0,0,0,0,0,0,0,0,0,0
2015_11_11,0,0,0,0,0,0,0,0,0,0,0
2015_11_12,0,0,0,0,0,0,0,0,0,0,0
2015_11_13,0,0,0,0,0,0,0,0,0,0,0
2015_11_14,0,0,0,0,0,0,0,0,0,0,0
2015_11_16,0,0,0,0,0,0,0,0,0,0,0
2015_11_18,0,0,0,0,0,0,0,0,0,0,0
2015_11_19,0,0,0,0,0,0,0,0,0,0,0
2015_11_20,0,0,0,0,0,0,0,0,0,0,0
2015_11_23,0,0,0,0,0,0,0,0,0,0,0
2015_11_24,0,0,0,0,0,0,0,0,0,0,0
2015_11_25,0,0,0,0,0,0,0,0,0,0,0
2015_11_30,0,0,0,0,0,0,0,0,0,0,0
2015_12_1,0,0,0,0,0,0,0,0,0,0,0
2015_12_3,0,0,0,0,0,0,0,0,0,0,0
2015_12_4,0,0,0,0,0,0,0,0,0,0,0
2015_12_15,0,0,0,0,0,0,0,0,0,0,0
2015_12_16,0,0,0,0,0,0,0,0,0,0,0
2015_12_28,0,0,0,0,0,0,0,0,0,0,0
2016_1_7,0,0,0,0,0,0,0,0,0,0,0
2016_1_8,0,0,0,0,0,0,0,0,0,0,0
2016_1_11,0,0,0,0,0,0,0,0,0,0,0
  
user,e19d5634-58fa-40cd-971d-bf77c96615cc,first_name,last_name,cannot find
dates/chapters,PBP_WLC_302_4_CHAPTER00,PBP_WLC_302_4_CHAPTER01,PBP_WLC_302_4_CHAPTER02,PBP_WLC_302_4_CHAPTER03,PBP_WLC_302_4_CHAPTER04,PBP_WLC_302_4_CHAPTER05,PBP_WLC_302_4_CHAPTER06,PBP_WLC_302_4_CHAPTER07,PBP_WLC_302_4_CHAPTER08,PBP_WLC_302_4_CHAPTER09,PBP_WLC_302_4_CHAPTER10
2015_10_27,0,0,0,0,0,0,0,0,0,0,0
2015_10_28,0,0,0,0,0,0,0,0,0,0,0
2015_10_29,0,0,0,0,0,0,0,0,0,0,0
2015_10_30,0,0,0,0,0,0,0,0,0,0,0
2015_10_31,0,0,0,0,0,0,0,0,0,0,0
2015_11_1,0,0,0,0,0,0,0,0,0,0,0
2015_11_2,0,0,0,0,0,0,0,0,0,0,0
2015_11_3,0,0,0,0,0,0,0,0,0,0,0
2015_11_4,0,0,0,0,0,0,0,0,0,0,0
2015_11_5,0,0,0,0,0,0,0,0,0,0,0
2015_11_6,0,0,0,0,0,0,0,0,0,0,0
2015_11_7,0,0,0,0,0,0,0,0,0,0,0
2015_11_8,0,0,0,0,0,0,0,0,0,0,0
2015_11_9,0,0,0,0,0,0,0,0,0,0,0
2015_11_10,0,0,0,0,0,0,0,0,0,0,0
2015_11_11,0,0,0,0,0,0,0,0,0,0,0
2015_11_12,0,0,0,0,0,0,0,0,0,0,0
2015_11_13,0,0,0,0,0,0,0,0,0,0,0
2015_11_14,0,0,0,0,0,0,0,0,0,0,0
2015_11_16,0,0,0,0,0,0,0,0,0,0,0
2015_11_18,0,0,0,0,0,0,0,0,0,0,0
2015_11_19,0,0,0,0,0,0,0,0,0,0,0
2015_11_20,0,0,0,0,0,0,0,0,0,0,0
2015_11_23,0,0,0,0,0,0,0,0,0,0,0
2015_11_24,0,0,0,0,0,0,0,0,0,0,0
2015_11_25,0,0,0,0,0,0,0,0,0,0,0
2015_11_30,0,0,0,0,0,0,0,0,0,0,0
2015_12_1,0,0,0,0,0,0,0,0,0,0,0
2015_12_3,0,0,0,0,0,0,0,0,0,0,0
2015_12_4,0,0,0,0,0,0,0,0,0,0,0
2015_12_15,0,0,0,0,0,0,0,0,0,0,0
2015_12_16,0,0,0,0,0,0,0,0,0,0,0
2015_12_28,0,0,0,0,0,0,0,0,0,0,0
2016_1_7,0,0,0,0,0,0,0,0,0,0,0
2016_1_8,0,0,0,0,0,0,0,0,0,0,0
2016_1_11,0,0,0,0,0,0,0,0,0,0,0
  
user,e85b1615-82e3-458e-ab9f-ccb8f90316e5,Becky,Tanamachi,bgtanamachi@msn.com
dates/chapters,PBP_WLC_302_4_CHAPTER00,PBP_WLC_302_4_CHAPTER01,PBP_WLC_302_4_CHAPTER02,PBP_WLC_302_4_CHAPTER03,PBP_WLC_302_4_CHAPTER04,PBP_WLC_302_4_CHAPTER05,PBP_WLC_302_4_CHAPTER06,PBP_WLC_302_4_CHAPTER07,PBP_WLC_302_4_CHAPTER08,PBP_WLC_302_4_CHAPTER09,PBP_WLC_302_4_CHAPTER10
2015_10_27,0,0,0,0,0,0,0,0,0,0,0
2015_10_28,0,0,0,0,0,0,0,0,0,0,0
2015_10_29,1,2,1,0,0,0,0,0,0,0,0
2015_10_30,0,0,0,0,0,0,0,0,0,0,0
2015_10_31,0,0,0,0,0,0,0,0,0,0,0
2015_11_1,0,0,0,0,0,0,0,0,0,0,0
2015_11_2,0,0,0,0,0,0,0,0,0,0,0
2015_11_3,0,0,0,0,0,0,0,0,0,0,0
2015_11_4,0,0,0,0,0,0,0,0,0,0,0
2015_11_5,0,1,1,0,0,0,0,0,0,0,0
2015_11_6,0,0,0,0,0,0,0,0,0,0,0
2015_11_7,0,0,0,0,0,0,0,0,0,0,0
2015_11_8,0,0,0,0,0,0,0,0,0,0,0
2015_11_9,0,0,0,0,0,0,0,0,0,0,0
2015_11_10,0,0,0,0,0,0,0,0,0,0,0
2015_11_11,0,0,1,1,1,1,1,1,1,1,0
2015_11_12,0,0,0,0,0,1,1,0,0,0,1
2015_11_13,0,0,0,0,0,0,0,0,0,0,0
2015_11_14,0,0,0,0,0,0,0,0,0,0,0
2015_11_16,0,0,0,0,0,0,0,0,0,0,0
2015_11_18,0,0,0,0,0,0,0,0,0,0,0
2015_11_19,0,0,0,0,0,0,0,0,0,0,0
2015_11_20,0,0,0,0,0,0,0,0,0,0,0
2015_11_23,0,0,0,0,0,0,0,0,0,0,0
2015_11_24,0,0,0,0,0,0,0,0,0,1,0
2015_11_25,0,0,0,0,0,0,0,0,0,0,0
2015_11_30,0,0,0,0,0,0,0,0,0,0,0
2015_12_1,0,0,0,0,0,0,0,0,0,0,0
2015_12_3,0,0,0,0,0,0,0,0,0,0,0
2015_12_4,0,0,0,0,0,0,0,0,0,0,0
2015_12_15,0,0,0,0,0,0,0,0,0,0,0
2015_12_16,0,0,0,0,0,0,0,0,0,0,0
2015_12_28,0,0,0,0,0,0,0,0,0,0,0
2016_1_7,0,0,0,0,0,0,0,0,0,0,0
2016_1_8,0,0,0,0,0,0,0,0,0,0,0
2016_1_11,0,0,0,0,0,0,0,0,0,0,0
  
user,e89b630b-5258-4ba5-8bc7-b8cabb6b84f2,Tania ,Khartabil,tania.khartabil@roche.com
dates/chapters,PBP_WLC_302_4_CHAPTER00,PBP_WLC_302_4_CHAPTER01,PBP_WLC_302_4_CHAPTER02,PBP_WLC_302_4_CHAPTER03,PBP_WLC_302_4_CHAPTER04,PBP_WLC_302_4_CHAPTER05,PBP_WLC_302_4_CHAPTER06,PBP_WLC_302_4_CHAPTER07,PBP_WLC_302_4_CHAPTER08,PBP_WLC_302_4_CHAPTER09,PBP_WLC_302_4_CHAPTER10
2015_10_27,0,0,0,0,0,0,0,0,0,0,0
2015_10_28,0,0,0,0,0,0,0,0,0,0,0
2015_10_29,0,0,0,0,0,0,0,0,0,0,0
2015_10_30,0,0,0,0,0,0,0,0,0,0,0
2015_10_31,0,0,0,0,0,0,0,0,0,0,0
2015_11_1,0,0,0,0,0,0,0,0,0,0,0
2015_11_2,0,0,0,0,0,0,0,0,0,0,0
2015_11_3,0,0,0,0,0,0,0,0,0,0,0
2015_11_4,0,0,0,0,0,0,0,0,0,0,0
2015_11_5,1,1,1,1,1,1,1,0,0,0,0
2015_11_6,0,0,0,0,0,0,0,0,0,0,0
2015_11_7,0,0,0,0,0,0,0,0,0,0,0
2015_11_8,0,0,0,0,0,0,0,0,0,0,0
2015_11_9,0,0,0,0,0,0,0,0,0,0,0
2015_11_10,0,0,0,0,0,0,1,1,1,1,0
2015_11_11,0,0,0,0,0,0,0,0,0,0,0
2015_11_12,0,0,0,0,0,0,0,0,0,0,0
2015_11_13,0,0,0,0,0,0,0,0,0,0,0
2015_11_14,0,0,0,0,0,0,0,0,0,0,0
2015_11_16,0,0,0,0,0,0,0,0,0,0,0
2015_11_18,0,0,0,0,0,0,0,0,0,0,0
2015_11_19,0,0,0,0,0,0,0,0,0,0,0
2015_11_20,0,0,0,0,0,0,0,0,0,0,0
2015_11_23,0,0,0,0,0,0,0,0,0,0,0
2015_11_24,0,0,0,0,0,0,0,0,0,0,0
2015_11_25,0,0,0,0,0,0,0,0,0,0,0
2015_11_30,0,0,0,0,0,0,0,0,0,0,0
2015_12_1,0,0,0,0,0,0,0,0,0,0,0
2015_12_3,0,0,0,0,0,0,0,0,0,0,0
2015_12_4,0,0,0,0,0,0,0,0,0,0,0
2015_12_15,0,0,0,0,0,0,0,0,0,0,0
2015_12_16,0,0,0,0,0,0,0,0,0,0,0
2015_12_28,0,0,0,0,0,0,0,0,0,0,0
2016_1_7,0,0,0,0,0,0,0,0,0,0,0
2016_1_8,0,0,0,0,0,0,0,0,0,0,0
2016_1_11,0,0,0,0,0,0,0,0,0,0,0
  
user,eea58e3d-8198-48e6-8469-5c4b3bdd9646,first_name,last_name,cannot find
dates/chapters,PBP_WLC_302_4_CHAPTER00,PBP_WLC_302_4_CHAPTER01,PBP_WLC_302_4_CHAPTER02,PBP_WLC_302_4_CHAPTER03,PBP_WLC_302_4_CHAPTER04,PBP_WLC_302_4_CHAPTER05,PBP_WLC_302_4_CHAPTER06,PBP_WLC_302_4_CHAPTER07,PBP_WLC_302_4_CHAPTER08,PBP_WLC_302_4_CHAPTER09,PBP_WLC_302_4_CHAPTER10
2015_10_27,0,0,0,0,0,0,0,0,0,0,0
2015_10_28,0,0,0,0,0,0,0,0,0,0,0
2015_10_29,0,0,0,0,0,0,0,0,0,0,0
2015_10_30,0,0,0,0,0,0,0,0,0,0,0
2015_10_31,0,0,0,0,0,0,0,0,0,0,0
2015_11_1,0,0,0,0,0,0,0,0,0,0,0
2015_11_2,0,0,0,0,0,0,0,0,0,0,0
2015_11_3,0,0,0,0,0,0,0,0,0,0,0
2015_11_4,0,0,0,0,0,0,0,0,0,0,0
2015_11_5,0,0,0,0,0,0,0,0,0,0,0
2015_11_6,0,0,0,0,0,0,0,0,0,0,0
2015_11_7,0,0,0,0,0,0,0,0,0,0,0
2015_11_8,0,0,0,0,0,0,0,0,0,0,0
2015_11_9,0,0,0,0,0,0,0,0,0,0,0
2015_11_10,0,0,0,0,0,0,0,0,0,0,0
2015_11_11,0,0,0,0,0,0,0,0,0,0,0
2015_11_12,0,0,0,0,0,0,0,0,0,0,0
2015_11_13,0,0,0,0,0,0,0,0,0,0,0
2015_11_14,0,0,0,0,0,0,0,0,0,0,0
2015_11_16,0,0,0,0,0,0,0,0,0,0,0
2015_11_18,0,0,0,0,0,0,0,0,0,0,0
2015_11_19,0,0,0,0,0,0,0,0,0,0,0
2015_11_20,0,0,0,0,0,0,0,0,0,0,0
2015_11_23,0,0,0,0,0,0,0,0,0,0,0
2015_11_24,0,0,0,0,0,0,0,0,0,0,0
2015_11_25,0,0,0,0,0,0,0,0,0,0,0
2015_11_30,0,0,0,0,0,0,0,0,0,0,0
2015_12_1,0,0,0,0,0,0,0,0,0,0,0
2015_12_3,1,1,8,2,0,0,0,0,0,0,0
2015_12_4,0,0,0,0,0,0,0,0,0,0,0
2015_12_15,0,0,0,0,0,0,0,0,0,0,0
2015_12_16,0,0,0,0,0,0,0,0,0,0,0
2015_12_28,0,0,0,0,0,0,0,0,0,0,0
2016_1_7,0,0,0,0,0,0,0,0,0,0,0
2016_1_8,0,0,0,0,0,0,0,0,0,0,0
2016_1_11,0,0,0,0,0,0,0,0,0,0,0
  
user,f027b2d6-be73-425b-a114-d5b6b0cab7fd,first_name,last_name,cannot find
dates/chapters,PBP_WLC_302_4_CHAPTER00,PBP_WLC_302_4_CHAPTER01,PBP_WLC_302_4_CHAPTER02,PBP_WLC_302_4_CHAPTER03,PBP_WLC_302_4_CHAPTER04,PBP_WLC_302_4_CHAPTER05,PBP_WLC_302_4_CHAPTER06,PBP_WLC_302_4_CHAPTER07,PBP_WLC_302_4_CHAPTER08,PBP_WLC_302_4_CHAPTER09,PBP_WLC_302_4_CHAPTER10
2015_10_27,0,0,0,0,0,0,0,0,0,0,0
2015_10_28,0,0,0,0,0,0,0,0,0,0,0
2015_10_29,0,0,0,0,0,0,0,0,0,0,0
2015_10_30,0,0,0,0,0,0,0,0,0,0,0
2015_10_31,0,0,0,0,0,0,0,0,0,0,0
2015_11_1,0,0,0,0,0,0,0,0,0,0,0
2015_11_2,0,0,0,0,0,0,0,0,0,0,0
2015_11_3,0,0,0,0,0,0,0,0,0,0,0
2015_11_4,0,0,0,0,0,0,0,0,0,0,0
2015_11_5,0,0,0,0,0,0,0,0,0,0,0
2015_11_6,0,0,0,0,0,0,0,0,0,0,0
2015_11_7,0,0,0,0,0,0,0,0,0,0,0
2015_11_8,0,0,0,0,0,0,0,0,0,0,0
2015_11_9,0,0,0,0,0,0,0,0,0,0,0
2015_11_10,0,0,0,0,0,0,0,0,0,0,0
2015_11_11,0,0,0,0,0,0,0,0,0,0,0
2015_11_12,0,0,0,0,0,0,0,0,0,0,0
2015_11_13,0,0,0,0,0,0,0,0,0,0,0
2015_11_14,0,0,0,0,0,0,0,0,0,0,0
2015_11_16,0,0,0,0,0,0,0,0,0,0,0
2015_11_18,0,0,0,0,0,0,0,0,0,0,0
2015_11_19,0,0,0,0,0,0,0,0,0,0,0
2015_11_20,0,0,0,0,0,0,0,0,0,0,0
2015_11_23,0,0,0,0,0,0,0,0,0,0,0
2015_11_24,0,0,0,0,0,0,0,0,0,0,0
2015_11_25,0,0,0,0,0,0,0,0,0,0,0
2015_11_30,0,0,0,0,0,0,0,0,0,0,0
2015_12_1,0,0,0,0,0,0,0,0,0,0,0
2015_12_3,0,0,0,0,0,0,0,0,0,0,0
2015_12_4,0,0,0,0,0,0,0,0,0,0,0
2015_12_15,0,0,0,0,0,0,0,0,0,0,0
2015_12_16,0,0,0,0,0,0,0,0,0,0,0
2015_12_28,0,0,0,0,0,0,0,0,0,0,0
2016_1_7,0,0,0,0,0,0,0,0,0,0,0
2016_1_8,0,0,0,0,0,0,0,0,0,0,0
2016_1_11,0,0,0,0,0,0,0,0,0,0,0
  
user,fd91e66f-9541-449b-af74-0c8d2a7a1fae,first_name,last_name,cannot find
dates/chapters,PBP_WLC_302_4_CHAPTER00,PBP_WLC_302_4_CHAPTER01,PBP_WLC_302_4_CHAPTER02,PBP_WLC_302_4_CHAPTER03,PBP_WLC_302_4_CHAPTER04,PBP_WLC_302_4_CHAPTER05,PBP_WLC_302_4_CHAPTER06,PBP_WLC_302_4_CHAPTER07,PBP_WLC_302_4_CHAPTER08,PBP_WLC_302_4_CHAPTER09,PBP_WLC_302_4_CHAPTER10
2015_10_27,0,0,0,0,0,0,0,0,0,0,0
2015_10_28,0,0,0,0,0,0,0,0,0,0,0
2015_10_29,0,0,0,0,0,0,0,0,0,0,0
2015_10_30,0,0,0,0,0,0,0,0,0,0,0
2015_10_31,0,0,0,0,0,0,0,0,0,0,0
2015_11_1,0,0,0,0,0,0,0,0,0,0,0
2015_11_2,0,0,0,0,0,0,0,0,0,0,0
2015_11_3,0,0,0,0,0,0,0,0,0,0,0
2015_11_4,0,0,0,0,0,0,0,0,0,0,0
2015_11_5,0,0,0,0,0,0,0,0,0,0,0
2015_11_6,0,0,0,0,0,0,0,0,0,0,0
2015_11_7,0,0,0,0,0,0,0,0,0,0,0
2015_11_8,0,0,0,0,0,0,0,0,0,0,0
2015_11_9,0,0,0,0,0,0,0,0,0,0,0
2015_11_10,0,0,0,0,0,0,0,0,0,0,0
2015_11_11,1,1,1,1,2,1,2,2,2,0,0
2015_11_12,0,0,0,0,0,0,0,0,0,0,0
2015_11_13,0,0,0,0,0,0,0,0,0,0,0
2015_11_14,0,0,0,0,0,0,0,0,0,0,0
2015_11_16,0,0,0,0,0,0,0,0,0,0,0
2015_11_18,0,0,0,0,0,0,0,0,0,0,0
2015_11_19,0,0,0,0,0,0,0,0,0,0,0
2015_11_20,0,0,0,0,0,0,0,0,0,0,0
2015_11_23,0,0,0,0,0,0,0,0,0,0,0
2015_11_24,0,0,0,0,0,0,0,0,0,0,0
2015_11_25,0,0,0,0,0,0,0,0,0,0,0
2015_11_30,0,0,0,0,0,0,0,0,0,0,0
2015_12_1,0,0,0,0,0,0,0,0,0,0,0
2015_12_3,0,0,0,0,0,0,0,0,0,0,0
2015_12_4,0,0,0,0,0,0,0,0,0,0,0
2015_12_15,0,0,0,0,0,0,0,0,0,0,0
2015_12_16,0,0,0,0,0,0,0,0,0,0,0
2015_12_28,0,0,0,0,0,0,0,0,0,0,0
2016_1_7,0,0,0,0,0,0,0,0,0,0,0
2016_1_8,0,0,0,0,0,0,0,0,0,0,0
2016_1_11,0,0,0,0,0,0,0,0,0,0,0
  
